2019-11-17 18:49:02.315 INFO  (main) [   ] o.e.j.u.log Logging initialized @1808ms to org.eclipse.jetty.util.log.Slf4jLog
2019-11-17 18:49:02.519 WARN  (main) [   ] o.e.j.x.XmlConfiguration Deprecated method public void org.eclipse.jetty.rewrite.handler.RedirectRegexRule.setReplacement(java.lang.String) in file:///Users/omini/IRP/solr-8.3.0/server/etc/jetty.xml
2019-11-17 18:49:02.659 WARN  (main) [   ] o.e.j.s.AbstractConnector Ignoring deprecated socket close linger time
2019-11-17 18:49:02.659 WARN  (main) [   ] o.e.j.x.XmlConfiguration Deprecated method public void org.eclipse.jetty.server.ServerConnector.setSoLingerTime(int) in file:///Users/omini/IRP/solr-8.3.0/server/etc/jetty-http.xml
2019-11-17 18:49:02.674 INFO  (main) [   ] o.e.j.s.Server jetty-9.4.19.v20190610; built: 2019-06-10T16:30:51.723Z; git: afcf563148970e98786327af5e07c261fda175d3; jvm 1.8.0_222-b10
2019-11-17 18:49:02.717 INFO  (main) [   ] o.e.j.d.p.ScanningAppProvider Deployment monitor [file:///Users/omini/IRP/solr-8.3.0/server/contexts/] at interval 0
2019-11-17 18:49:03.200 INFO  (main) [   ] o.e.j.w.StandardDescriptorProcessor NO JSP Support for /solr, did not find org.apache.jasper.servlet.JspServlet
2019-11-17 18:49:03.213 INFO  (main) [   ] o.e.j.s.session DefaultSessionIdManager workerName=node0
2019-11-17 18:49:03.213 INFO  (main) [   ] o.e.j.s.session No SessionScavenger set, using defaults
2019-11-17 18:49:03.217 INFO  (main) [   ] o.e.j.s.session node0 Scavenging every 660000ms
2019-11-17 18:49:03.333 INFO  (main) [   ] o.a.s.s.SolrDispatchFilter Using logger factory org.apache.logging.slf4j.Log4jLoggerFactory
2019-11-17 18:49:03.340 INFO  (main) [   ] o.a.s.s.SolrDispatchFilter  ___      _       Welcome to Apache Solr™ version 8.3.0
2019-11-17 18:49:03.340 INFO  (main) [   ] o.a.s.s.SolrDispatchFilter / __| ___| |_ _   Starting in standalone mode on port 8983
2019-11-17 18:49:03.340 INFO  (main) [   ] o.a.s.s.SolrDispatchFilter \__ \/ _ \ | '_|  Install dir: /Users/omini/IRP/solr-8.3.0
2019-11-17 18:49:03.344 INFO  (main) [   ] o.a.s.s.SolrDispatchFilter |___/\___/_|_|    Start time: 2019-11-17T18:49:03.344Z
2019-11-17 18:49:03.378 INFO  (main) [   ] o.a.s.c.SolrResourceLoader Using system property solr.solr.home: /Users/omini/IRP/solr-8.3.0/server/solr
2019-11-17 18:49:03.391 INFO  (main) [   ] o.a.s.c.SolrXmlConfig Loading container configuration from /Users/omini/IRP/solr-8.3.0/server/solr/solr.xml
2019-11-17 18:49:03.595 INFO  (main) [   ] o.a.s.c.SolrXmlConfig MBean server found: com.sun.jmx.mbeanserver.JmxMBeanServer@14ec4505, but no JMX reporters were configured - adding default JMX reporter.
2019-11-17 18:49:03.984 INFO  (main) [   ] o.a.s.h.c.HttpShardHandlerFactory Host whitelist initialized: WhitelistHostChecker [whitelistHosts=null, whitelistHostCheckingEnabled=true]
2019-11-17 18:49:04.238 WARN  (main) [   ] o.e.j.u.s.S.config Trusting all certificates configured for Client@4ce1d6d0[provider=null,keyStore=null,trustStore=null]
2019-11-17 18:49:04.238 WARN  (main) [   ] o.e.j.u.s.S.config No Client EndPointIdentificationAlgorithm configured for Client@4ce1d6d0[provider=null,keyStore=null,trustStore=null]
2019-11-17 18:49:04.556 WARN  (main) [   ] o.e.j.u.s.S.config Trusting all certificates configured for Client@77a7cf58[provider=null,keyStore=null,trustStore=null]
2019-11-17 18:49:04.556 WARN  (main) [   ] o.e.j.u.s.S.config No Client EndPointIdentificationAlgorithm configured for Client@77a7cf58[provider=null,keyStore=null,trustStore=null]
2019-11-17 18:49:04.810 INFO  (main) [   ] o.a.s.c.TransientSolrCoreCacheDefault Allocating transient cache for 2147483647 transient cores
2019-11-17 18:49:04.813 INFO  (main) [   ] o.a.s.h.a.MetricsHistoryHandler No .system collection, keeping metrics history in memory.
2019-11-17 18:49:04.899 INFO  (main) [   ] o.a.s.m.r.SolrJmxReporter JMX monitoring for 'solr.node' (registry 'solr.node') enabled at server: com.sun.jmx.mbeanserver.JmxMBeanServer@14ec4505
2019-11-17 18:49:04.899 INFO  (main) [   ] o.a.s.m.r.SolrJmxReporter JMX monitoring for 'solr.jvm' (registry 'solr.jvm') enabled at server: com.sun.jmx.mbeanserver.JmxMBeanServer@14ec4505
2019-11-17 18:49:04.907 INFO  (main) [   ] o.a.s.m.r.SolrJmxReporter JMX monitoring for 'solr.jetty' (registry 'solr.jetty') enabled at server: com.sun.jmx.mbeanserver.JmxMBeanServer@14ec4505
2019-11-17 18:49:05.004 INFO  (main) [   ] o.a.s.c.CorePropertiesLocator Found 1 core definitions underneath /Users/omini/IRP/solr-8.3.0/server/solr
2019-11-17 18:49:05.004 INFO  (main) [   ] o.a.s.c.CorePropertiesLocator Cores are: [sportPerson]
2019-11-17 18:49:05.081 INFO  (coreLoadExecutor-9-thread-1) [   x:sportPerson] o.a.s.c.SolrResourceLoader [sportPerson] Added 61 libs to classloader, from paths: [/Users/omini/IRP/solr-8.3.0/contrib/clustering/lib, /Users/omini/IRP/solr-8.3.0/contrib/extraction/lib, /Users/omini/IRP/solr-8.3.0/contrib/langid/lib, /Users/omini/IRP/solr-8.3.0/contrib/velocity/lib, /Users/omini/IRP/solr-8.3.0/dist]
2019-11-17 18:49:05.164 INFO  (main) [   ] o.e.j.s.h.ContextHandler Started o.e.j.w.WebAppContext@693fe6c9{/solr,file:///Users/omini/IRP/solr-8.3.0/server/solr-webapp/webapp/,AVAILABLE}{/Users/omini/IRP/solr-8.3.0/server/solr-webapp/webapp}
2019-11-17 18:49:05.191 INFO  (main) [   ] o.e.j.s.AbstractConnector Started ServerConnector@4b2bac3f{HTTP/1.1,[http/1.1, h2c]}{0.0.0.0:8983}
2019-11-17 18:49:05.192 INFO  (main) [   ] o.e.j.s.Server Started @4685ms
2019-11-17 18:49:05.549 INFO  (coreLoadExecutor-9-thread-1) [   x:sportPerson] o.a.s.c.SolrConfig Using Lucene MatchVersion: 8.3.0
2019-11-17 18:49:05.791 INFO  (coreLoadExecutor-9-thread-1) [   x:sportPerson] o.a.s.s.IndexSchema [sportPerson] Schema name=nutch
2019-11-17 18:49:05.850 WARN  (coreLoadExecutor-9-thread-1) [   x:sportPerson] o.a.s.c.SolrResourceLoader Solr loaded a deprecated plugin/analysis class [solr.TrieDateField]. Please consult documentation how to replace it accordingly.
2019-11-17 18:49:05.855 WARN  (coreLoadExecutor-9-thread-1) [   x:sportPerson] o.a.s.c.SolrResourceLoader Solr loaded a deprecated plugin/analysis class [solr.TrieDoubleField]. Please consult documentation how to replace it accordingly.
2019-11-17 18:49:05.858 WARN  (coreLoadExecutor-9-thread-1) [   x:sportPerson] o.a.s.c.SolrResourceLoader Solr loaded a deprecated plugin/analysis class [solr.TrieFloatField]. Please consult documentation how to replace it accordingly.
2019-11-17 18:49:05.863 WARN  (coreLoadExecutor-9-thread-1) [   x:sportPerson] o.a.s.c.SolrResourceLoader Solr loaded a deprecated plugin/analysis class [solr.TrieIntField]. Please consult documentation how to replace it accordingly.
2019-11-17 18:49:05.869 WARN  (coreLoadExecutor-9-thread-1) [   x:sportPerson] o.a.s.c.SolrResourceLoader Solr loaded a deprecated plugin/analysis class [solr.LatLonType]. Please consult documentation how to replace it accordingly.
2019-11-17 18:49:05.873 WARN  (coreLoadExecutor-9-thread-1) [   x:sportPerson] o.a.s.c.SolrResourceLoader Solr loaded a deprecated plugin/analysis class [solr.TrieLongField]. Please consult documentation how to replace it accordingly.
2019-11-17 18:49:05.918 WARN  (coreLoadExecutor-9-thread-1) [   x:sportPerson] o.a.s.c.SolrResourceLoader Solr loaded a deprecated plugin/analysis class [solr.SynonymFilterFactory]. Please consult documentation how to replace it accordingly.
2019-11-17 18:49:05.922 WARN  (coreLoadExecutor-9-thread-1) [   x:sportPerson] o.a.s.c.SolrResourceLoader Solr loaded a deprecated plugin/analysis class [solr.WordDelimiterFilterFactory]. Please consult documentation how to replace it accordingly.
2019-11-17 18:49:06.103 INFO  (coreLoadExecutor-9-thread-1) [   x:sportPerson] o.a.s.s.IndexSchema Loaded schema nutch/1.5 with uniqueid field id
2019-11-17 18:49:06.120 INFO  (coreLoadExecutor-9-thread-1) [   x:sportPerson] o.a.s.c.CoreContainer Creating SolrCore 'sportPerson' using configuration from instancedir /Users/omini/IRP/solr-8.3.0/server/solr/sportPerson, trusted=true
2019-11-17 18:49:06.158 INFO  (coreLoadExecutor-9-thread-1) [   x:sportPerson] o.a.s.m.r.SolrJmxReporter JMX monitoring for 'solr.core.sportPerson' (registry 'solr.core.sportPerson') enabled at server: com.sun.jmx.mbeanserver.JmxMBeanServer@14ec4505
2019-11-17 18:49:06.182 INFO  (coreLoadExecutor-9-thread-1) [   x:sportPerson] o.a.s.c.SolrCore [[sportPerson] ] Opening new SolrCore at [/Users/omini/IRP/solr-8.3.0/server/solr/sportPerson], dataDir=[/Users/omini/IRP/solr-8.3.0/server/solr/sportPerson/data/]
2019-11-17 18:49:06.228 INFO  (coreLoadExecutor-9-thread-1) [   x:sportPerson] o.a.s.r.XSLTResponseWriter xsltCacheLifetimeSeconds=5
2019-11-17 18:49:07.018 INFO  (coreLoadExecutor-9-thread-1) [   x:sportPerson] o.a.s.u.UpdateHandler Using UpdateLog implementation: org.apache.solr.update.UpdateLog
2019-11-17 18:49:07.018 INFO  (coreLoadExecutor-9-thread-1) [   x:sportPerson] o.a.s.u.UpdateLog Initializing UpdateLog: dataDir= defaultSyncLevel=FLUSH numRecordsToKeep=100 maxNumLogsToKeep=10 numVersionBuckets=65536
2019-11-17 18:49:07.057 INFO  (coreLoadExecutor-9-thread-1) [   x:sportPerson] o.a.s.u.CommitTracker Hard AutoCommit: if uncommitted for 15000ms; 
2019-11-17 18:49:07.058 INFO  (coreLoadExecutor-9-thread-1) [   x:sportPerson] o.a.s.u.CommitTracker Soft AutoCommit: disabled
2019-11-17 18:49:07.225 INFO  (coreLoadExecutor-9-thread-1) [   x:sportPerson] o.a.s.s.SolrIndexSearcher Opening [Searcher@5d594b84[sportPerson] main]
2019-11-17 18:49:07.303 INFO  (coreLoadExecutor-9-thread-1) [   x:sportPerson] o.a.s.r.ManagedResourceStorage File-based storage initialized to use dir: /Users/omini/IRP/solr-8.3.0/server/solr/sportPerson/conf
2019-11-17 18:49:07.434 INFO  (coreLoadExecutor-9-thread-1) [   x:sportPerson] o.a.s.h.c.SpellCheckComponent Initializing spell checkers
2019-11-17 18:49:07.457 INFO  (coreLoadExecutor-9-thread-1) [   x:sportPerson] o.a.s.s.DirectSolrSpellChecker init: {name=default,field=_text_,classname=solr.DirectSolrSpellChecker,distanceMeasure=internal,accuracy=0.5,maxEdits=2,minPrefix=1,maxInspections=5,minQueryLength=4,maxQueryFrequency=0.01}
2019-11-17 18:49:07.477 INFO  (coreLoadExecutor-9-thread-1) [   x:sportPerson] o.a.s.h.ReplicationHandler Commits will be reserved for 10000ms.
2019-11-17 18:49:07.503 INFO  (searcherExecutor-10-thread-1-processing-x:sportPerson) [   x:sportPerson] o.a.s.c.QuerySenderListener QuerySenderListener sending requests to Searcher@5d594b84[sportPerson] main{ExitableDirectoryReader(UninvertingDirectoryReader(Uninverting(_0(8.3.0):C66:[diagnostics={java.vendor=AdoptOpenJDK, os=Mac OS X, java.version=1.8.0_222, java.vm.version=25.222-b10, lucene.version=8.3.0, os.arch=x86_64, java.runtime.version=1.8.0_222-b10, source=flush, os.version=10.15, timestamp=1573769522048}]:[attributes={Lucene50StoredFieldsFormat.mode=BEST_SPEED}])))}
2019-11-17 18:49:07.503 INFO  (searcherExecutor-10-thread-1-processing-x:sportPerson) [   x:sportPerson] o.a.s.c.QuerySenderListener QuerySenderListener done.
2019-11-17 18:49:07.503 INFO  (searcherExecutor-10-thread-1-processing-x:sportPerson) [   x:sportPerson] o.a.s.h.c.SpellCheckComponent Loading spell index for spellchecker: default
2019-11-17 18:49:07.513 INFO  (searcherExecutor-10-thread-1-processing-x:sportPerson) [   x:sportPerson] o.a.s.c.SolrCore [sportPerson] Registered new searcher Searcher@5d594b84[sportPerson] main{ExitableDirectoryReader(UninvertingDirectoryReader(Uninverting(_0(8.3.0):C66:[diagnostics={java.vendor=AdoptOpenJDK, os=Mac OS X, java.version=1.8.0_222, java.vm.version=25.222-b10, lucene.version=8.3.0, os.arch=x86_64, java.runtime.version=1.8.0_222-b10, source=flush, os.version=10.15, timestamp=1573769522048}]:[attributes={Lucene50StoredFieldsFormat.mode=BEST_SPEED}])))}
2019-11-17 19:06:04.719 INFO  (qtp1850180796-17) [   x:sportPerson] o.a.s.u.p.LogUpdateProcessorFactory [sportPerson]  webapp=/solr path=/update params={wt=javabin&version=2}{add=[https://en.wikipedia.org/wiki/Lists_of_sportspeople (1650477041762435072), https://www.thefamouspeople.com/sports-persons.php (1650477041884069888), https://www.thefamouspeople.com/sports-persons.php?page=10 (1650477041890361344), https://www.thefamouspeople.com/sports-persons.php?page=11 (1650477041895604224), https://www.thefamouspeople.com/sports-persons.php?page=2 (1650477041907138560), https://www.thefamouspeople.com/sports-persons.php?page=3 (1650477041911332864), https://www.thefamouspeople.com/sports-persons.php?page=4 (1650477041914478592), https://www.thefamouspeople.com/sports-persons.php?page=5 (1650477041918672896), https://www.thefamouspeople.com/sports-persons.php?page=6 (1650477041922867200), https://www.thefamouspeople.com/sports-persons.php?page=7 (1650477041928110080), ... (12 adds)]} 0 269
2019-11-17 19:06:04.761 INFO  (qtp1850180796-15) [   x:sportPerson] o.a.s.u.DirectUpdateHandler2 start commit{_version_=1650477041985781760,optimize=false,openSearcher=true,waitSearcher=true,expungeDeletes=false,softCommit=false,prepareCommit=false}
2019-11-17 19:06:04.761 INFO  (qtp1850180796-15) [   x:sportPerson] o.a.s.u.SolrIndexWriter Calling setCommitData with IW:org.apache.solr.update.SolrIndexWriter@56ab7d1f commitCommandVersion:1650477041985781760
2019-11-17 19:06:04.923 INFO  (qtp1850180796-15) [   x:sportPerson] o.a.s.s.SolrIndexSearcher Opening [Searcher@164c831c[sportPerson] main]
2019-11-17 19:06:04.926 INFO  (qtp1850180796-15) [   x:sportPerson] o.a.s.u.DirectUpdateHandler2 end_commit_flush
2019-11-17 19:06:04.928 INFO  (searcherExecutor-10-thread-1-processing-x:sportPerson) [   x:sportPerson] o.a.s.c.QuerySenderListener QuerySenderListener sending requests to Searcher@164c831c[sportPerson] main{ExitableDirectoryReader(UninvertingDirectoryReader(Uninverting(_0(8.3.0):C66:[diagnostics={java.vendor=AdoptOpenJDK, os=Mac OS X, java.version=1.8.0_222, java.vm.version=25.222-b10, lucene.version=8.3.0, os.arch=x86_64, java.runtime.version=1.8.0_222-b10, source=flush, os.version=10.15, timestamp=1573769522048}]:[attributes={Lucene50StoredFieldsFormat.mode=BEST_SPEED}]) Uninverting(_1(8.3.0):C12:[diagnostics={os=Mac OS X, java.vendor=AdoptOpenJDK, java.version=1.8.0_222, java.vm.version=25.222-b10, lucene.version=8.3.0, os.arch=x86_64, java.runtime.version=1.8.0_222-b10, source=flush, os.version=10.15, timestamp=1574017564893}]:[attributes={Lucene50StoredFieldsFormat.mode=BEST_SPEED}])))}
2019-11-17 19:06:04.928 INFO  (searcherExecutor-10-thread-1-processing-x:sportPerson) [   x:sportPerson] o.a.s.c.QuerySenderListener QuerySenderListener done.
2019-11-17 19:06:04.941 INFO  (searcherExecutor-10-thread-1-processing-x:sportPerson) [   x:sportPerson] o.a.s.c.SolrCore [sportPerson] Registered new searcher Searcher@164c831c[sportPerson] main{ExitableDirectoryReader(UninvertingDirectoryReader(Uninverting(_0(8.3.0):C66:[diagnostics={java.vendor=AdoptOpenJDK, os=Mac OS X, java.version=1.8.0_222, java.vm.version=25.222-b10, lucene.version=8.3.0, os.arch=x86_64, java.runtime.version=1.8.0_222-b10, source=flush, os.version=10.15, timestamp=1573769522048}]:[attributes={Lucene50StoredFieldsFormat.mode=BEST_SPEED}]) Uninverting(_1(8.3.0):C12:[diagnostics={os=Mac OS X, java.vendor=AdoptOpenJDK, java.version=1.8.0_222, java.vm.version=25.222-b10, lucene.version=8.3.0, os.arch=x86_64, java.runtime.version=1.8.0_222-b10, source=flush, os.version=10.15, timestamp=1574017564893}]:[attributes={Lucene50StoredFieldsFormat.mode=BEST_SPEED}])))}
2019-11-17 19:06:04.950 INFO  (qtp1850180796-15) [   x:sportPerson] o.a.s.u.p.LogUpdateProcessorFactory [sportPerson]  webapp=/solr path=/update params={waitSearcher=true&commit=true&softCommit=false&wt=javabin&version=2}{commit=} 0 190
2019-11-17 19:06:04.953 INFO  (qtp1850180796-21) [   x:sportPerson] o.a.s.u.DirectUpdateHandler2 start commit{_version_=1650477042188156928,optimize=false,openSearcher=true,waitSearcher=true,expungeDeletes=false,softCommit=false,prepareCommit=false}
2019-11-17 19:06:04.956 INFO  (qtp1850180796-21) [   x:sportPerson] o.a.s.u.DirectUpdateHandler2 No uncommitted changes. Skipping IW.commit.
2019-11-17 19:06:04.957 INFO  (qtp1850180796-21) [   x:sportPerson] o.a.s.u.DirectUpdateHandler2 end_commit_flush
2019-11-17 19:06:04.957 INFO  (qtp1850180796-21) [   x:sportPerson] o.a.s.u.p.LogUpdateProcessorFactory [sportPerson]  webapp=/solr path=/update params={waitSearcher=true&commit=true&softCommit=false&wt=javabin&version=2}{commit=} 0 4
2019-11-17 19:06:08.038 INFO  (qtp1850180796-14) [   x:sportPerson] o.a.s.u.DirectUpdateHandler2 start commit{_version_=1650477045423013888,optimize=false,openSearcher=true,waitSearcher=true,expungeDeletes=false,softCommit=false,prepareCommit=false}
2019-11-17 19:06:08.038 INFO  (qtp1850180796-14) [   x:sportPerson] o.a.s.u.DirectUpdateHandler2 No uncommitted changes. Skipping IW.commit.
2019-11-17 19:06:08.039 INFO  (qtp1850180796-14) [   x:sportPerson] o.a.s.u.DirectUpdateHandler2 end_commit_flush
2019-11-17 19:06:08.039 INFO  (qtp1850180796-14) [   x:sportPerson] o.a.s.u.p.LogUpdateProcessorFactory [sportPerson]  webapp=/solr path=/update params={waitSearcher=true&commit=true&softCommit=false&wt=javabin&version=2}{commit=} 0 1
2019-11-17 19:43:06.557 INFO  (qtp1850180796-20) [   x:sportPerson] o.a.s.c.S.Request [sportPerson]  webapp=/solr path=/select params={q=content:"federer"~10&hl=on&hl.fragsize=450&hl.fl=content} hits=7 status=0 QTime=269
2019-11-17 19:43:49.260 INFO  (qtp1850180796-18) [   x:sportPerson] o.a.s.c.S.Request [sportPerson]  webapp=/solr path=/select params={q=content:"federer"~10&hl=on&hl.fragsize=450&hl.fl=content} hits=7 status=0 QTime=63
2019-11-17 19:44:15.383 INFO  (qtp1850180796-21) [   x:sportPerson] o.a.s.c.S.Request [sportPerson]  webapp=/solr path=/select params={q=content:"a"~10&hl=on&hl.fragsize=450&hl.fl=content} hits=62 status=0 QTime=94
2019-11-17 20:25:00.030 INFO  (qtp1850180796-17) [   x:sportPerson] o.a.s.u.p.LogUpdateProcessorFactory [sportPerson]  webapp=/solr path=/update params={wt=javabin&version=2}{add=[https://api.content-ad.net/ (1650482004040351744), https://creativecommons.org/licenses/by-sa/3.0/ (1650482004052934656), https://en.wikipedia.org/wiki/3x3_basketball (1650482004068663296), https://en.wikipedia.org/wiki/AFLX (1650482004084391936), https://en.wikipedia.org/wiki/American_flag_rugby (1650482004093829120), https://en.wikipedia.org/wiki/American_football (1650482004100120576), https://en.wikipedia.org/wiki/Amputee_football (1650482004143112192), https://en.wikipedia.org/wiki/Arena_football (1650482004150452224), https://en.wikipedia.org/wiki/Association_football (1650482004160937984), https://en.wikipedia.org/wiki/Australian_rules_football (1650482004192395264), ... (972 adds)]} 0 3091
2019-11-17 20:25:00.048 INFO  (qtp1850180796-15) [   x:sportPerson] o.a.s.u.DirectUpdateHandler2 start commit{_version_=1650482007295131648,optimize=false,openSearcher=true,waitSearcher=true,expungeDeletes=false,softCommit=false,prepareCommit=false}
2019-11-17 20:25:00.048 INFO  (qtp1850180796-15) [   x:sportPerson] o.a.s.u.SolrIndexWriter Calling setCommitData with IW:org.apache.solr.update.SolrIndexWriter@56ab7d1f commitCommandVersion:1650482007295131648
2019-11-17 20:25:01.483 INFO  (qtp1850180796-15) [   x:sportPerson] o.a.s.s.SolrIndexSearcher Opening [Searcher@2d7d8f4[sportPerson] main]
2019-11-17 20:25:01.485 INFO  (searcherExecutor-10-thread-1-processing-x:sportPerson) [   x:sportPerson] o.a.s.c.QuerySenderListener QuerySenderListener sending requests to Searcher@2d7d8f4[sportPerson] main{ExitableDirectoryReader(UninvertingDirectoryReader(Uninverting(_1(8.3.0):C12:[diagnostics={os=Mac OS X, java.vendor=AdoptOpenJDK, java.version=1.8.0_222, java.vm.version=25.222-b10, lucene.version=8.3.0, os.arch=x86_64, java.runtime.version=1.8.0_222-b10, source=flush, os.version=10.15, timestamp=1574017564893}]:[attributes={Lucene50StoredFieldsFormat.mode=BEST_SPEED}]) Uninverting(_2(8.3.0):C972:[diagnostics={os=Mac OS X, java.vendor=AdoptOpenJDK, java.version=1.8.0_222, java.vm.version=25.222-b10, lucene.version=8.3.0, os.arch=x86_64, java.runtime.version=1.8.0_222-b10, source=flush, os.version=10.15, timestamp=1574022301441}]:[attributes={Lucene50StoredFieldsFormat.mode=BEST_SPEED}])))}
2019-11-17 20:25:01.485 INFO  (searcherExecutor-10-thread-1-processing-x:sportPerson) [   x:sportPerson] o.a.s.c.QuerySenderListener QuerySenderListener done.
2019-11-17 20:25:01.487 INFO  (qtp1850180796-15) [   x:sportPerson] o.a.s.u.DirectUpdateHandler2 end_commit_flush
2019-11-17 20:25:01.494 INFO  (searcherExecutor-10-thread-1-processing-x:sportPerson) [   x:sportPerson] o.a.s.c.SolrCore [sportPerson] Registered new searcher Searcher@2d7d8f4[sportPerson] main{ExitableDirectoryReader(UninvertingDirectoryReader(Uninverting(_1(8.3.0):C12:[diagnostics={os=Mac OS X, java.vendor=AdoptOpenJDK, java.version=1.8.0_222, java.vm.version=25.222-b10, lucene.version=8.3.0, os.arch=x86_64, java.runtime.version=1.8.0_222-b10, source=flush, os.version=10.15, timestamp=1574017564893}]:[attributes={Lucene50StoredFieldsFormat.mode=BEST_SPEED}]) Uninverting(_2(8.3.0):C972:[diagnostics={os=Mac OS X, java.vendor=AdoptOpenJDK, java.version=1.8.0_222, java.vm.version=25.222-b10, lucene.version=8.3.0, os.arch=x86_64, java.runtime.version=1.8.0_222-b10, source=flush, os.version=10.15, timestamp=1574022301441}]:[attributes={Lucene50StoredFieldsFormat.mode=BEST_SPEED}])))}
2019-11-17 20:25:01.501 INFO  (qtp1850180796-15) [   x:sportPerson] o.a.s.u.p.LogUpdateProcessorFactory [sportPerson]  webapp=/solr path=/update params={waitSearcher=true&commit=true&softCommit=false&wt=javabin&version=2}{commit=} 0 1453
2019-11-17 20:25:01.504 INFO  (qtp1850180796-14) [   x:sportPerson] o.a.s.u.DirectUpdateHandler2 start commit{_version_=1650482008821858304,optimize=false,openSearcher=true,waitSearcher=true,expungeDeletes=false,softCommit=false,prepareCommit=false}
2019-11-17 20:25:01.504 INFO  (qtp1850180796-14) [   x:sportPerson] o.a.s.u.DirectUpdateHandler2 No uncommitted changes. Skipping IW.commit.
2019-11-17 20:25:01.504 INFO  (qtp1850180796-14) [   x:sportPerson] o.a.s.u.DirectUpdateHandler2 end_commit_flush
2019-11-17 20:25:01.504 INFO  (qtp1850180796-14) [   x:sportPerson] o.a.s.u.p.LogUpdateProcessorFactory [sportPerson]  webapp=/solr path=/update params={waitSearcher=true&commit=true&softCommit=false&wt=javabin&version=2}{commit=} 0 1
2019-11-17 20:25:05.177 INFO  (qtp1850180796-21) [   x:sportPerson] o.a.s.u.p.LogUpdateProcessorFactory [sportPerson]  webapp=/solr path=/update params={wt=javabin&version=2}{delete=[https://www.googletagservices.com/ (-1650482012671180800), https://static.h-bid.com/thefamouspeople.com/20190319/snhb-thefamouspeople.com.min.js?20190520 (-1650482012673277952), https://en.wikipedia.org/w/opensearch_desc.php (-1650482012673277953), https://en.wikipedia.org/w/index.php?title=Template:Team_sports&action=edit (-1650482012673277954), https://en.wikipedia.org/w/index.php?title=Lists_of_sportspeople&action=edit&section=1 (-1650482012673277955), https://en.wikipedia.org/w/index.php?title=Lists_of_sportspeople&action=edit (-1650482012673277956), https://en.wikipedia.org/w/api.php?action=rsd (-1650482012673277957)]} 0 4
2019-11-17 20:25:05.191 INFO  (qtp1850180796-15) [   x:sportPerson] o.a.s.u.DirectUpdateHandler2 start commit{_version_=1650482012687958016,optimize=false,openSearcher=true,waitSearcher=true,expungeDeletes=false,softCommit=false,prepareCommit=false}
2019-11-17 20:25:05.191 INFO  (qtp1850180796-15) [   x:sportPerson] o.a.s.u.SolrIndexWriter Calling setCommitData with IW:org.apache.solr.update.SolrIndexWriter@56ab7d1f commitCommandVersion:1650482012687958016
2019-11-17 20:25:05.195 INFO  (qtp1850180796-15) [   x:sportPerson] o.a.s.s.SolrIndexSearcher Opening [Searcher@3f4bbda2[sportPerson] main]
2019-11-17 20:25:05.196 INFO  (searcherExecutor-10-thread-1-processing-x:sportPerson) [   x:sportPerson] o.a.s.c.QuerySenderListener QuerySenderListener sending requests to Searcher@3f4bbda2[sportPerson] main{ExitableDirectoryReader(UninvertingDirectoryReader(Uninverting(_1(8.3.0):C12:[diagnostics={os=Mac OS X, java.vendor=AdoptOpenJDK, java.version=1.8.0_222, java.vm.version=25.222-b10, lucene.version=8.3.0, os.arch=x86_64, java.runtime.version=1.8.0_222-b10, source=flush, os.version=10.15, timestamp=1574017564893}]:[attributes={Lucene50StoredFieldsFormat.mode=BEST_SPEED}]) Uninverting(_2(8.3.0):C972:[diagnostics={os=Mac OS X, java.vendor=AdoptOpenJDK, java.version=1.8.0_222, java.vm.version=25.222-b10, lucene.version=8.3.0, os.arch=x86_64, java.runtime.version=1.8.0_222-b10, source=flush, os.version=10.15, timestamp=1574022301441}]:[attributes={Lucene50StoredFieldsFormat.mode=BEST_SPEED}])))}
2019-11-17 20:25:05.197 INFO  (searcherExecutor-10-thread-1-processing-x:sportPerson) [   x:sportPerson] o.a.s.c.QuerySenderListener QuerySenderListener done.
2019-11-17 20:25:05.202 INFO  (searcherExecutor-10-thread-1-processing-x:sportPerson) [   x:sportPerson] o.a.s.c.SolrCore [sportPerson] Registered new searcher Searcher@3f4bbda2[sportPerson] main{ExitableDirectoryReader(UninvertingDirectoryReader(Uninverting(_1(8.3.0):C12:[diagnostics={os=Mac OS X, java.vendor=AdoptOpenJDK, java.version=1.8.0_222, java.vm.version=25.222-b10, lucene.version=8.3.0, os.arch=x86_64, java.runtime.version=1.8.0_222-b10, source=flush, os.version=10.15, timestamp=1574017564893}]:[attributes={Lucene50StoredFieldsFormat.mode=BEST_SPEED}]) Uninverting(_2(8.3.0):C972:[diagnostics={os=Mac OS X, java.vendor=AdoptOpenJDK, java.version=1.8.0_222, java.vm.version=25.222-b10, lucene.version=8.3.0, os.arch=x86_64, java.runtime.version=1.8.0_222-b10, source=flush, os.version=10.15, timestamp=1574022301441}]:[attributes={Lucene50StoredFieldsFormat.mode=BEST_SPEED}])))}
2019-11-17 20:25:05.207 INFO  (qtp1850180796-15) [   x:sportPerson] o.a.s.u.DirectUpdateHandler2 end_commit_flush
2019-11-17 20:25:05.207 INFO  (qtp1850180796-15) [   x:sportPerson] o.a.s.u.p.LogUpdateProcessorFactory [sportPerson]  webapp=/solr path=/update params={waitSearcher=true&commit=true&softCommit=false&wt=javabin&version=2}{commit=} 0 16
2019-11-17 20:25:05.210 INFO  (qtp1850180796-21) [   x:sportPerson] o.a.s.u.DirectUpdateHandler2 start commit{_version_=1650482012707880960,optimize=false,openSearcher=true,waitSearcher=true,expungeDeletes=false,softCommit=false,prepareCommit=false}
2019-11-17 20:25:05.210 INFO  (qtp1850180796-21) [   x:sportPerson] o.a.s.u.DirectUpdateHandler2 No uncommitted changes. Skipping IW.commit.
2019-11-17 20:25:05.210 INFO  (qtp1850180796-21) [   x:sportPerson] o.a.s.u.DirectUpdateHandler2 end_commit_flush
2019-11-17 20:25:05.214 INFO  (qtp1850180796-21) [   x:sportPerson] o.a.s.u.p.LogUpdateProcessorFactory [sportPerson]  webapp=/solr path=/update params={waitSearcher=true&commit=true&softCommit=false&wt=javabin&version=2}{commit=} 0 4
2019-11-17 20:25:18.632 INFO  (qtp1850180796-14) [   x:sportPerson] o.a.s.c.S.Request [sportPerson]  webapp=/solr path=/select params={q=content:"federer"~10&hl=on&hl.fragsize=450&hl.fl=content} hits=17 status=0 QTime=58
2019-11-17 20:25:29.289 INFO  (qtp1850180796-21) [   x:sportPerson] o.a.s.c.S.Request [sportPerson]  webapp=/solr path=/select params={q=content:"federer+wiki"~10&hl=on&hl.fragsize=450&hl.fl=content} hits=1 status=0 QTime=52
2019-11-17 20:25:43.476 INFO  (qtp1850180796-15) [   x:sportPerson] o.a.s.c.S.Request [sportPerson]  webapp=/solr path=/select params={q=content:"demar+derozan"~10&hl=on&hl.fragsize=450&hl.fl=content} hits=10 status=0 QTime=48
2019-11-17 21:54:31.104 INFO  (qtp1850180796-17) [   x:sportPerson] o.a.s.c.S.Request [sportPerson]  webapp=/solr path=/select params={q=content:"biaggio"~10&hl=on&hl.fragsize=450&hl.fl=content} hits=0 status=0 QTime=11
2019-11-17 21:54:57.139 INFO  (qtp1850180796-15) [   x:sportPerson] o.a.s.c.S.Request [sportPerson]  webapp=/solr path=/select params={q=content:"baggio"~10&hl=on&hl.fragsize=450&hl.fl=content} hits=7 status=0 QTime=53
2019-11-17 23:31:11.222 INFO  (qtp1850180796-23) [   x:sportPerson] o.a.s.u.p.LogUpdateProcessorFactory [sportPerson]  webapp=/solr path=/update params={wt=javabin&version=2}{add=[https://af.wikipedia.org/wiki/Kategorie:Renjaers (1650493717107179520), https://als.wikipedia.org/wiki/Kategorie:Kampfsportler (1650493717120811008), https://an.wikipedia.org/wiki/Categor%C3%ADa:Esquiadors (1650493717122908160), https://an.wikipedia.org/wiki/Categor%C3%ADa:Velocistas (1650493717123956736), https://ar.wikipedia.org/wiki/%D8%AA%D8%B5%D9%86%D9%8A%D9%81:%D8%B3%D8%A7%D8%A6%D9%82%D9%88_%D8%B3%D8%A8%D8%A7%D9%82%D8%A7%D8%AA (1650493717125005312), https://ar.wikipedia.org/wiki/%D8%AA%D8%B5%D9%86%D9%8A%D9%81:%D9%82%D9%88%D8%A7%D8%A6%D9%85_%D9%85%D9%84%D8%A7%D9%83%D9%85%D9%8A%D9%86 (1650493717126053888), https://be.wikipedia.org/wiki/%D0%9A%D0%B0%D1%82%D1%8D%D0%B3%D0%BE%D1%80%D1%8B%D1%8F:%D0%91%D0%B5%D0%B3%D1%83%D0%BD%D1%8B_%D0%BD%D0%B0_%D0%BA%D0%B0%D1%80%D0%BE%D1%82%D0%BA%D1%96%D1%8F_%D0%B4%D1%8B%D1%81%D1%82%D0%B0%D0%BD%D1%86%D1%8B%D1%96 (1650493717127102464), https://be.wikipedia.org/wiki/%D0%9A%D0%B0%D1%82%D1%8D%D0%B3%D0%BE%D1%80%D1%8B%D1%8F:%D0%9C%D0%B0%D0%B9%D1%81%D1%82%D1%80%D1%8B_%D0%B1%D0%B0%D1%8F%D0%B2%D1%8B%D1%85_%D0%BC%D0%B0%D1%81%D1%82%D0%B0%D1%86%D1%82%D0%B2%D0%B0%D1%9E (1650493717136539648), https://bg.wikipedia.org/wiki/%D0%9A%D0%B0%D1%82%D0%B5%D0%B3%D0%BE%D1%80%D0%B8%D1%8F:%D0%9C%D0%B0%D0%B9%D1%81%D1%82%D0%BE%D1%80%D0%B8_%D0%BD%D0%B0_%D0%B1%D0%BE%D0%B9%D0%BD%D0%B8_%D0%B8%D0%B7%D0%BA%D1%83%D1%81%D1%82%D0%B2%D0%B0 (1650493717137588224), https://bs.wikipedia.org/wiki/Kategorija:Sprinteri (1650493717139685376), ... (1000 adds)]} 0 3842
2019-11-17 23:31:15.823 INFO  (qtp1850180796-18) [   x:sportPerson] o.a.s.u.p.LogUpdateProcessorFactory [sportPerson]  webapp=/solr path=/update params={wt=javabin&version=2}{add=[https://en.wikipedia.org/wiki/Kansas_City_Brigade (1650493721921191936), https://en.wikipedia.org/wiki/Karch_Kiraly (1650493721925386240), https://en.wikipedia.org/wiki/Karen_Briggs_(judoka) (1650493721929580544), https://en.wikipedia.org/wiki/Karl_Geis (1650493721930629120), https://en.wikipedia.org/wiki/Karrie_Webb (1650493721931677696), https://en.wikipedia.org/wiki/Kate_Adie (1650493721936920576), https://en.wikipedia.org/wiki/Kathakali (1650493721940066304), https://en.wikipedia.org/wiki/Kathy_Long (1650493721947406336), https://en.wikipedia.org/wiki/Kees_van_Aelst (1650493721948454912), https://en.wikipedia.org/wiki/Kelley_Cain (1650493721949503488), ... (1000 adds)]} 0 3837
2019-11-17 23:31:17.313 INFO  (qtp1850180796-22) [   x:sportPerson] o.a.s.u.p.LogUpdateProcessorFactory [sportPerson]  webapp=/solr path=/update params={wt=javabin&version=2}{add=[https://en.wikipedia.org/wiki/Yayuk_Basuki (1650493726119690240), https://en.wikipedia.org/wiki/Yesica_Bopp (1650493726123884544), https://en.wikipedia.org/wiki/Yevgeniy_Arzhanov (1650493726124933120), https://en.wikipedia.org/wiki/Yongle_Emperor (1650493726125981696), https://en.wikipedia.org/wiki/Yousri_Belgaroui (1650493726135418880), https://en.wikipedia.org/wiki/Yue_Fei (1650493726136467456), https://en.wikipedia.org/wiki/Yves_Demaria (1650493726146953216), https://en.wikipedia.org/wiki/Zaza_Sor._Aree (1650493726148001792), https://en.wikipedia.org/wiki/Zdzis%C5%82aw_Kwa%C5%9Bny (1650493726149050368), https://en.wikipedia.org/wiki/Zhao_Pu (1650493726151147520), ... (1000 adds)]} 0 1324
2019-11-17 23:31:18.312 INFO  (qtp1850180796-18) [   x:sportPerson] o.a.s.u.p.LogUpdateProcessorFactory [sportPerson]  webapp=/solr path=/update params={wt=javabin&version=2}{add=[https://www.thefamouspeople.com/profiles/burt-munro-13259.php (1650493727602376704), https://www.thefamouspeople.com/profiles/calfreezy-29735.php (1650493727605522432), https://www.thefamouspeople.com/profiles/cam-newton-14434.php (1650493727606571008), https://www.thefamouspeople.com/profiles/camila-cabello-7796.php (1650493727608668160), https://www.thefamouspeople.com/profiles/carlos-vela-13206.php (1650493727609716736), https://www.thefamouspeople.com/profiles/carmella-11491.php (1650493727611813888), https://www.thefamouspeople.com/profiles/carmelo-anthony-4412.php (1650493727612862464), https://www.thefamouspeople.com/profiles/carol-s-dweck-50926.php (1650493727614959616), https://www.thefamouspeople.com/profiles/carr-otis-46324.php (1650493727617056768), https://www.thefamouspeople.com/profiles/carter-page-48552.php (1650493727618105344), ... (492 adds)]} 0 907
2019-11-17 23:31:18.316 INFO  (qtp1850180796-22) [   x:sportPerson] o.a.s.u.DirectUpdateHandler2 start commit{_version_=1650493728557629440,optimize=false,openSearcher=true,waitSearcher=true,expungeDeletes=false,softCommit=false,prepareCommit=false}
2019-11-17 23:31:18.316 INFO  (qtp1850180796-22) [   x:sportPerson] o.a.s.u.SolrIndexWriter Calling setCommitData with IW:org.apache.solr.update.SolrIndexWriter@56ab7d1f commitCommandVersion:1650493728557629440
2019-11-17 23:31:22.076 INFO  (qtp1850180796-22) [   x:sportPerson] o.a.s.s.SolrIndexSearcher Opening [Searcher@19d9ce13[sportPerson] main]
2019-11-17 23:31:22.077 INFO  (searcherExecutor-10-thread-1-processing-x:sportPerson) [   x:sportPerson] o.a.s.c.QuerySenderListener QuerySenderListener sending requests to Searcher@19d9ce13[sportPerson] main{ExitableDirectoryReader(UninvertingDirectoryReader(Uninverting(_1(8.3.0):C12:[diagnostics={os=Mac OS X, java.vendor=AdoptOpenJDK, java.version=1.8.0_222, java.vm.version=25.222-b10, lucene.version=8.3.0, os.arch=x86_64, java.runtime.version=1.8.0_222-b10, source=flush, os.version=10.15, timestamp=1574017564893}]:[attributes={Lucene50StoredFieldsFormat.mode=BEST_SPEED}]) Uninverting(_2(8.3.0):C972:[diagnostics={os=Mac OS X, java.vendor=AdoptOpenJDK, java.version=1.8.0_222, java.vm.version=25.222-b10, lucene.version=8.3.0, os.arch=x86_64, java.runtime.version=1.8.0_222-b10, source=flush, os.version=10.15, timestamp=1574022301441}]:[attributes={Lucene50StoredFieldsFormat.mode=BEST_SPEED}]) Uninverting(_3(8.3.0):C3492:[diagnostics={os=Mac OS X, java.vendor=AdoptOpenJDK, java.version=1.8.0_222, java.vm.version=25.222-b10, lucene.version=8.3.0, os.arch=x86_64, java.runtime.version=1.8.0_222-b10, source=flush, os.version=10.15, timestamp=1574033481978}]:[attributes={Lucene50StoredFieldsFormat.mode=BEST_SPEED}])))}
2019-11-17 23:31:22.077 INFO  (searcherExecutor-10-thread-1-processing-x:sportPerson) [   x:sportPerson] o.a.s.c.QuerySenderListener QuerySenderListener done.
2019-11-17 23:31:22.078 INFO  (qtp1850180796-22) [   x:sportPerson] o.a.s.u.DirectUpdateHandler2 end_commit_flush
2019-11-17 23:31:22.081 INFO  (searcherExecutor-10-thread-1-processing-x:sportPerson) [   x:sportPerson] o.a.s.c.SolrCore [sportPerson] Registered new searcher Searcher@19d9ce13[sportPerson] main{ExitableDirectoryReader(UninvertingDirectoryReader(Uninverting(_1(8.3.0):C12:[diagnostics={os=Mac OS X, java.vendor=AdoptOpenJDK, java.version=1.8.0_222, java.vm.version=25.222-b10, lucene.version=8.3.0, os.arch=x86_64, java.runtime.version=1.8.0_222-b10, source=flush, os.version=10.15, timestamp=1574017564893}]:[attributes={Lucene50StoredFieldsFormat.mode=BEST_SPEED}]) Uninverting(_2(8.3.0):C972:[diagnostics={os=Mac OS X, java.vendor=AdoptOpenJDK, java.version=1.8.0_222, java.vm.version=25.222-b10, lucene.version=8.3.0, os.arch=x86_64, java.runtime.version=1.8.0_222-b10, source=flush, os.version=10.15, timestamp=1574022301441}]:[attributes={Lucene50StoredFieldsFormat.mode=BEST_SPEED}]) Uninverting(_3(8.3.0):C3492:[diagnostics={os=Mac OS X, java.vendor=AdoptOpenJDK, java.version=1.8.0_222, java.vm.version=25.222-b10, lucene.version=8.3.0, os.arch=x86_64, java.runtime.version=1.8.0_222-b10, source=flush, os.version=10.15, timestamp=1574033481978}]:[attributes={Lucene50StoredFieldsFormat.mode=BEST_SPEED}])))}
2019-11-17 23:31:22.083 INFO  (qtp1850180796-22) [   x:sportPerson] o.a.s.u.p.LogUpdateProcessorFactory [sportPerson]  webapp=/solr path=/update params={waitSearcher=true&commit=true&softCommit=false&wt=javabin&version=2}{commit=} 0 3767
2019-11-17 23:31:22.085 INFO  (qtp1850180796-18) [   x:sportPerson] o.a.s.u.DirectUpdateHandler2 start commit{_version_=1650493732510760960,optimize=false,openSearcher=true,waitSearcher=true,expungeDeletes=false,softCommit=false,prepareCommit=false}
2019-11-17 23:31:22.085 INFO  (qtp1850180796-18) [   x:sportPerson] o.a.s.u.DirectUpdateHandler2 No uncommitted changes. Skipping IW.commit.
2019-11-17 23:31:22.086 INFO  (qtp1850180796-18) [   x:sportPerson] o.a.s.u.DirectUpdateHandler2 end_commit_flush
2019-11-17 23:31:22.086 INFO  (qtp1850180796-18) [   x:sportPerson] o.a.s.u.p.LogUpdateProcessorFactory [sportPerson]  webapp=/solr path=/update params={waitSearcher=true&commit=true&softCommit=false&wt=javabin&version=2}{commit=} 0 1
2019-11-17 23:31:25.458 INFO  (qtp1850180796-15) [   x:sportPerson] o.a.s.u.p.LogUpdateProcessorFactory [sportPerson]  webapp=/solr path=/update params={wt=javabin&version=2}{delete=[https://www.wikidata.org/wiki/Special:EntityPage/Q8750121 (-1650493736027684864), https://www.wikidata.org/wiki/Special:EntityPage/Q7013771 (-1650493736029782016), https://www.wikidata.org/wiki/Special:EntityPage/Q6647269 (-1650493736029782017), https://www.wikidata.org/wiki/Special:EntityPage/Q6647067 (-1650493736029782018), https://www.wikidata.org/wiki/Special:EntityPage/Q6622001 (-1650493736029782019), https://www.wikidata.org/wiki/Special:EntityPage/Q6492519 (-1650493736029782020), https://www.wikidata.org/wiki/Special:EntityPage/Q4388072 (-1650493736029782021), https://www.wikidata.org/wiki/Special:EntityPage/Q3307297 (-1650493736029782022), https://www.wikidata.org/wiki/Special:EntityPage/Q16801871 (-1650493736029782023), https://www.wikidata.org/wiki/Special:EntityPage/Q1646924 (-1650493736029782024), ... (445 deletes)]} 0 21
2019-11-17 23:31:25.474 INFO  (qtp1850180796-22) [   x:sportPerson] o.a.s.u.DirectUpdateHandler2 start commit{_version_=1650493736064385024,optimize=false,openSearcher=true,waitSearcher=true,expungeDeletes=false,softCommit=false,prepareCommit=false}
2019-11-17 23:31:25.475 INFO  (qtp1850180796-22) [   x:sportPerson] o.a.s.u.SolrIndexWriter Calling setCommitData with IW:org.apache.solr.update.SolrIndexWriter@56ab7d1f commitCommandVersion:1650493736064385024
2019-11-17 23:31:25.482 INFO  (qtp1850180796-22) [   x:sportPerson] o.a.s.s.SolrIndexSearcher Opening [Searcher@232e47ef[sportPerson] main]
2019-11-17 23:31:25.483 INFO  (searcherExecutor-10-thread-1-processing-x:sportPerson) [   x:sportPerson] o.a.s.c.QuerySenderListener QuerySenderListener sending requests to Searcher@232e47ef[sportPerson] main{ExitableDirectoryReader(UninvertingDirectoryReader(Uninverting(_1(8.3.0):C12:[diagnostics={os=Mac OS X, java.vendor=AdoptOpenJDK, java.version=1.8.0_222, java.vm.version=25.222-b10, lucene.version=8.3.0, os.arch=x86_64, java.runtime.version=1.8.0_222-b10, source=flush, os.version=10.15, timestamp=1574017564893}]:[attributes={Lucene50StoredFieldsFormat.mode=BEST_SPEED}]) Uninverting(_2(8.3.0):C972:[diagnostics={os=Mac OS X, java.vendor=AdoptOpenJDK, java.version=1.8.0_222, java.vm.version=25.222-b10, lucene.version=8.3.0, os.arch=x86_64, java.runtime.version=1.8.0_222-b10, source=flush, os.version=10.15, timestamp=1574022301441}]:[attributes={Lucene50StoredFieldsFormat.mode=BEST_SPEED}]) Uninverting(_3(8.3.0):C3492:[diagnostics={os=Mac OS X, java.vendor=AdoptOpenJDK, java.version=1.8.0_222, java.vm.version=25.222-b10, lucene.version=8.3.0, os.arch=x86_64, java.runtime.version=1.8.0_222-b10, source=flush, os.version=10.15, timestamp=1574033481978}]:[attributes={Lucene50StoredFieldsFormat.mode=BEST_SPEED}])))}
2019-11-17 23:31:25.483 INFO  (searcherExecutor-10-thread-1-processing-x:sportPerson) [   x:sportPerson] o.a.s.c.QuerySenderListener QuerySenderListener done.
2019-11-17 23:31:25.487 INFO  (qtp1850180796-22) [   x:sportPerson] o.a.s.u.DirectUpdateHandler2 end_commit_flush
2019-11-17 23:31:25.488 INFO  (searcherExecutor-10-thread-1-processing-x:sportPerson) [   x:sportPerson] o.a.s.c.SolrCore [sportPerson] Registered new searcher Searcher@232e47ef[sportPerson] main{ExitableDirectoryReader(UninvertingDirectoryReader(Uninverting(_1(8.3.0):C12:[diagnostics={os=Mac OS X, java.vendor=AdoptOpenJDK, java.version=1.8.0_222, java.vm.version=25.222-b10, lucene.version=8.3.0, os.arch=x86_64, java.runtime.version=1.8.0_222-b10, source=flush, os.version=10.15, timestamp=1574017564893}]:[attributes={Lucene50StoredFieldsFormat.mode=BEST_SPEED}]) Uninverting(_2(8.3.0):C972:[diagnostics={os=Mac OS X, java.vendor=AdoptOpenJDK, java.version=1.8.0_222, java.vm.version=25.222-b10, lucene.version=8.3.0, os.arch=x86_64, java.runtime.version=1.8.0_222-b10, source=flush, os.version=10.15, timestamp=1574022301441}]:[attributes={Lucene50StoredFieldsFormat.mode=BEST_SPEED}]) Uninverting(_3(8.3.0):C3492:[diagnostics={os=Mac OS X, java.vendor=AdoptOpenJDK, java.version=1.8.0_222, java.vm.version=25.222-b10, lucene.version=8.3.0, os.arch=x86_64, java.runtime.version=1.8.0_222-b10, source=flush, os.version=10.15, timestamp=1574033481978}]:[attributes={Lucene50StoredFieldsFormat.mode=BEST_SPEED}])))}
2019-11-17 23:31:25.489 INFO  (qtp1850180796-22) [   x:sportPerson] o.a.s.u.p.LogUpdateProcessorFactory [sportPerson]  webapp=/solr path=/update params={waitSearcher=true&commit=true&softCommit=false&wt=javabin&version=2}{commit=} 0 15
2019-11-17 23:31:25.500 INFO  (qtp1850180796-15) [   x:sportPerson] o.a.s.u.DirectUpdateHandler2 start commit{_version_=1650493736091648000,optimize=false,openSearcher=true,waitSearcher=true,expungeDeletes=false,softCommit=false,prepareCommit=false}
2019-11-17 23:31:25.501 INFO  (qtp1850180796-15) [   x:sportPerson] o.a.s.u.DirectUpdateHandler2 No uncommitted changes. Skipping IW.commit.
2019-11-17 23:31:25.501 INFO  (qtp1850180796-15) [   x:sportPerson] o.a.s.u.DirectUpdateHandler2 end_commit_flush
2019-11-17 23:31:25.501 INFO  (qtp1850180796-15) [   x:sportPerson] o.a.s.u.p.LogUpdateProcessorFactory [sportPerson]  webapp=/solr path=/update params={waitSearcher=true&commit=true&softCommit=false&wt=javabin&version=2}{commit=} 0 1
2019-11-18 05:13:46.411 INFO  (qtp1850180796-22) [   x:sportPerson] o.a.s.c.S.Request [sportPerson]  webapp=/solr path=/select params={q=content:"lopez"~10&hl=on&hl.fragsize=450&hl.fl=content} hits=158 status=0 QTime=33
2019-11-18 08:18:27.181 INFO  (qtp1850180796-14) [   x:sportPerson] o.a.s.c.S.Request [sportPerson]  webapp=/solr path=/select params={q=content:"Simone+Biles"~10&hl=on&hl.fragsize=450&hl.fl=content} hits=34 status=0 QTime=94
2019-11-18 08:58:10.295 INFO  (qtp1850180796-19) [   x:sportPerson] o.a.s.c.S.Request [sportPerson]  webapp=/solr path=/select params={q=content:"lara+gut"~10&hl=on&hl.fragsize=450&hl.fl=content} hits=2 status=0 QTime=20
2019-11-18 08:58:34.984 INFO  (qtp1850180796-20) [   x:sportPerson] o.a.s.c.S.Request [sportPerson]  webapp=/solr path=/select params={q=content:"inti"~10&hl=on&hl.fragsize=450&hl.fl=content} hits=1 status=0 QTime=30
2019-11-18 08:58:51.097 INFO  (qtp1850180796-22) [   x:sportPerson] o.a.s.c.S.Request [sportPerson]  webapp=/solr path=/select params={q=content:"pestoni"~10&hl=on&hl.fragsize=450&hl.fl=content} hits=0 status=0 QTime=3
2019-11-18 09:00:25.134 INFO  (qtp1850180796-20) [   x:sportPerson] o.a.s.c.S.Request [sportPerson]  webapp=/solr path=/select params={q=content:"buffon"~10&hl=on&hl.fragsize=450&hl.fl=content} hits=18 status=0 QTime=45
2019-11-18 09:05:26.546 INFO  (qtp1850180796-22) [   x:sportPerson] o.a.s.c.S.Request [sportPerson]  webapp=/solr path=/select params={q=content:"federer"~10&hl=on&hl.fragsize=450&hl.fl=content} hits=53 status=0 QTime=61
2019-11-18 09:06:08.627 INFO  (qtp1850180796-20) [   x:sportPerson] o.a.s.c.S.Request [sportPerson]  webapp=/solr path=/select params={q=content:"tom+daley"~10&hl=on&hl.fragsize=450&hl.fl=content} hits=3 status=0 QTime=45
2019-11-18 09:10:38.824 INFO  (qtp1850180796-22) [   x:sportPerson] o.a.s.c.S.Request [sportPerson]  webapp=/solr path=/select params={q=content:"giulia+steingruber"~10&hl=on&hl.fragsize=450&hl.fl=content} hits=8 status=0 QTime=74
2019-11-18 09:11:16.027 INFO  (qtp1850180796-20) [   x:sportPerson] o.a.s.c.S.Request [sportPerson]  webapp=/solr path=/select params={q=content:"adam+ondra"~10&hl=on&hl.fragsize=450&hl.fl=content} hits=0 status=0 QTime=4
2019-11-18 09:12:16.928 INFO  (qtp1850180796-17) [   x:sportPerson] o.a.s.c.S.Request [sportPerson]  webapp=/solr path=/select params={q=content:"sidney+crosby"~10&hl=on&hl.fragsize=450&hl.fl=content} hits=24 status=0 QTime=50
2019-11-18 09:13:50.471 INFO  (qtp1850180796-20) [   x:sportPerson] o.a.s.c.S.Request [sportPerson]  webapp=/solr path=/select params={q=content:"cole"~10&hl=on&hl.fragsize=450&hl.fl=content} hits=167 status=0 QTime=55
2019-11-18 09:14:14.044 INFO  (qtp1850180796-17) [   x:sportPerson] o.a.s.c.S.Request [sportPerson]  webapp=/solr path=/select params={q=content:"cole+manchester"~10&hl=on&hl.fragsize=450&hl.fl=content} hits=1 status=0 QTime=14
2019-11-18 09:14:34.247 INFO  (qtp1850180796-20) [   x:sportPerson] o.a.s.c.S.Request [sportPerson]  webapp=/solr path=/select params={q=content:"arsenal"~10&hl=on&hl.fragsize=450&hl.fl=content} hits=93 status=0 QTime=70
2019-11-18 09:15:05.422 INFO  (qtp1850180796-17) [   x:sportPerson] o.a.s.c.S.Request [sportPerson]  webapp=/solr path=/select params={q=content:"giulia+steingruber"~10&hl=on&hl.fragsize=450&hl.fl=content} hits=8 status=0 QTime=55
2019-11-18 09:16:52.446 INFO  (qtp1850180796-20) [   x:sportPerson] o.a.s.c.S.Request [sportPerson]  webapp=/solr path=/select params={q=content:"nadia+comaneci"~10&hl=on&hl.fragsize=450&hl.fl=content} hits=12 status=0 QTime=37
2019-11-18 09:17:14.391 INFO  (qtp1850180796-17) [   x:sportPerson] o.a.s.c.S.Request [sportPerson]  webapp=/solr path=/select params={q=content:"tiger+woods"~10&hl=on&hl.fragsize=450&hl.fl=content} hits=59 status=0 QTime=93
2019-11-18 09:17:31.218 INFO  (qtp1850180796-20) [   x:sportPerson] o.a.s.c.S.Request [sportPerson]  webapp=/solr path=/select params={q=content:"pete+sampras"~10&hl=on&hl.fragsize=450&hl.fl=content} hits=37 status=0 QTime=94
2019-11-18 09:17:54.105 INFO  (qtp1850180796-17) [   x:sportPerson] o.a.s.c.S.Request [sportPerson]  webapp=/solr path=/select params={q=content:"pestoni"~10&hl=on&hl.fragsize=450&hl.fl=content} hits=0 status=0 QTime=0
2019-11-18 09:18:02.995 INFO  (qtp1850180796-20) [   x:sportPerson] o.a.s.c.S.Request [sportPerson]  webapp=/solr path=/select params={q=content:"dominik+egli"~10&hl=on&hl.fragsize=450&hl.fl=content} hits=0 status=0 QTime=4
2019-11-18 09:18:04.132 INFO  (qtp1850180796-17) [   x:sportPerson] o.a.s.c.S.Request [sportPerson]  webapp=/solr path=/select params={q=content:"dominik+egli"~10&hl=on&hl.fragsize=450&hl.fl=content} hits=0 status=0 QTime=0
2019-11-18 09:18:04.283 INFO  (qtp1850180796-20) [   x:sportPerson] o.a.s.c.S.Request [sportPerson]  webapp=/solr path=/select params={q=content:"dominik+egli"~10&hl=on&hl.fragsize=450&hl.fl=content} hits=0 status=0 QTime=0
2019-11-18 09:18:04.446 INFO  (qtp1850180796-17) [   x:sportPerson] o.a.s.c.S.Request [sportPerson]  webapp=/solr path=/select params={q=content:"dominik+egli"~10&hl=on&hl.fragsize=450&hl.fl=content} hits=0 status=0 QTime=0
2019-11-18 09:18:19.256 INFO  (qtp1850180796-20) [   x:sportPerson] o.a.s.c.S.Request [sportPerson]  webapp=/solr path=/select params={q=content:"federer"~10&hl=on&hl.fragsize=450&hl.fl=content} hits=53 status=0 QTime=48
2019-11-18 09:18:49.011 INFO  (qtp1850180796-17) [   x:sportPerson] o.a.s.c.S.Request [sportPerson]  webapp=/solr path=/select params={q=content:"kubalik"~10&hl=on&hl.fragsize=450&hl.fl=content} hits=0 status=0 QTime=2
2019-11-18 09:19:01.697 INFO  (qtp1850180796-20) [   x:sportPerson] o.a.s.c.S.Request [sportPerson]  webapp=/solr path=/select params={q=content:williams&hl=on} hits=717 status=0 QTime=12
2019-11-18 09:19:19.505 INFO  (qtp1850180796-21) [   ] o.a.s.s.HttpSolrCall [admin] webapp=null path=/admin/cores params={indexInfo=false&wt=json&_=1574068759361} status=0 QTime=4
2019-11-18 09:19:19.612 INFO  (qtp1850180796-14) [   ] o.a.s.s.HttpSolrCall [admin] webapp=null path=/admin/info/system params={wt=json&_=1574068759361} status=0 QTime=113
2019-11-18 09:19:19.632 INFO  (qtp1850180796-19) [   ] o.a.s.s.HttpSolrCall [admin] webapp=null path=/admin/info/system params={wt=json&_=1574068759361} status=0 QTime=15
2019-11-18 09:19:23.343 INFO  (qtp1850180796-19) [   ] o.a.s.s.HttpSolrCall [admin] webapp=null path=/admin/cores params={indexInfo=false&wt=json&_=1574068759361} status=0 QTime=0
2019-11-18 09:19:23.350 INFO  (qtp1850180796-14) [   x:sportPerson] o.a.s.c.S.Request [sportPerson]  webapp=/solr path=/admin/ping params={action=status&wt=json&_=1574068759361&ts=1574068759361} status=503 QTime=5
2019-11-18 09:19:23.367 INFO  (qtp1850180796-42) [   x:sportPerson] o.a.s.c.S.Request [sportPerson]  webapp=/solr path=/admin/luke params={numTerms=0&show=index&wt=json&_=1574068763325} status=0 QTime=10
2019-11-18 09:19:23.379 INFO  (qtp1850180796-20) [   x:sportPerson] o.a.s.c.S.Request [sportPerson]  webapp=/solr path=/replication params={wt=json&command=details&_=1574068763326} status=0 QTime=25
2019-11-18 09:19:23.412 INFO  (qtp1850180796-40) [   ] o.a.s.s.HttpSolrCall [admin] webapp=null path=/admin/info/system params={wt=json&_=1574068759361} status=0 QTime=69
2019-11-18 09:19:23.414 INFO  (qtp1850180796-21) [   x:sportPerson] o.a.s.c.S.Request [sportPerson]  webapp=/solr path=/admin/system params={wt=json&_=1574068763326} status=0 QTime=66
2019-11-18 09:19:35.856 INFO  (qtp1850180796-22) [   ] o.a.s.s.HttpSolrCall [admin] webapp=null path=/admin/cores params={indexInfo=false&wt=json&_=1574068759361} status=0 QTime=0
2019-11-18 09:19:35.927 INFO  (qtp1850180796-14) [   ] o.a.s.s.HttpSolrCall [admin] webapp=null path=/admin/info/system params={wt=json&_=1574068759361} status=0 QTime=72
2019-11-18 09:19:38.178 INFO  (qtp1850180796-18) [   x:sportPerson] o.a.s.c.S.Request [sportPerson]  webapp=/solr path=/select params={q=*:*&_=1574068775807} hits=4476 status=0 QTime=4
2019-11-18 09:20:01.336 INFO  (qtp1850180796-14) [   x:sportPerson] o.a.s.c.S.Request [sportPerson]  webapp=/solr path=/select params={q=content:"football"~10&hl=on&hl.fragsize=450&hl.fl=content} hits=1822 status=0 QTime=77
2019-11-18 09:20:13.050 INFO  (qtp1850180796-15) [   x:sportPerson] o.a.s.c.S.Request [sportPerson]  webapp=/solr path=/select params={q=content:"hc+lugano"~10&hl=on&hl.fragsize=450&hl.fl=content} hits=1 status=0 QTime=28
2019-11-18 09:20:41.560 INFO  (qtp1850180796-14) [   x:sportPerson] o.a.s.c.S.Request [sportPerson]  webapp=/solr path=/select params={q=content:"fiala"~10&hl=on&hl.fragsize=450&hl.fl=content} hits=0 status=0 QTime=9
2019-11-18 09:20:53.472 INFO  (qtp1850180796-18) [   x:sportPerson] o.a.s.c.S.Request [sportPerson]  webapp=/solr path=/select params={q=content:"pirlo"~10&hl=on&hl.fragsize=450&hl.fl=content} hits=14 status=0 QTime=32
2019-11-18 09:21:00.352 INFO  (qtp1850180796-15) [   x:sportPerson] o.a.s.c.S.Request [sportPerson]  webapp=/solr path=/select params={q=content:"buffon"~10&hl=on&hl.fragsize=450&hl.fl=content} hits=18 status=0 QTime=34
2019-11-18 09:21:30.745 INFO  (qtp1850180796-14) [   x:sportPerson] o.a.s.c.S.Request [sportPerson]  webapp=/solr path=/select params={q=content:"messi"~10&hl=on&hl.fragsize=450&hl.fl=content} hits=61 status=0 QTime=33
2019-11-18 09:22:11.288 INFO  (qtp1850180796-19) [   x:sportPerson] o.a.s.c.S.Request [sportPerson]  webapp=/solr path=/select params={q=content:"nile+wilson"~10&hl=on&hl.fragsize=450&hl.fl=content} hits=9 status=0 QTime=40
2019-11-18 09:22:22.134 INFO  (qtp1850180796-14) [   x:sportPerson] o.a.s.c.S.Request [sportPerson]  webapp=/solr path=/select params={q=content:"withlock"~10&hl=on&hl.fragsize=450&hl.fl=content} hits=0 status=0 QTime=2
2019-11-18 09:22:28.042 INFO  (qtp1850180796-20) [   x:sportPerson] o.a.s.c.S.Request [sportPerson]  webapp=/solr path=/select params={q=content:"withelock"~10&hl=on&hl.fragsize=450&hl.fl=content} hits=0 status=0 QTime=0
2019-11-18 09:22:34.092 INFO  (qtp1850180796-19) [   x:sportPerson] o.a.s.c.S.Request [sportPerson]  webapp=/solr path=/select params={q=content:"max+whitlock"~10&hl=on&hl.fragsize=450&hl.fl=content} hits=1 status=0 QTime=28
2019-11-18 09:22:44.299 INFO  (qtp1850180796-14) [   x:sportPerson] o.a.s.c.S.Request [sportPerson]  webapp=/solr path=/select params={q=content:"verniaiev"~10&hl=on&hl.fragsize=450&hl.fl=content} hits=1 status=0 QTime=11
2019-11-18 09:49:21.104 INFO  (qtp1850180796-20) [   x:sportPerson] o.a.s.c.S.Request [sportPerson]  webapp=/solr path=/select params={q=content:"football"~10&hl=on&hl.fragsize=450&hl.fl=content} hits=1822 status=0 QTime=57
2019-11-18 09:50:14.330 INFO  (qtp1850180796-14) [   x:sportPerson] o.a.s.c.S.Request [sportPerson]  webapp=/solr path=/select params={q=content:"federer"~10&hl=on&hl.fragsize=450&hl.fl=content} hits=53 status=0 QTime=81
2019-11-18 09:51:13.314 INFO  (qtp1850180796-18) [   x:sportPerson] o.a.s.c.S.Request [sportPerson]  webapp=/solr path=/select params={q=content:"football"~10&hl=on&hl.fragsize=450&hl.fl=content} hits=1822 status=0 QTime=52
2019-11-18 10:37:33.455 INFO  (ShutdownMonitor) [   ] o.e.j.s.AbstractConnector Stopped ServerConnector@4b2bac3f{HTTP/1.1,[http/1.1, h2c]}{0.0.0.0:8983}
2019-11-18 10:37:33.456 INFO  (ShutdownMonitor) [   ] o.e.j.s.session node0 Stopped scavenging
2019-11-18 10:37:33.463 INFO  (ShutdownMonitor) [   ] o.a.s.c.CoreContainer Shutting down CoreContainer instance=208684473
2019-11-18 10:37:33.467 INFO  (coreCloseExecutor-15-thread-1) [   x:sportPerson] o.a.s.c.SolrCore [sportPerson]  CLOSING SolrCore org.apache.solr.core.SolrCore@92fb5c4
2019-11-18 10:37:33.468 INFO  (coreCloseExecutor-15-thread-1) [   x:sportPerson] o.a.s.m.SolrMetricManager Closing metric reporters for registry=solr.core.sportPerson, tag=SolrCore@92fb5c4
2019-11-18 10:37:33.472 INFO  (coreCloseExecutor-15-thread-1) [   x:sportPerson] o.a.s.m.r.SolrJmxReporter Closing reporter [org.apache.solr.metrics.reporters.SolrJmxReporter@6bd04044: rootName = null, domain = solr.core.sportPerson, service url = null, agent id = null] for registry solr.core.sportPerson / com.codahale.metrics.MetricRegistry@3b9e78be
2019-11-18 10:37:33.541 INFO  (ShutdownMonitor) [   ] o.a.s.m.SolrMetricManager Closing metric reporters for registry=solr.node, tag=null
2019-11-18 10:37:33.541 INFO  (ShutdownMonitor) [   ] o.a.s.m.r.SolrJmxReporter Closing reporter [org.apache.solr.metrics.reporters.SolrJmxReporter@ab7a938: rootName = null, domain = solr.node, service url = null, agent id = null] for registry solr.node / com.codahale.metrics.MetricRegistry@27e5d74d
2019-11-18 10:37:33.545 INFO  (ShutdownMonitor) [   ] o.a.s.m.SolrMetricManager Closing metric reporters for registry=solr.jvm, tag=null
2019-11-18 10:37:33.545 INFO  (ShutdownMonitor) [   ] o.a.s.m.r.SolrJmxReporter Closing reporter [org.apache.solr.metrics.reporters.SolrJmxReporter@5dbe30be: rootName = null, domain = solr.jvm, service url = null, agent id = null] for registry solr.jvm / com.codahale.metrics.MetricRegistry@42371145
2019-11-18 10:37:33.547 INFO  (ShutdownMonitor) [   ] o.a.s.m.SolrMetricManager Closing metric reporters for registry=solr.jetty, tag=null
2019-11-18 10:37:33.548 INFO  (ShutdownMonitor) [   ] o.a.s.m.r.SolrJmxReporter Closing reporter [org.apache.solr.metrics.reporters.SolrJmxReporter@4fe89c24: rootName = null, domain = solr.jetty, service url = null, agent id = null] for registry solr.jetty / com.codahale.metrics.MetricRegistry@77306b51
2019-11-18 10:37:33.566 INFO  (ShutdownMonitor) [   ] o.e.j.s.h.ContextHandler Stopped o.e.j.w.WebAppContext@693fe6c9{/solr,null,UNAVAILABLE}{/Users/omini/IRP/solr-8.3.0/server/solr-webapp/webapp}
