2019-11-23 19:00:17.995 INFO  (main) [   ] o.e.j.u.log Logging initialized @1823ms to org.eclipse.jetty.util.log.Slf4jLog
2019-11-23 19:00:18.286 WARN  (main) [   ] o.e.j.x.XmlConfiguration Deprecated method public void org.eclipse.jetty.rewrite.handler.RedirectRegexRule.setReplacement(java.lang.String) in file:///Users/omini/IRP/solr-8.3.0/server/etc/jetty.xml
2019-11-23 19:00:18.421 WARN  (main) [   ] o.e.j.s.AbstractConnector Ignoring deprecated socket close linger time
2019-11-23 19:00:18.421 WARN  (main) [   ] o.e.j.x.XmlConfiguration Deprecated method public void org.eclipse.jetty.server.ServerConnector.setSoLingerTime(int) in file:///Users/omini/IRP/solr-8.3.0/server/etc/jetty-http.xml
2019-11-23 19:00:18.434 INFO  (main) [   ] o.e.j.s.Server jetty-9.4.19.v20190610; built: 2019-06-10T16:30:51.723Z; git: afcf563148970e98786327af5e07c261fda175d3; jvm 1.8.0_222-b10
2019-11-23 19:00:18.474 INFO  (main) [   ] o.e.j.d.p.ScanningAppProvider Deployment monitor [file:///Users/omini/IRP/solr-8.3.0/server/contexts/] at interval 0
2019-11-23 19:00:18.979 INFO  (main) [   ] o.e.j.w.StandardDescriptorProcessor NO JSP Support for /solr, did not find org.apache.jasper.servlet.JspServlet
2019-11-23 19:00:18.994 INFO  (main) [   ] o.e.j.s.session DefaultSessionIdManager workerName=node0
2019-11-23 19:00:18.994 INFO  (main) [   ] o.e.j.s.session No SessionScavenger set, using defaults
2019-11-23 19:00:18.998 INFO  (main) [   ] o.e.j.s.session node0 Scavenging every 600000ms
2019-11-23 19:00:19.106 INFO  (main) [   ] o.a.s.s.SolrDispatchFilter Using logger factory org.apache.logging.slf4j.Log4jLoggerFactory
2019-11-23 19:00:19.112 INFO  (main) [   ] o.a.s.s.SolrDispatchFilter  ___      _       Welcome to Apache Solr™ version 8.3.0
2019-11-23 19:00:19.112 INFO  (main) [   ] o.a.s.s.SolrDispatchFilter / __| ___| |_ _   Starting in standalone mode on port 8983
2019-11-23 19:00:19.112 INFO  (main) [   ] o.a.s.s.SolrDispatchFilter \__ \/ _ \ | '_|  Install dir: /Users/omini/IRP/solr-8.3.0
2019-11-23 19:00:19.113 INFO  (main) [   ] o.a.s.s.SolrDispatchFilter |___/\___/_|_|    Start time: 2019-11-23T19:00:19.113Z
2019-11-23 19:00:19.144 INFO  (main) [   ] o.a.s.c.SolrResourceLoader Using system property solr.solr.home: /Users/omini/IRP/solr-8.3.0/server/solr
2019-11-23 19:00:19.153 INFO  (main) [   ] o.a.s.c.SolrXmlConfig Loading container configuration from /Users/omini/IRP/solr-8.3.0/server/solr/solr.xml
2019-11-23 19:00:19.303 INFO  (main) [   ] o.a.s.c.SolrXmlConfig MBean server found: com.sun.jmx.mbeanserver.JmxMBeanServer@14ec4505, but no JMX reporters were configured - adding default JMX reporter.
2019-11-23 19:00:19.769 INFO  (main) [   ] o.a.s.h.c.HttpShardHandlerFactory Host whitelist initialized: WhitelistHostChecker [whitelistHosts=null, whitelistHostCheckingEnabled=true]
2019-11-23 19:00:19.991 WARN  (main) [   ] o.e.j.u.s.S.config Trusting all certificates configured for Client@4ce1d6d0[provider=null,keyStore=null,trustStore=null]
2019-11-23 19:00:19.991 WARN  (main) [   ] o.e.j.u.s.S.config No Client EndPointIdentificationAlgorithm configured for Client@4ce1d6d0[provider=null,keyStore=null,trustStore=null]
2019-11-23 19:00:20.227 WARN  (main) [   ] o.e.j.u.s.S.config Trusting all certificates configured for Client@77a7cf58[provider=null,keyStore=null,trustStore=null]
2019-11-23 19:00:20.228 WARN  (main) [   ] o.e.j.u.s.S.config No Client EndPointIdentificationAlgorithm configured for Client@77a7cf58[provider=null,keyStore=null,trustStore=null]
2019-11-23 19:00:20.491 INFO  (main) [   ] o.a.s.c.TransientSolrCoreCacheDefault Allocating transient cache for 2147483647 transient cores
2019-11-23 19:00:20.493 INFO  (main) [   ] o.a.s.h.a.MetricsHistoryHandler No .system collection, keeping metrics history in memory.
2019-11-23 19:00:20.581 INFO  (main) [   ] o.a.s.m.r.SolrJmxReporter JMX monitoring for 'solr.node' (registry 'solr.node') enabled at server: com.sun.jmx.mbeanserver.JmxMBeanServer@14ec4505
2019-11-23 19:00:20.582 INFO  (main) [   ] o.a.s.m.r.SolrJmxReporter JMX monitoring for 'solr.jvm' (registry 'solr.jvm') enabled at server: com.sun.jmx.mbeanserver.JmxMBeanServer@14ec4505
2019-11-23 19:00:20.589 INFO  (main) [   ] o.a.s.m.r.SolrJmxReporter JMX monitoring for 'solr.jetty' (registry 'solr.jetty') enabled at server: com.sun.jmx.mbeanserver.JmxMBeanServer@14ec4505
2019-11-23 19:00:20.678 INFO  (main) [   ] o.a.s.c.CorePropertiesLocator Found 1 core definitions underneath /Users/omini/IRP/solr-8.3.0/server/solr
2019-11-23 19:00:20.678 INFO  (main) [   ] o.a.s.c.CorePropertiesLocator Cores are: [sportPerson]
2019-11-23 19:00:20.753 INFO  (coreLoadExecutor-9-thread-1) [   x:sportPerson] o.a.s.c.SolrResourceLoader [sportPerson] Added 61 libs to classloader, from paths: [/Users/omini/IRP/solr-8.3.0/contrib/clustering/lib, /Users/omini/IRP/solr-8.3.0/contrib/extraction/lib, /Users/omini/IRP/solr-8.3.0/contrib/langid/lib, /Users/omini/IRP/solr-8.3.0/contrib/velocity/lib, /Users/omini/IRP/solr-8.3.0/dist]
2019-11-23 19:00:20.774 INFO  (main) [   ] o.e.j.s.h.ContextHandler Started o.e.j.w.WebAppContext@693fe6c9{/solr,file:///Users/omini/IRP/solr-8.3.0/server/solr-webapp/webapp/,AVAILABLE}{/Users/omini/IRP/solr-8.3.0/server/solr-webapp/webapp}
2019-11-23 19:00:20.790 INFO  (main) [   ] o.e.j.s.AbstractConnector Started ServerConnector@4b2bac3f{HTTP/1.1,[http/1.1, h2c]}{0.0.0.0:8983}
2019-11-23 19:00:20.790 INFO  (main) [   ] o.e.j.s.Server Started @4621ms
2019-11-23 19:00:21.101 INFO  (coreLoadExecutor-9-thread-1) [   x:sportPerson] o.a.s.c.SolrConfig Using Lucene MatchVersion: 8.3.0
2019-11-23 19:00:21.309 INFO  (coreLoadExecutor-9-thread-1) [   x:sportPerson] o.a.s.s.IndexSchema [sportPerson] Schema name=nutch
2019-11-23 19:00:21.360 WARN  (coreLoadExecutor-9-thread-1) [   x:sportPerson] o.a.s.c.SolrResourceLoader Solr loaded a deprecated plugin/analysis class [solr.TrieDateField]. Please consult documentation how to replace it accordingly.
2019-11-23 19:00:21.365 WARN  (coreLoadExecutor-9-thread-1) [   x:sportPerson] o.a.s.c.SolrResourceLoader Solr loaded a deprecated plugin/analysis class [solr.TrieDoubleField]. Please consult documentation how to replace it accordingly.
2019-11-23 19:00:21.367 WARN  (coreLoadExecutor-9-thread-1) [   x:sportPerson] o.a.s.c.SolrResourceLoader Solr loaded a deprecated plugin/analysis class [solr.TrieFloatField]. Please consult documentation how to replace it accordingly.
2019-11-23 19:00:21.373 WARN  (coreLoadExecutor-9-thread-1) [   x:sportPerson] o.a.s.c.SolrResourceLoader Solr loaded a deprecated plugin/analysis class [solr.TrieIntField]. Please consult documentation how to replace it accordingly.
2019-11-23 19:00:21.381 WARN  (coreLoadExecutor-9-thread-1) [   x:sportPerson] o.a.s.c.SolrResourceLoader Solr loaded a deprecated plugin/analysis class [solr.LatLonType]. Please consult documentation how to replace it accordingly.
2019-11-23 19:00:21.384 WARN  (coreLoadExecutor-9-thread-1) [   x:sportPerson] o.a.s.c.SolrResourceLoader Solr loaded a deprecated plugin/analysis class [solr.TrieLongField]. Please consult documentation how to replace it accordingly.
2019-11-23 19:00:21.422 WARN  (coreLoadExecutor-9-thread-1) [   x:sportPerson] o.a.s.c.SolrResourceLoader Solr loaded a deprecated plugin/analysis class [solr.SynonymFilterFactory]. Please consult documentation how to replace it accordingly.
2019-11-23 19:00:21.427 WARN  (coreLoadExecutor-9-thread-1) [   x:sportPerson] o.a.s.c.SolrResourceLoader Solr loaded a deprecated plugin/analysis class [solr.WordDelimiterFilterFactory]. Please consult documentation how to replace it accordingly.
2019-11-23 19:00:21.618 INFO  (coreLoadExecutor-9-thread-1) [   x:sportPerson] o.a.s.s.IndexSchema Loaded schema nutch/1.5 with uniqueid field id
2019-11-23 19:00:21.645 INFO  (coreLoadExecutor-9-thread-1) [   x:sportPerson] o.a.s.c.CoreContainer Creating SolrCore 'sportPerson' using configuration from instancedir /Users/omini/IRP/solr-8.3.0/server/solr/sportPerson, trusted=true
2019-11-23 19:00:21.683 INFO  (coreLoadExecutor-9-thread-1) [   x:sportPerson] o.a.s.m.r.SolrJmxReporter JMX monitoring for 'solr.core.sportPerson' (registry 'solr.core.sportPerson') enabled at server: com.sun.jmx.mbeanserver.JmxMBeanServer@14ec4505
2019-11-23 19:00:21.703 INFO  (coreLoadExecutor-9-thread-1) [   x:sportPerson] o.a.s.c.SolrCore [[sportPerson] ] Opening new SolrCore at [/Users/omini/IRP/solr-8.3.0/server/solr/sportPerson], dataDir=[/Users/omini/IRP/solr-8.3.0/server/solr/sportPerson/data/]
2019-11-23 19:00:21.747 INFO  (coreLoadExecutor-9-thread-1) [   x:sportPerson] o.a.s.r.XSLTResponseWriter xsltCacheLifetimeSeconds=5
2019-11-23 19:00:22.372 INFO  (coreLoadExecutor-9-thread-1) [   x:sportPerson] o.a.s.u.UpdateHandler Using UpdateLog implementation: org.apache.solr.update.UpdateLog
2019-11-23 19:00:22.372 INFO  (coreLoadExecutor-9-thread-1) [   x:sportPerson] o.a.s.u.UpdateLog Initializing UpdateLog: dataDir= defaultSyncLevel=FLUSH numRecordsToKeep=100 maxNumLogsToKeep=10 numVersionBuckets=65536
2019-11-23 19:00:22.409 INFO  (coreLoadExecutor-9-thread-1) [   x:sportPerson] o.a.s.u.CommitTracker Hard AutoCommit: if uncommitted for 15000ms; 
2019-11-23 19:00:22.409 INFO  (coreLoadExecutor-9-thread-1) [   x:sportPerson] o.a.s.u.CommitTracker Soft AutoCommit: disabled
2019-11-23 19:00:22.731 INFO  (coreLoadExecutor-9-thread-1) [   x:sportPerson] o.a.s.s.SolrIndexSearcher Opening [Searcher@16fad01[sportPerson] main]
2019-11-23 19:00:22.744 INFO  (coreLoadExecutor-9-thread-1) [   x:sportPerson] o.a.s.r.ManagedResourceStorage File-based storage initialized to use dir: /Users/omini/IRP/solr-8.3.0/server/solr/sportPerson/conf
2019-11-23 19:00:22.772 INFO  (coreLoadExecutor-9-thread-1) [   x:sportPerson] o.a.s.h.c.SpellCheckComponent Initializing spell checkers
2019-11-23 19:00:22.779 INFO  (coreLoadExecutor-9-thread-1) [   x:sportPerson] o.a.s.s.DirectSolrSpellChecker init: {name=default,field=_text_,classname=solr.DirectSolrSpellChecker,distanceMeasure=internal,accuracy=0.5,maxEdits=2,minPrefix=1,maxInspections=5,minQueryLength=4,maxQueryFrequency=0.01}
2019-11-23 19:00:22.793 INFO  (coreLoadExecutor-9-thread-1) [   x:sportPerson] o.a.s.h.ReplicationHandler Commits will be reserved for 10000ms.
2019-11-23 19:00:22.824 INFO  (searcherExecutor-10-thread-1-processing-x:sportPerson) [   x:sportPerson] o.a.s.c.QuerySenderListener QuerySenderListener sending requests to Searcher@16fad01[sportPerson] main{ExitableDirectoryReader(UninvertingDirectoryReader(Uninverting(_3(8.3.0):C3492/2003:[diagnostics={java.vendor=AdoptOpenJDK, os=Mac OS X, java.version=1.8.0_222, java.vm.version=25.222-b10, lucene.version=8.3.0, os.arch=x86_64, java.runtime.version=1.8.0_222-b10, source=flush, os.version=10.15, timestamp=1574033481978}]:[attributes={Lucene50StoredFieldsFormat.mode=BEST_SPEED}]:delGen=5) Uninverting(_4(8.3.0):C13:[diagnostics={java.vendor=AdoptOpenJDK, os=Mac OS X, java.version=1.8.0_222, java.vm.version=25.222-b10, lucene.version=8.3.0, os.arch=x86_64, java.runtime.version=1.8.0_222-b10, source=flush, os.version=10.15, timestamp=1574279790019}]:[attributes={Lucene50StoredFieldsFormat.mode=BEST_SPEED}]) Uninverting(_5(8.3.0):C2786:[diagnostics={java.vendor=AdoptOpenJDK, os=Mac OS X, java.version=1.8.0_222, java.vm.version=25.222-b10, lucene.version=8.3.0, os.arch=x86_64, java.runtime.version=1.8.0_222-b10, source=flush, os.version=10.15, timestamp=1574289380546}]:[attributes={Lucene50StoredFieldsFormat.mode=BEST_SPEED}]) Uninverting(_6(8.3.0):C2754:[diagnostics={java.vendor=AdoptOpenJDK, os=Mac OS X, java.version=1.8.0_222, java.vm.version=25.222-b10, lucene.version=8.3.0, os.arch=x86_64, java.runtime.version=1.8.0_222-b10, source=flush, os.version=10.15, timestamp=1574301011263}]:[attributes={Lucene50StoredFieldsFormat.mode=BEST_SPEED}]) Uninverting(_7(8.3.0):C32:[diagnostics={java.vendor=AdoptOpenJDK, os=Mac OS X, java.version=1.8.0_222, java.vm.version=25.222-b10, lucene.version=8.3.0, os.arch=x86_64, java.runtime.version=1.8.0_222-b10, source=flush, os.version=10.15, timestamp=1574301011523}]:[attributes={Lucene50StoredFieldsFormat.mode=BEST_SPEED}]) Uninverting(_8(8.3.0):C3847:[diagnostics={java.vendor=AdoptOpenJDK, os=Mac OS X, java.version=1.8.0_222, java.vm.version=25.222-b10, lucene.version=8.3.0, os.arch=x86_64, java.runtime.version=1.8.0_222-b10, source=flush, os.version=10.15, timestamp=1574301029848}]:[attributes={Lucene50StoredFieldsFormat.mode=BEST_SPEED}]) Uninverting(_9(8.3.0):C2086:[diagnostics={java.vendor=AdoptOpenJDK, os=Mac OS X, java.version=1.8.0_222, java.vm.version=25.222-b10, lucene.version=8.3.0, os.arch=x86_64, java.runtime.version=1.8.0_222-b10, source=flush, os.version=10.15, timestamp=1574365728182}]:[attributes={Lucene50StoredFieldsFormat.mode=BEST_SPEED}]) Uninverting(_a(8.3.0):C2159:[diagnostics={java.vendor=AdoptOpenJDK, os=Mac OS X, java.version=1.8.0_222, java.vm.version=25.222-b10, lucene.version=8.3.0, os.arch=x86_64, java.runtime.version=1.8.0_222-b10, source=flush, os.version=10.15, timestamp=1574365730702}]:[attributes={Lucene50StoredFieldsFormat.mode=BEST_SPEED}])))}
2019-11-23 19:00:22.824 INFO  (searcherExecutor-10-thread-1-processing-x:sportPerson) [   x:sportPerson] o.a.s.c.QuerySenderListener QuerySenderListener done.
2019-11-23 19:00:22.824 INFO  (searcherExecutor-10-thread-1-processing-x:sportPerson) [   x:sportPerson] o.a.s.h.c.SpellCheckComponent Loading spell index for spellchecker: default
2019-11-23 19:00:22.835 INFO  (searcherExecutor-10-thread-1-processing-x:sportPerson) [   x:sportPerson] o.a.s.c.SolrCore [sportPerson] Registered new searcher Searcher@16fad01[sportPerson] main{ExitableDirectoryReader(UninvertingDirectoryReader(Uninverting(_3(8.3.0):C3492/2003:[diagnostics={java.vendor=AdoptOpenJDK, os=Mac OS X, java.version=1.8.0_222, java.vm.version=25.222-b10, lucene.version=8.3.0, os.arch=x86_64, java.runtime.version=1.8.0_222-b10, source=flush, os.version=10.15, timestamp=1574033481978}]:[attributes={Lucene50StoredFieldsFormat.mode=BEST_SPEED}]:delGen=5) Uninverting(_4(8.3.0):C13:[diagnostics={java.vendor=AdoptOpenJDK, os=Mac OS X, java.version=1.8.0_222, java.vm.version=25.222-b10, lucene.version=8.3.0, os.arch=x86_64, java.runtime.version=1.8.0_222-b10, source=flush, os.version=10.15, timestamp=1574279790019}]:[attributes={Lucene50StoredFieldsFormat.mode=BEST_SPEED}]) Uninverting(_5(8.3.0):C2786:[diagnostics={java.vendor=AdoptOpenJDK, os=Mac OS X, java.version=1.8.0_222, java.vm.version=25.222-b10, lucene.version=8.3.0, os.arch=x86_64, java.runtime.version=1.8.0_222-b10, source=flush, os.version=10.15, timestamp=1574289380546}]:[attributes={Lucene50StoredFieldsFormat.mode=BEST_SPEED}]) Uninverting(_6(8.3.0):C2754:[diagnostics={java.vendor=AdoptOpenJDK, os=Mac OS X, java.version=1.8.0_222, java.vm.version=25.222-b10, lucene.version=8.3.0, os.arch=x86_64, java.runtime.version=1.8.0_222-b10, source=flush, os.version=10.15, timestamp=1574301011263}]:[attributes={Lucene50StoredFieldsFormat.mode=BEST_SPEED}]) Uninverting(_7(8.3.0):C32:[diagnostics={java.vendor=AdoptOpenJDK, os=Mac OS X, java.version=1.8.0_222, java.vm.version=25.222-b10, lucene.version=8.3.0, os.arch=x86_64, java.runtime.version=1.8.0_222-b10, source=flush, os.version=10.15, timestamp=1574301011523}]:[attributes={Lucene50StoredFieldsFormat.mode=BEST_SPEED}]) Uninverting(_8(8.3.0):C3847:[diagnostics={java.vendor=AdoptOpenJDK, os=Mac OS X, java.version=1.8.0_222, java.vm.version=25.222-b10, lucene.version=8.3.0, os.arch=x86_64, java.runtime.version=1.8.0_222-b10, source=flush, os.version=10.15, timestamp=1574301029848}]:[attributes={Lucene50StoredFieldsFormat.mode=BEST_SPEED}]) Uninverting(_9(8.3.0):C2086:[diagnostics={java.vendor=AdoptOpenJDK, os=Mac OS X, java.version=1.8.0_222, java.vm.version=25.222-b10, lucene.version=8.3.0, os.arch=x86_64, java.runtime.version=1.8.0_222-b10, source=flush, os.version=10.15, timestamp=1574365728182}]:[attributes={Lucene50StoredFieldsFormat.mode=BEST_SPEED}]) Uninverting(_a(8.3.0):C2159:[diagnostics={java.vendor=AdoptOpenJDK, os=Mac OS X, java.version=1.8.0_222, java.vm.version=25.222-b10, lucene.version=8.3.0, os.arch=x86_64, java.runtime.version=1.8.0_222-b10, source=flush, os.version=10.15, timestamp=1574365730702}]:[attributes={Lucene50StoredFieldsFormat.mode=BEST_SPEED}])))}
2019-11-23 19:01:05.786 INFO  (qtp1850180796-19) [   x:sportPerson] o.a.s.c.S.Request [sportPerson]  webapp=/solr path=/select params={q=content:"Roger+federer+calcio"~10&hl=on&hl.fragsize=450&hl.fl=content} hits=0 status=0 QTime=119
2019-11-23 19:06:59.780 INFO  (qtp1850180796-22) [   ] o.a.s.s.HttpSolrCall [admin] webapp=null path=/admin/cores params={indexInfo=false&wt=json&_=1574536019548} status=0 QTime=1
2019-11-23 19:06:59.931 INFO  (qtp1850180796-21) [   ] o.a.s.s.HttpSolrCall [admin] webapp=null path=/admin/info/system params={wt=json&_=1574536019548} status=0 QTime=150
2019-11-23 19:06:59.981 INFO  (qtp1850180796-17) [   ] o.a.s.s.HttpSolrCall [admin] webapp=null path=/admin/info/system params={wt=json&_=1574536019548} status=0 QTime=43
2019-11-23 19:07:01.647 INFO  (qtp1850180796-21) [   ] o.a.s.s.HttpSolrCall [admin] webapp=null path=/admin/cores params={indexInfo=false&wt=json&_=1574536019548} status=0 QTime=0
2019-11-23 19:07:01.664 INFO  (qtp1850180796-17) [   x:sportPerson] o.a.s.c.S.Request [sportPerson]  webapp=/solr path=/replication params={wt=json&command=details&_=1574536021638} status=0 QTime=14
2019-11-23 19:07:01.684 INFO  (qtp1850180796-18) [   x:sportPerson] o.a.s.c.S.Request [sportPerson]  webapp=/solr path=/admin/ping params={action=status&wt=json&_=1574536019548&ts=1574536019548} status=503 QTime=2
2019-11-23 19:07:01.685 INFO  (qtp1850180796-21) [   x:sportPerson] o.a.s.c.S.Request [sportPerson]  webapp=/solr path=/admin/luke params={numTerms=0&show=index&wt=json&_=1574536021638} status=0 QTime=32
2019-11-23 19:07:01.699 INFO  (qtp1850180796-23) [   ] o.a.s.s.HttpSolrCall [admin] webapp=null path=/admin/info/system params={wt=json&_=1574536019548} status=0 QTime=52
2019-11-23 19:07:01.716 INFO  (qtp1850180796-22) [   x:sportPerson] o.a.s.c.S.Request [sportPerson]  webapp=/solr path=/admin/system params={wt=json&_=1574536021638} status=0 QTime=32
2019-11-23 19:07:03.670 INFO  (qtp1850180796-23) [   ] o.a.s.s.HttpSolrCall [admin] webapp=null path=/admin/cores params={indexInfo=false&wt=json&_=1574536019548} status=0 QTime=0
2019-11-23 19:07:03.711 INFO  (qtp1850180796-19) [   ] o.a.s.s.HttpSolrCall [admin] webapp=null path=/admin/info/system params={wt=json&_=1574536019548} status=0 QTime=44
2019-11-23 19:07:44.070 INFO  (qtp1850180796-23) [   x:sportPerson] o.a.s.c.S.Request [sportPerson]  webapp=/solr path=/select params={q=content:"federer"+OR+content:"ciao"&_=1574536023625} hits=185 status=0 QTime=38
2019-11-23 19:12:04.735 INFO  (qtp1850180796-17) [   x:sportPerson] o.a.s.c.S.Request [sportPerson]  webapp=/solr path=/select params={q=content:"federer"+OR+content:"ciao"} hits=185 status=0 QTime=1
2019-11-23 19:30:14.833 INFO  (qtp1850180796-22) [   ] o.a.s.s.HttpSolrCall [admin] webapp=null path=/admin/cores params={indexInfo=false&wt=json&_=1574537414610} status=0 QTime=2
2019-11-23 19:30:14.872 INFO  (qtp1850180796-19) [   ] o.a.s.s.HttpSolrCall [admin] webapp=null path=/admin/info/system params={wt=json&_=1574537414610} status=0 QTime=41
2019-11-23 19:34:32.580 ERROR (qtp1850180796-17) [   x:sportPerson] o.a.s.h.RequestHandlerBase org.apache.solr.common.SolrException: org.apache.solr.search.SyntaxError: Cannot parse 'content:""federer ciao"': Lexical error at line 1, column 24.  Encountered: <EOF> after : ""
	at org.apache.solr.handler.component.QueryComponent.prepare(QueryComponent.java:218)
	at org.apache.solr.handler.component.SearchHandler.handleRequestBody(SearchHandler.java:279)
	at org.apache.solr.handler.RequestHandlerBase.handleRequest(RequestHandlerBase.java:198)
	at org.apache.solr.core.SolrCore.execute(SolrCore.java:2576)
	at org.apache.solr.servlet.HttpSolrCall.execute(HttpSolrCall.java:803)
	at org.apache.solr.servlet.HttpSolrCall.call(HttpSolrCall.java:582)
	at org.apache.solr.servlet.SolrDispatchFilter.doFilter(SolrDispatchFilter.java:424)
	at org.apache.solr.servlet.SolrDispatchFilter.doFilter(SolrDispatchFilter.java:351)
	at org.eclipse.jetty.servlet.ServletHandler$CachedChain.doFilter(ServletHandler.java:1602)
	at org.eclipse.jetty.servlet.ServletHandler.doHandle(ServletHandler.java:540)
	at org.eclipse.jetty.server.handler.ScopedHandler.handle(ScopedHandler.java:146)
	at org.eclipse.jetty.security.SecurityHandler.handle(SecurityHandler.java:548)
	at org.eclipse.jetty.server.handler.HandlerWrapper.handle(HandlerWrapper.java:132)
	at org.eclipse.jetty.server.handler.ScopedHandler.nextHandle(ScopedHandler.java:257)
	at org.eclipse.jetty.server.session.SessionHandler.doHandle(SessionHandler.java:1711)
	at org.eclipse.jetty.server.handler.ScopedHandler.nextHandle(ScopedHandler.java:255)
	at org.eclipse.jetty.server.handler.ContextHandler.doHandle(ContextHandler.java:1347)
	at org.eclipse.jetty.server.handler.ScopedHandler.nextScope(ScopedHandler.java:203)
	at org.eclipse.jetty.servlet.ServletHandler.doScope(ServletHandler.java:480)
	at org.eclipse.jetty.server.session.SessionHandler.doScope(SessionHandler.java:1678)
	at org.eclipse.jetty.server.handler.ScopedHandler.nextScope(ScopedHandler.java:201)
	at org.eclipse.jetty.server.handler.ContextHandler.doScope(ContextHandler.java:1249)
	at org.eclipse.jetty.server.handler.ScopedHandler.handle(ScopedHandler.java:144)
	at org.eclipse.jetty.server.handler.ContextHandlerCollection.handle(ContextHandlerCollection.java:220)
	at org.eclipse.jetty.server.handler.HandlerCollection.handle(HandlerCollection.java:152)
	at org.eclipse.jetty.server.handler.HandlerWrapper.handle(HandlerWrapper.java:132)
	at org.eclipse.jetty.rewrite.handler.RewriteHandler.handle(RewriteHandler.java:335)
	at org.eclipse.jetty.server.handler.HandlerWrapper.handle(HandlerWrapper.java:132)
	at org.eclipse.jetty.server.Server.handle(Server.java:505)
	at org.eclipse.jetty.server.HttpChannel.handle(HttpChannel.java:370)
	at org.eclipse.jetty.server.HttpConnection.onFillable(HttpConnection.java:267)
	at org.eclipse.jetty.io.AbstractConnection$ReadCallback.succeeded(AbstractConnection.java:305)
	at org.eclipse.jetty.io.FillInterest.fillable(FillInterest.java:103)
	at org.eclipse.jetty.io.ChannelEndPoint$2.run(ChannelEndPoint.java:117)
	at org.eclipse.jetty.util.thread.strategy.EatWhatYouKill.runTask(EatWhatYouKill.java:333)
	at org.eclipse.jetty.util.thread.strategy.EatWhatYouKill.doProduce(EatWhatYouKill.java:310)
	at org.eclipse.jetty.util.thread.strategy.EatWhatYouKill.tryProduce(EatWhatYouKill.java:168)
	at org.eclipse.jetty.util.thread.strategy.EatWhatYouKill.run(EatWhatYouKill.java:126)
	at org.eclipse.jetty.util.thread.ReservedThreadExecutor$ReservedThread.run(ReservedThreadExecutor.java:366)
	at org.eclipse.jetty.util.thread.QueuedThreadPool.runJob(QueuedThreadPool.java:781)
	at org.eclipse.jetty.util.thread.QueuedThreadPool$Runner.run(QueuedThreadPool.java:917)
	at java.lang.Thread.run(Thread.java:748)
Caused by: org.apache.solr.search.SyntaxError: Cannot parse 'content:""federer ciao"': Lexical error at line 1, column 24.  Encountered: <EOF> after : ""
	at org.apache.solr.parser.SolrQueryParserBase.parse(SolrQueryParserBase.java:264)
	at org.apache.solr.search.LuceneQParser.parse(LuceneQParser.java:49)
	at org.apache.solr.search.QParser.getQuery(QParser.java:174)
	at org.apache.solr.handler.component.QueryComponent.prepare(QueryComponent.java:160)
	... 41 more
Caused by: org.apache.solr.parser.TokenMgrError: Lexical error at line 1, column 24.  Encountered: <EOF> after : ""
	at org.apache.solr.parser.QueryParserTokenManager.getNextToken(QueryParserTokenManager.java:1572)
	at org.apache.solr.parser.QueryParser.getToken(QueryParser.java:808)
	at org.apache.solr.parser.QueryParser.jj_3R_3(QueryParser.java:642)
	at org.apache.solr.parser.QueryParser.jj_3_2(QueryParser.java:665)
	at org.apache.solr.parser.QueryParser.jj_2_2(QueryParser.java:607)
	at org.apache.solr.parser.QueryParser.Query(QueryParser.java:198)
	at org.apache.solr.parser.QueryParser.TopLevelQuery(QueryParser.java:131)
	at org.apache.solr.parser.SolrQueryParserBase.parse(SolrQueryParserBase.java:260)
	... 44 more

2019-11-23 19:34:32.581 INFO  (qtp1850180796-17) [   x:sportPerson] o.a.s.c.S.Request [sportPerson]  webapp=/solr path=/select params={q=content:""federer+ciao"&_=1574537414783} status=400 QTime=19
2019-11-23 19:34:33.981 ERROR (qtp1850180796-15) [   x:sportPerson] o.a.s.h.RequestHandlerBase org.apache.solr.common.SolrException: org.apache.solr.search.SyntaxError: Cannot parse 'content:""federer ciao"': Lexical error at line 1, column 24.  Encountered: <EOF> after : ""
	at org.apache.solr.handler.component.QueryComponent.prepare(QueryComponent.java:218)
	at org.apache.solr.handler.component.SearchHandler.handleRequestBody(SearchHandler.java:279)
	at org.apache.solr.handler.RequestHandlerBase.handleRequest(RequestHandlerBase.java:198)
	at org.apache.solr.core.SolrCore.execute(SolrCore.java:2576)
	at org.apache.solr.servlet.HttpSolrCall.execute(HttpSolrCall.java:803)
	at org.apache.solr.servlet.HttpSolrCall.call(HttpSolrCall.java:582)
	at org.apache.solr.servlet.SolrDispatchFilter.doFilter(SolrDispatchFilter.java:424)
	at org.apache.solr.servlet.SolrDispatchFilter.doFilter(SolrDispatchFilter.java:351)
	at org.eclipse.jetty.servlet.ServletHandler$CachedChain.doFilter(ServletHandler.java:1602)
	at org.eclipse.jetty.servlet.ServletHandler.doHandle(ServletHandler.java:540)
	at org.eclipse.jetty.server.handler.ScopedHandler.handle(ScopedHandler.java:146)
	at org.eclipse.jetty.security.SecurityHandler.handle(SecurityHandler.java:548)
	at org.eclipse.jetty.server.handler.HandlerWrapper.handle(HandlerWrapper.java:132)
	at org.eclipse.jetty.server.handler.ScopedHandler.nextHandle(ScopedHandler.java:257)
	at org.eclipse.jetty.server.session.SessionHandler.doHandle(SessionHandler.java:1711)
	at org.eclipse.jetty.server.handler.ScopedHandler.nextHandle(ScopedHandler.java:255)
	at org.eclipse.jetty.server.handler.ContextHandler.doHandle(ContextHandler.java:1347)
	at org.eclipse.jetty.server.handler.ScopedHandler.nextScope(ScopedHandler.java:203)
	at org.eclipse.jetty.servlet.ServletHandler.doScope(ServletHandler.java:480)
	at org.eclipse.jetty.server.session.SessionHandler.doScope(SessionHandler.java:1678)
	at org.eclipse.jetty.server.handler.ScopedHandler.nextScope(ScopedHandler.java:201)
	at org.eclipse.jetty.server.handler.ContextHandler.doScope(ContextHandler.java:1249)
	at org.eclipse.jetty.server.handler.ScopedHandler.handle(ScopedHandler.java:144)
	at org.eclipse.jetty.server.handler.ContextHandlerCollection.handle(ContextHandlerCollection.java:220)
	at org.eclipse.jetty.server.handler.HandlerCollection.handle(HandlerCollection.java:152)
	at org.eclipse.jetty.server.handler.HandlerWrapper.handle(HandlerWrapper.java:132)
	at org.eclipse.jetty.rewrite.handler.RewriteHandler.handle(RewriteHandler.java:335)
	at org.eclipse.jetty.server.handler.HandlerWrapper.handle(HandlerWrapper.java:132)
	at org.eclipse.jetty.server.Server.handle(Server.java:505)
	at org.eclipse.jetty.server.HttpChannel.handle(HttpChannel.java:370)
	at org.eclipse.jetty.server.HttpConnection.onFillable(HttpConnection.java:267)
	at org.eclipse.jetty.io.AbstractConnection$ReadCallback.succeeded(AbstractConnection.java:305)
	at org.eclipse.jetty.io.FillInterest.fillable(FillInterest.java:103)
	at org.eclipse.jetty.io.ChannelEndPoint$2.run(ChannelEndPoint.java:117)
	at org.eclipse.jetty.util.thread.strategy.EatWhatYouKill.runTask(EatWhatYouKill.java:333)
	at org.eclipse.jetty.util.thread.strategy.EatWhatYouKill.doProduce(EatWhatYouKill.java:310)
	at org.eclipse.jetty.util.thread.strategy.EatWhatYouKill.tryProduce(EatWhatYouKill.java:168)
	at org.eclipse.jetty.util.thread.strategy.EatWhatYouKill.run(EatWhatYouKill.java:126)
	at org.eclipse.jetty.util.thread.ReservedThreadExecutor$ReservedThread.run(ReservedThreadExecutor.java:366)
	at org.eclipse.jetty.util.thread.QueuedThreadPool.runJob(QueuedThreadPool.java:781)
	at org.eclipse.jetty.util.thread.QueuedThreadPool$Runner.run(QueuedThreadPool.java:917)
	at java.lang.Thread.run(Thread.java:748)
Caused by: org.apache.solr.search.SyntaxError: Cannot parse 'content:""federer ciao"': Lexical error at line 1, column 24.  Encountered: <EOF> after : ""
	at org.apache.solr.parser.SolrQueryParserBase.parse(SolrQueryParserBase.java:264)
	at org.apache.solr.search.LuceneQParser.parse(LuceneQParser.java:49)
	at org.apache.solr.search.QParser.getQuery(QParser.java:174)
	at org.apache.solr.handler.component.QueryComponent.prepare(QueryComponent.java:160)
	... 41 more
Caused by: org.apache.solr.parser.TokenMgrError: Lexical error at line 1, column 24.  Encountered: <EOF> after : ""
	at org.apache.solr.parser.QueryParserTokenManager.getNextToken(QueryParserTokenManager.java:1572)
	at org.apache.solr.parser.QueryParser.getToken(QueryParser.java:808)
	at org.apache.solr.parser.QueryParser.jj_3R_3(QueryParser.java:642)
	at org.apache.solr.parser.QueryParser.jj_3_2(QueryParser.java:665)
	at org.apache.solr.parser.QueryParser.jj_2_2(QueryParser.java:607)
	at org.apache.solr.parser.QueryParser.Query(QueryParser.java:198)
	at org.apache.solr.parser.QueryParser.TopLevelQuery(QueryParser.java:131)
	at org.apache.solr.parser.SolrQueryParserBase.parse(SolrQueryParserBase.java:260)
	... 44 more

2019-11-23 19:34:33.981 INFO  (qtp1850180796-15) [   x:sportPerson] o.a.s.c.S.Request [sportPerson]  webapp=/solr path=/select params={q=content:""federer+ciao"} status=400 QTime=2
2019-11-23 19:34:39.834 INFO  (qtp1850180796-17) [   ] o.a.s.s.HttpSolrCall [admin] webapp=null path=/admin/cores params={indexInfo=false&wt=json&_=1574537679678} status=0 QTime=0
2019-11-23 19:34:39.872 INFO  (qtp1850180796-21) [   ] o.a.s.s.HttpSolrCall [admin] webapp=null path=/admin/info/system params={wt=json&_=1574537679678} status=0 QTime=35
2019-11-23 19:35:03.450 INFO  (qtp1850180796-19) [   x:sportPerson] o.a.s.c.S.Request [sportPerson]  webapp=/solr path=/select params={q=content:(Federer+OR+ciao)&_=1574537679787} hits=185 status=0 QTime=5
2019-11-23 21:44:58.721 INFO  (qtp1850180796-23) [   x:sportPerson] o.a.s.c.S.Request [sportPerson]  webapp=/solr path=/select params={q=content:"Roger+federer+calcio"~10&hl=on&hl.fragsize=450&hl.fl=content} hits=0 status=0 QTime=20
2019-11-23 21:44:59.220 INFO  (qtp1850180796-21) [   x:sportPerson] o.a.s.c.S.Request [sportPerson]  webapp=/solr path=/select params={q=content:"Roger+federer+calcio"~10&hl=on&hl.fragsize=450&hl.fl=content} hits=0 status=0 QTime=1
2019-11-23 21:44:59.543 INFO  (qtp1850180796-22) [   x:sportPerson] o.a.s.c.S.Request [sportPerson]  webapp=/solr path=/select params={q=content:"Roger+federer+calcio"~10&hl=on&hl.fragsize=450&hl.fl=content} hits=0 status=0 QTime=0
2019-11-23 21:44:59.806 INFO  (qtp1850180796-14) [   x:sportPerson] o.a.s.c.S.Request [sportPerson]  webapp=/solr path=/select params={q=content:"Roger+federer+calcio"~10&hl=on&hl.fragsize=450&hl.fl=content} hits=0 status=0 QTime=1
2019-11-23 21:45:00.052 INFO  (qtp1850180796-22) [   x:sportPerson] o.a.s.c.S.Request [sportPerson]  webapp=/solr path=/select params={q=content:"Roger+federer+calcio"~10&hl=on&hl.fragsize=450&hl.fl=content} hits=0 status=0 QTime=0
2019-11-23 21:45:04.255 INFO  (qtp1850180796-14) [   x:sportPerson] o.a.s.c.S.Request [sportPerson]  webapp=/solr path=/select params={q=content:"Roger+federer"~10&hl=on&hl.fragsize=450&hl.fl=content} hits=155 status=0 QTime=404
2019-11-23 21:53:56.217 INFO  (qtp1850180796-17) [   x:sportPerson] o.a.s.c.S.Request [sportPerson]  webapp=/solr path=/select params={q=content:"Roger+federer"~10&hl=on&hl.fragsize=450&hl.fl=content} hits=155 status=0 QTime=223
2019-11-23 21:54:10.238 INFO  (qtp1850180796-14) [   x:sportPerson] o.a.s.c.S.Request [sportPerson]  webapp=/solr path=/select params={q=content:"federer+aaaa"~10&hl=on&hl.fragsize=450&hl.fl=content} hits=0 status=0 QTime=48
2019-11-23 22:05:04.622 INFO  (qtp1850180796-20) [   x:sportPerson] o.a.s.c.S.Request [sportPerson]  webapp=/solr path=/select params={q=content:(Federer++ciao)&_=1574537679787} hits=185 status=0 QTime=26
2019-11-23 22:05:08.022 INFO  (qtp1850180796-22) [   x:sportPerson] o.a.s.c.S.Request [sportPerson]  webapp=/solr path=/select params={q=content:(Federer++ciao)&_=1574537679787} hits=185 status=0 QTime=0
2019-11-23 22:05:23.468 INFO  (qtp1850180796-17) [   x:sportPerson] o.a.s.c.S.Request [sportPerson]  webapp=/solr path=/select params={q=content:"Federer+ciao"&_=1574537679787} hits=0 status=0 QTime=42
2019-11-23 22:05:30.766 INFO  (qtp1850180796-22) [   x:sportPerson] o.a.s.c.S.Request [sportPerson]  webapp=/solr path=/select params={q=content:(Federer+ciao)&_=1574537679787} hits=185 status=0 QTime=1
2019-11-23 22:05:38.331 INFO  (qtp1850180796-17) [   x:sportPerson] o.a.s.c.S.Request [sportPerson]  webapp=/solr path=/select params={q=content:(Federer+OR+ciao)&_=1574537679787} hits=185 status=0 QTime=1
2019-11-23 22:05:39.120 INFO  (qtp1850180796-22) [   x:sportPerson] o.a.s.c.S.Request [sportPerson]  webapp=/solr path=/select params={q=content:(Federer+OR+ciao)&_=1574537679787} hits=185 status=0 QTime=0
2019-11-23 22:05:39.818 INFO  (qtp1850180796-17) [   x:sportPerson] o.a.s.c.S.Request [sportPerson]  webapp=/solr path=/select params={q=content:(Federer+OR+ciao)&_=1574537679787} hits=185 status=0 QTime=1
2019-11-23 22:05:39.832 INFO  (qtp1850180796-14) [   x:sportPerson] o.a.s.c.S.Request [sportPerson]  webapp=/solr path=/select params={q=content:(Federer+OR+ciao)&_=1574537679787} hits=185 status=0 QTime=0
2019-11-23 22:05:39.863 INFO  (qtp1850180796-22) [   x:sportPerson] o.a.s.c.S.Request [sportPerson]  webapp=/solr path=/select params={q=content:(Federer+OR+ciao)&_=1574537679787} hits=185 status=0 QTime=1
2019-11-23 22:05:39.898 INFO  (qtp1850180796-17) [   x:sportPerson] o.a.s.c.S.Request [sportPerson]  webapp=/solr path=/select params={q=content:(Federer+OR+ciao)&_=1574537679787} hits=185 status=0 QTime=2
2019-11-23 22:05:54.178 INFO  (qtp1850180796-18) [   x:sportPerson] o.a.s.c.S.Request [sportPerson]  webapp=/solr path=/select params={q=content:(Federer++ciao)&_=1574537679787} hits=185 status=0 QTime=1
2019-11-23 22:06:06.285 INFO  (qtp1850180796-17) [   x:sportPerson] o.a.s.c.S.Request [sportPerson]  webapp=/solr path=/select params={q=content:"Federer+ciao"&_=1574537679787} hits=0 status=0 QTime=0
2019-11-23 22:06:07.739 INFO  (qtp1850180796-18) [   x:sportPerson] o.a.s.c.S.Request [sportPerson]  webapp=/solr path=/select params={q=content:"Federer+ciao"} hits=0 status=0 QTime=0
2019-11-23 22:06:17.940 INFO  (qtp1850180796-17) [   x:sportPerson] o.a.s.c.S.Request [sportPerson]  webapp=/solr path=/select params={q.op=ANDq%3Dcontent:"Federer+ciao"} hits=0 status=0 QTime=2
2019-11-23 22:06:39.062 INFO  (qtp1850180796-18) [   x:sportPerson] o.a.s.c.S.Request [sportPerson]  webapp=/solr path=/select params={q=content:"Federer+ciao"&q.op=AND} hits=0 status=0 QTime=5
2019-11-23 22:06:50.058 INFO  (qtp1850180796-17) [   x:sportPerson] o.a.s.c.S.Request [sportPerson]  webapp=/solr path=/select params={q=content:"Federer+ciao"&q.op=OR} hits=0 status=0 QTime=0
2019-11-23 22:07:27.569 INFO  (qtp1850180796-19) [   x:sportPerson] o.a.s.c.S.Request [sportPerson]  webapp=/solr path=/select params={q=content:"(ciao+Federer)"~10&hl=on&hl.fragsize=450&hl.fl=content} hits=0 status=0 QTime=4
2019-11-23 22:07:41.614 INFO  (qtp1850180796-18) [   ] o.a.s.s.HttpSolrCall [admin] webapp=null path=/admin/cores params={indexInfo=false&wt=json&_=1574546861463} status=0 QTime=2
2019-11-23 22:07:41.722 INFO  (qtp1850180796-21) [   ] o.a.s.s.HttpSolrCall [admin] webapp=null path=/admin/cores params={indexInfo=false&wt=json&_=1574546861463} status=0 QTime=0
2019-11-23 22:07:41.739 INFO  (qtp1850180796-18) [   x:sportPerson] o.a.s.c.S.Request [sportPerson]  webapp=/solr path=/admin/luke params={numTerms=0&show=index&wt=json&_=1574546861710} status=0 QTime=2
2019-11-23 22:07:41.750 INFO  (qtp1850180796-21) [   x:sportPerson] o.a.s.c.S.Request [sportPerson]  webapp=/solr path=/replication params={wt=json&command=details&_=1574546861712} status=0 QTime=4
2019-11-23 22:07:41.777 INFO  (qtp1850180796-18) [   x:sportPerson] o.a.s.c.S.Request [sportPerson]  webapp=/solr path=/admin/ping params={action=status&wt=json&_=1574546861463&ts=1574546861463} status=503 QTime=0
2019-11-23 22:07:41.808 INFO  (qtp1850180796-19) [   x:sportPerson] o.a.s.c.S.Request [sportPerson]  webapp=/solr path=/admin/system params={wt=json&_=1574546861712} status=0 QTime=51
2019-11-23 22:07:41.809 INFO  (qtp1850180796-20) [   ] o.a.s.s.HttpSolrCall [admin] webapp=null path=/admin/info/system params={wt=json&_=1574546861463} status=0 QTime=195
2019-11-23 22:07:41.869 INFO  (qtp1850180796-18) [   ] o.a.s.s.HttpSolrCall [admin] webapp=null path=/admin/info/system params={wt=json&_=1574546861463} status=0 QTime=53
2019-11-23 22:07:42.830 INFO  (qtp1850180796-21) [   ] o.a.s.s.HttpSolrCall [admin] webapp=null path=/admin/cores params={indexInfo=false&wt=json&_=1574546861463} status=0 QTime=0
2019-11-23 22:07:42.874 INFO  (qtp1850180796-18) [   ] o.a.s.s.HttpSolrCall [admin] webapp=null path=/admin/info/system params={wt=json&_=1574546861463} status=0 QTime=43
2019-11-23 22:07:59.387 INFO  (qtp1850180796-21) [   x:sportPerson] o.a.s.c.S.Request [sportPerson]  webapp=/solr path=/select params={q=content:(ciao+Federer)&_=1574546861575} hits=185 status=0 QTime=0
2019-11-23 22:08:24.561 INFO  (qtp1850180796-18) [   x:sportPerson] o.a.s.c.S.Request [sportPerson]  webapp=/solr path=/select params={q=content:"ciao+Federer"&_=1574546861575} hits=0 status=0 QTime=3
2019-11-23 22:08:39.414 INFO  (qtp1850180796-21) [   x:sportPerson] o.a.s.c.S.Request [sportPerson]  webapp=/solr path=/select params={q=content:(Ciao+Federer)&_=1574546861575} hits=185 status=0 QTime=0
2019-11-23 22:09:11.635 ERROR (qtp1850180796-22) [   x:sportPerson] o.a.s.h.RequestHandlerBase org.apache.solr.common.SolrException: org.apache.solr.search.SyntaxError: Cannot parse 'content:(Ciao Federer)~10': Encountered " <FUZZY_SLOP> "~10 "" at line 1, column 22.
Was expecting one of:
    <EOF> 
    <AND> ...
    <OR> ...
    <NOT> ...
    "+" ...
    "-" ...
    <BAREOPER> ...
    "(" ...
    "*" ...
    "^" ...
    <QUOTED> ...
    <TERM> ...
    <PREFIXTERM> ...
    <WILDTERM> ...
    <REGEXPTERM> ...
    "[" ...
    "{" ...
    <LPARAMS> ...
    "filter(" ...
    <NUMBER> ...
    
	at org.apache.solr.handler.component.QueryComponent.prepare(QueryComponent.java:218)
	at org.apache.solr.handler.component.SearchHandler.handleRequestBody(SearchHandler.java:279)
	at org.apache.solr.handler.RequestHandlerBase.handleRequest(RequestHandlerBase.java:198)
	at org.apache.solr.core.SolrCore.execute(SolrCore.java:2576)
	at org.apache.solr.servlet.HttpSolrCall.execute(HttpSolrCall.java:803)
	at org.apache.solr.servlet.HttpSolrCall.call(HttpSolrCall.java:582)
	at org.apache.solr.servlet.SolrDispatchFilter.doFilter(SolrDispatchFilter.java:424)
	at org.apache.solr.servlet.SolrDispatchFilter.doFilter(SolrDispatchFilter.java:351)
	at org.eclipse.jetty.servlet.ServletHandler$CachedChain.doFilter(ServletHandler.java:1602)
	at org.eclipse.jetty.servlet.ServletHandler.doHandle(ServletHandler.java:540)
	at org.eclipse.jetty.server.handler.ScopedHandler.handle(ScopedHandler.java:146)
	at org.eclipse.jetty.security.SecurityHandler.handle(SecurityHandler.java:548)
	at org.eclipse.jetty.server.handler.HandlerWrapper.handle(HandlerWrapper.java:132)
	at org.eclipse.jetty.server.handler.ScopedHandler.nextHandle(ScopedHandler.java:257)
	at org.eclipse.jetty.server.session.SessionHandler.doHandle(SessionHandler.java:1711)
	at org.eclipse.jetty.server.handler.ScopedHandler.nextHandle(ScopedHandler.java:255)
	at org.eclipse.jetty.server.handler.ContextHandler.doHandle(ContextHandler.java:1347)
	at org.eclipse.jetty.server.handler.ScopedHandler.nextScope(ScopedHandler.java:203)
	at org.eclipse.jetty.servlet.ServletHandler.doScope(ServletHandler.java:480)
	at org.eclipse.jetty.server.session.SessionHandler.doScope(SessionHandler.java:1678)
	at org.eclipse.jetty.server.handler.ScopedHandler.nextScope(ScopedHandler.java:201)
	at org.eclipse.jetty.server.handler.ContextHandler.doScope(ContextHandler.java:1249)
	at org.eclipse.jetty.server.handler.ScopedHandler.handle(ScopedHandler.java:144)
	at org.eclipse.jetty.server.handler.ContextHandlerCollection.handle(ContextHandlerCollection.java:220)
	at org.eclipse.jetty.server.handler.HandlerCollection.handle(HandlerCollection.java:152)
	at org.eclipse.jetty.server.handler.HandlerWrapper.handle(HandlerWrapper.java:132)
	at org.eclipse.jetty.rewrite.handler.RewriteHandler.handle(RewriteHandler.java:335)
	at org.eclipse.jetty.server.handler.HandlerWrapper.handle(HandlerWrapper.java:132)
	at org.eclipse.jetty.server.Server.handle(Server.java:505)
	at org.eclipse.jetty.server.HttpChannel.handle(HttpChannel.java:370)
	at org.eclipse.jetty.server.HttpConnection.onFillable(HttpConnection.java:267)
	at org.eclipse.jetty.io.AbstractConnection$ReadCallback.succeeded(AbstractConnection.java:305)
	at org.eclipse.jetty.io.FillInterest.fillable(FillInterest.java:103)
	at org.eclipse.jetty.io.ChannelEndPoint$2.run(ChannelEndPoint.java:117)
	at org.eclipse.jetty.util.thread.strategy.EatWhatYouKill.runTask(EatWhatYouKill.java:333)
	at org.eclipse.jetty.util.thread.strategy.EatWhatYouKill.doProduce(EatWhatYouKill.java:310)
	at org.eclipse.jetty.util.thread.strategy.EatWhatYouKill.tryProduce(EatWhatYouKill.java:168)
	at org.eclipse.jetty.util.thread.strategy.EatWhatYouKill.run(EatWhatYouKill.java:126)
	at org.eclipse.jetty.util.thread.ReservedThreadExecutor$ReservedThread.run(ReservedThreadExecutor.java:366)
	at org.eclipse.jetty.util.thread.QueuedThreadPool.runJob(QueuedThreadPool.java:781)
	at org.eclipse.jetty.util.thread.QueuedThreadPool$Runner.run(QueuedThreadPool.java:917)
	at java.lang.Thread.run(Thread.java:748)
Caused by: org.apache.solr.search.SyntaxError: Cannot parse 'content:(Ciao Federer)~10': Encountered " <FUZZY_SLOP> "~10 "" at line 1, column 22.
Was expecting one of:
    <EOF> 
    <AND> ...
    <OR> ...
    <NOT> ...
    "+" ...
    "-" ...
    <BAREOPER> ...
    "(" ...
    "*" ...
    "^" ...
    <QUOTED> ...
    <TERM> ...
    <PREFIXTERM> ...
    <WILDTERM> ...
    <REGEXPTERM> ...
    "[" ...
    "{" ...
    <LPARAMS> ...
    "filter(" ...
    <NUMBER> ...
    
	at org.apache.solr.parser.SolrQueryParserBase.parse(SolrQueryParserBase.java:264)
	at org.apache.solr.search.LuceneQParser.parse(LuceneQParser.java:49)
	at org.apache.solr.search.QParser.getQuery(QParser.java:174)
	at org.apache.solr.handler.component.QueryComponent.prepare(QueryComponent.java:160)
	... 41 more
Caused by: org.apache.solr.parser.ParseException: Encountered " <FUZZY_SLOP> "~10 "" at line 1, column 22.
Was expecting one of:
    <EOF> 
    <AND> ...
    <OR> ...
    <NOT> ...
    "+" ...
    "-" ...
    <BAREOPER> ...
    "(" ...
    "*" ...
    "^" ...
    <QUOTED> ...
    <TERM> ...
    <PREFIXTERM> ...
    <WILDTERM> ...
    <REGEXPTERM> ...
    "[" ...
    "{" ...
    <LPARAMS> ...
    "filter(" ...
    <NUMBER> ...
    
	at org.apache.solr.parser.QueryParser.generateParseException(QueryParser.java:885)
	at org.apache.solr.parser.QueryParser.jj_consume_token(QueryParser.java:767)
	at org.apache.solr.parser.QueryParser.TopLevelQuery(QueryParser.java:132)
	at org.apache.solr.parser.SolrQueryParserBase.parse(SolrQueryParserBase.java:260)
	... 44 more

2019-11-23 22:09:11.635 INFO  (qtp1850180796-22) [   x:sportPerson] o.a.s.c.S.Request [sportPerson]  webapp=/solr path=/select params={q=content:(Ciao+Federer)~10&hl=on&hl.fragsize=450&hl.fl=content} status=400 QTime=5
2019-11-23 22:09:35.922 INFO  (qtp1850180796-18) [   x:sportPerson] o.a.s.c.S.Request [sportPerson]  webapp=/solr path=/select params={q=content:(Ciao+Federer)} hits=185 status=0 QTime=0
2019-11-23 22:09:50.449 INFO  (qtp1850180796-21) [   x:sportPerson] o.a.s.c.S.Request [sportPerson]  webapp=/solr path=/select params={q=content:(Ciao+Federer)&hl=on&hl.fragsize=450&hl.fl=content} hits=185 status=0 QTime=177
2019-11-23 22:10:01.373 INFO  (qtp1850180796-22) [   x:sportPerson] o.a.s.c.S.Request [sportPerson]  webapp=/solr path=/select params={q=content:(Federer+Ciao)&hl=on&hl.fragsize=450&hl.fl=content} hits=185 status=0 QTime=200
2019-11-23 22:10:04.150 INFO  (qtp1850180796-23) [   x:sportPerson] o.a.s.c.S.Request [sportPerson]  webapp=/solr path=/select params={q=content:(Federer+Ciao)&hl=on&hl.fragsize=450&hl.fl=content} hits=185 status=0 QTime=189
2019-11-23 22:10:22.817 INFO  (qtp1850180796-22) [   x:sportPerson] o.a.s.c.S.Request [sportPerson]  webapp=/solr path=/select params={q=content:(bjhfdbjbd+)&hl=on&hl.fragsize=450&hl.fl=content} hits=0 status=0 QTime=48
2019-11-23 22:10:29.730 INFO  (qtp1850180796-21) [   x:sportPerson] o.a.s.c.S.Request [sportPerson]  webapp=/solr path=/select params={q=content:(bjhfdbjbd+Federer)&hl=on&hl.fragsize=450&hl.fl=content} hits=176 status=0 QTime=261
2019-11-23 22:10:55.934 INFO  (qtp1850180796-23) [   x:sportPerson] o.a.s.c.S.Request [sportPerson]  webapp=/solr path=/select params={q=content:(bjhfdbjbd+Marquez)&hl=on&hl.fragsize=450&hl.fl=content} hits=41 status=0 QTime=119
2019-11-23 22:11:05.476 INFO  (qtp1850180796-21) [   x:sportPerson] o.a.s.c.S.Request [sportPerson]  webapp=/solr path=/select params={q=content:(michelle)&hl=on&hl.fragsize=450&hl.fl=content} hits=527 status=0 QTime=78
2019-11-23 22:11:26.058 INFO  (qtp1850180796-22) [   x:sportPerson] o.a.s.c.S.Request [sportPerson]  webapp=/solr path=/select params={q=content:(obama)&hl=on&hl.fragsize=450&hl.fl=content} hits=322 status=0 QTime=120
2019-11-23 22:12:11.762 INFO  (qtp1850180796-23) [   x:sportPerson] o.a.s.c.S.Request [sportPerson]  webapp=/solr path=/select params={q=content:(Ciao)&hl=on&hl.fragsize=450&hl.fl=content} hits=9 status=0 QTime=138
2019-11-23 22:12:18.803 INFO  (qtp1850180796-20) [   x:sportPerson] o.a.s.c.S.Request [sportPerson]  webapp=/solr path=/select params={q=content:(jjsjsj)&hl=on&hl.fragsize=450&hl.fl=content} hits=0 status=0 QTime=8
2019-11-23 22:12:23.853 INFO  (qtp1850180796-21) [   x:sportPerson] o.a.s.c.S.Request [sportPerson]  webapp=/solr path=/select params={q=content:(KKK)&hl=on&hl.fragsize=450&hl.fl=content} hits=7 status=0 QTime=102
2019-11-23 22:12:34.084 INFO  (qtp1850180796-23) [   x:sportPerson] o.a.s.c.S.Request [sportPerson]  webapp=/solr path=/select params={q=content:(federer)&hl=on&hl.fragsize=450&hl.fl=content} hits=176 status=0 QTime=86
2019-11-23 22:12:38.470 INFO  (qtp1850180796-20) [   x:sportPerson] o.a.s.c.S.Request [sportPerson]  webapp=/solr path=/select params={q=content:(kkkk)&hl=on&hl.fragsize=450&hl.fl=content} hits=0 status=0 QTime=1
2019-11-23 22:12:48.313 INFO  (qtp1850180796-23) [   x:sportPerson] o.a.s.c.S.Request [sportPerson]  webapp=/solr path=/select params={q=content:(marquez)&hl=on&hl.fragsize=450&hl.fl=content} hits=41 status=0 QTime=45
2019-11-24 09:35:10.474 INFO  (ShutdownMonitor) [   ] o.e.j.s.AbstractConnector Stopped ServerConnector@4b2bac3f{HTTP/1.1,[http/1.1, h2c]}{0.0.0.0:8983}
2019-11-24 09:35:10.475 INFO  (ShutdownMonitor) [   ] o.e.j.s.session node0 Stopped scavenging
2019-11-24 09:35:10.507 INFO  (ShutdownMonitor) [   ] o.a.s.c.CoreContainer Shutting down CoreContainer instance=208684473
2019-11-24 09:35:10.510 INFO  (coreCloseExecutor-15-thread-1) [   x:sportPerson] o.a.s.c.SolrCore [sportPerson]  CLOSING SolrCore org.apache.solr.core.SolrCore@5fa30259
2019-11-24 09:35:10.512 INFO  (coreCloseExecutor-15-thread-1) [   x:sportPerson] o.a.s.m.SolrMetricManager Closing metric reporters for registry=solr.core.sportPerson, tag=SolrCore@5fa30259
2019-11-24 09:35:10.515 INFO  (coreCloseExecutor-15-thread-1) [   x:sportPerson] o.a.s.m.r.SolrJmxReporter Closing reporter [org.apache.solr.metrics.reporters.SolrJmxReporter@314f3e8a: rootName = null, domain = solr.core.sportPerson, service url = null, agent id = null] for registry solr.core.sportPerson / com.codahale.metrics.MetricRegistry@2d099855
2019-11-24 09:35:10.616 INFO  (ShutdownMonitor) [   ] o.a.s.m.SolrMetricManager Closing metric reporters for registry=solr.node, tag=null
2019-11-24 09:35:10.617 INFO  (ShutdownMonitor) [   ] o.a.s.m.r.SolrJmxReporter Closing reporter [org.apache.solr.metrics.reporters.SolrJmxReporter@ab7a938: rootName = null, domain = solr.node, service url = null, agent id = null] for registry solr.node / com.codahale.metrics.MetricRegistry@340596cf
2019-11-24 09:35:10.622 INFO  (ShutdownMonitor) [   ] o.a.s.m.SolrMetricManager Closing metric reporters for registry=solr.jvm, tag=null
2019-11-24 09:35:10.622 INFO  (ShutdownMonitor) [   ] o.a.s.m.r.SolrJmxReporter Closing reporter [org.apache.solr.metrics.reporters.SolrJmxReporter@5dbe30be: rootName = null, domain = solr.jvm, service url = null, agent id = null] for registry solr.jvm / com.codahale.metrics.MetricRegistry@68c65635
2019-11-24 09:35:10.626 INFO  (ShutdownMonitor) [   ] o.a.s.m.SolrMetricManager Closing metric reporters for registry=solr.jetty, tag=null
2019-11-24 09:35:10.627 INFO  (ShutdownMonitor) [   ] o.a.s.m.r.SolrJmxReporter Closing reporter [org.apache.solr.metrics.reporters.SolrJmxReporter@4fe89c24: rootName = null, domain = solr.jetty, service url = null, agent id = null] for registry solr.jetty / com.codahale.metrics.MetricRegistry@71b19964
2019-11-24 09:35:10.664 INFO  (ShutdownMonitor) [   ] o.e.j.s.h.ContextHandler Stopped o.e.j.w.WebAppContext@693fe6c9{/solr,null,UNAVAILABLE}{/Users/omini/IRP/solr-8.3.0/server/solr-webapp/webapp}
