2019-11-27 12:08:31.666 INFO  (main) [   ] o.e.j.u.log Logging initialized @1695ms to org.eclipse.jetty.util.log.Slf4jLog
2019-11-27 12:08:31.891 WARN  (main) [   ] o.e.j.x.XmlConfiguration Deprecated method public void org.eclipse.jetty.rewrite.handler.RedirectRegexRule.setReplacement(java.lang.String) in file:///Users/omini/IRP/solr-8.3.0/server/etc/jetty.xml
2019-11-27 12:08:32.008 WARN  (main) [   ] o.e.j.s.AbstractConnector Ignoring deprecated socket close linger time
2019-11-27 12:08:32.008 WARN  (main) [   ] o.e.j.x.XmlConfiguration Deprecated method public void org.eclipse.jetty.server.ServerConnector.setSoLingerTime(int) in file:///Users/omini/IRP/solr-8.3.0/server/etc/jetty-http.xml
2019-11-27 12:08:32.023 INFO  (main) [   ] o.e.j.s.Server jetty-9.4.19.v20190610; built: 2019-06-10T16:30:51.723Z; git: afcf563148970e98786327af5e07c261fda175d3; jvm 1.8.0_222-b10
2019-11-27 12:08:32.064 INFO  (main) [   ] o.e.j.d.p.ScanningAppProvider Deployment monitor [file:///Users/omini/IRP/solr-8.3.0/server/contexts/] at interval 0
2019-11-27 12:08:32.533 INFO  (main) [   ] o.e.j.w.StandardDescriptorProcessor NO JSP Support for /solr, did not find org.apache.jasper.servlet.JspServlet
2019-11-27 12:08:32.547 INFO  (main) [   ] o.e.j.s.session DefaultSessionIdManager workerName=node0
2019-11-27 12:08:32.547 INFO  (main) [   ] o.e.j.s.session No SessionScavenger set, using defaults
2019-11-27 12:08:32.550 INFO  (main) [   ] o.e.j.s.session node0 Scavenging every 600000ms
2019-11-27 12:08:32.666 INFO  (main) [   ] o.a.s.s.SolrDispatchFilter Using logger factory org.apache.logging.slf4j.Log4jLoggerFactory
2019-11-27 12:08:32.673 INFO  (main) [   ] o.a.s.s.SolrDispatchFilter  ___      _       Welcome to Apache Solr™ version 8.3.0
2019-11-27 12:08:32.674 INFO  (main) [   ] o.a.s.s.SolrDispatchFilter / __| ___| |_ _   Starting in standalone mode on port 8983
2019-11-27 12:08:32.674 INFO  (main) [   ] o.a.s.s.SolrDispatchFilter \__ \/ _ \ | '_|  Install dir: /Users/omini/IRP/solr-8.3.0
2019-11-27 12:08:32.675 INFO  (main) [   ] o.a.s.s.SolrDispatchFilter |___/\___/_|_|    Start time: 2019-11-27T12:08:32.675Z
2019-11-27 12:08:32.710 INFO  (main) [   ] o.a.s.c.SolrResourceLoader Using system property solr.solr.home: /Users/omini/IRP/solr-8.3.0/server/solr
2019-11-27 12:08:32.727 INFO  (main) [   ] o.a.s.c.SolrXmlConfig Loading container configuration from /Users/omini/IRP/solr-8.3.0/server/solr/solr.xml
2019-11-27 12:08:32.914 INFO  (main) [   ] o.a.s.c.SolrXmlConfig MBean server found: com.sun.jmx.mbeanserver.JmxMBeanServer@14ec4505, but no JMX reporters were configured - adding default JMX reporter.
2019-11-27 12:08:33.574 INFO  (main) [   ] o.a.s.h.c.HttpShardHandlerFactory Host whitelist initialized: WhitelistHostChecker [whitelistHosts=null, whitelistHostCheckingEnabled=true]
2019-11-27 12:08:33.920 WARN  (main) [   ] o.e.j.u.s.S.config Trusting all certificates configured for Client@4ce1d6d0[provider=null,keyStore=null,trustStore=null]
2019-11-27 12:08:33.920 WARN  (main) [   ] o.e.j.u.s.S.config No Client EndPointIdentificationAlgorithm configured for Client@4ce1d6d0[provider=null,keyStore=null,trustStore=null]
2019-11-27 12:08:34.202 WARN  (main) [   ] o.e.j.u.s.S.config Trusting all certificates configured for Client@77a7cf58[provider=null,keyStore=null,trustStore=null]
2019-11-27 12:08:34.202 WARN  (main) [   ] o.e.j.u.s.S.config No Client EndPointIdentificationAlgorithm configured for Client@77a7cf58[provider=null,keyStore=null,trustStore=null]
2019-11-27 12:08:34.444 INFO  (main) [   ] o.a.s.c.TransientSolrCoreCacheDefault Allocating transient cache for 2147483647 transient cores
2019-11-27 12:08:34.447 INFO  (main) [   ] o.a.s.h.a.MetricsHistoryHandler No .system collection, keeping metrics history in memory.
2019-11-27 12:08:34.546 INFO  (main) [   ] o.a.s.m.r.SolrJmxReporter JMX monitoring for 'solr.node' (registry 'solr.node') enabled at server: com.sun.jmx.mbeanserver.JmxMBeanServer@14ec4505
2019-11-27 12:08:34.546 INFO  (main) [   ] o.a.s.m.r.SolrJmxReporter JMX monitoring for 'solr.jvm' (registry 'solr.jvm') enabled at server: com.sun.jmx.mbeanserver.JmxMBeanServer@14ec4505
2019-11-27 12:08:34.554 INFO  (main) [   ] o.a.s.m.r.SolrJmxReporter JMX monitoring for 'solr.jetty' (registry 'solr.jetty') enabled at server: com.sun.jmx.mbeanserver.JmxMBeanServer@14ec4505
2019-11-27 12:08:34.634 INFO  (main) [   ] o.a.s.c.CorePropertiesLocator Found 2 core definitions underneath /Users/omini/IRP/solr-8.3.0/server/solr
2019-11-27 12:08:34.634 INFO  (main) [   ] o.a.s.c.CorePropertiesLocator Cores are: [sportPerson2, sportPerson]
2019-11-27 12:08:34.706 INFO  (coreLoadExecutor-9-thread-1) [   x:sportPerson2] o.a.s.c.SolrResourceLoader [sportPerson2] Added 61 libs to classloader, from paths: [/Users/omini/IRP/solr-8.3.0/contrib/clustering/lib, /Users/omini/IRP/solr-8.3.0/contrib/extraction/lib, /Users/omini/IRP/solr-8.3.0/contrib/langid/lib, /Users/omini/IRP/solr-8.3.0/contrib/velocity/lib, /Users/omini/IRP/solr-8.3.0/dist]
2019-11-27 12:08:34.706 INFO  (coreLoadExecutor-9-thread-2) [   x:sportPerson] o.a.s.c.SolrResourceLoader [sportPerson] Added 61 libs to classloader, from paths: [/Users/omini/IRP/solr-8.3.0/contrib/clustering/lib, /Users/omini/IRP/solr-8.3.0/contrib/extraction/lib, /Users/omini/IRP/solr-8.3.0/contrib/langid/lib, /Users/omini/IRP/solr-8.3.0/contrib/velocity/lib, /Users/omini/IRP/solr-8.3.0/dist]
2019-11-27 12:08:34.897 INFO  (main) [   ] o.e.j.s.h.ContextHandler Started o.e.j.w.WebAppContext@693fe6c9{/solr,file:///Users/omini/IRP/solr-8.3.0/server/solr-webapp/webapp/,AVAILABLE}{/Users/omini/IRP/solr-8.3.0/server/solr-webapp/webapp}
2019-11-27 12:08:34.921 INFO  (main) [   ] o.e.j.s.AbstractConnector Started ServerConnector@4b2bac3f{HTTP/1.1,[http/1.1, h2c]}{0.0.0.0:8983}
2019-11-27 12:08:34.921 INFO  (main) [   ] o.e.j.s.Server Started @4952ms
2019-11-27 12:08:35.136 INFO  (coreLoadExecutor-9-thread-1) [   x:sportPerson2] o.a.s.c.SolrConfig Using Lucene MatchVersion: 8.3.0
2019-11-27 12:08:35.136 INFO  (coreLoadExecutor-9-thread-2) [   x:sportPerson] o.a.s.c.SolrConfig Using Lucene MatchVersion: 8.3.0
2019-11-27 12:08:35.387 INFO  (coreLoadExecutor-9-thread-1) [   x:sportPerson2] o.a.s.s.IndexSchema [sportPerson2] Schema name=nutch
2019-11-27 12:08:35.388 INFO  (coreLoadExecutor-9-thread-2) [   x:sportPerson] o.a.s.s.IndexSchema [sportPerson] Schema name=nutch
2019-11-27 12:08:35.455 WARN  (coreLoadExecutor-9-thread-2) [   x:sportPerson] o.a.s.c.SolrResourceLoader Solr loaded a deprecated plugin/analysis class [solr.TrieDateField]. Please consult documentation how to replace it accordingly.
2019-11-27 12:08:35.455 WARN  (coreLoadExecutor-9-thread-1) [   x:sportPerson2] o.a.s.c.SolrResourceLoader Solr loaded a deprecated plugin/analysis class [solr.TrieDateField]. Please consult documentation how to replace it accordingly.
2019-11-27 12:08:35.461 WARN  (coreLoadExecutor-9-thread-2) [   x:sportPerson] o.a.s.c.SolrResourceLoader Solr loaded a deprecated plugin/analysis class [solr.TrieDoubleField]. Please consult documentation how to replace it accordingly.
2019-11-27 12:08:35.461 WARN  (coreLoadExecutor-9-thread-1) [   x:sportPerson2] o.a.s.c.SolrResourceLoader Solr loaded a deprecated plugin/analysis class [solr.TrieDoubleField]. Please consult documentation how to replace it accordingly.
2019-11-27 12:08:35.465 WARN  (coreLoadExecutor-9-thread-2) [   x:sportPerson] o.a.s.c.SolrResourceLoader Solr loaded a deprecated plugin/analysis class [solr.TrieFloatField]. Please consult documentation how to replace it accordingly.
2019-11-27 12:08:35.465 WARN  (coreLoadExecutor-9-thread-1) [   x:sportPerson2] o.a.s.c.SolrResourceLoader Solr loaded a deprecated plugin/analysis class [solr.TrieFloatField]. Please consult documentation how to replace it accordingly.
2019-11-27 12:08:35.472 WARN  (coreLoadExecutor-9-thread-2) [   x:sportPerson] o.a.s.c.SolrResourceLoader Solr loaded a deprecated plugin/analysis class [solr.TrieIntField]. Please consult documentation how to replace it accordingly.
2019-11-27 12:08:35.472 WARN  (coreLoadExecutor-9-thread-1) [   x:sportPerson2] o.a.s.c.SolrResourceLoader Solr loaded a deprecated plugin/analysis class [solr.TrieIntField]. Please consult documentation how to replace it accordingly.
2019-11-27 12:08:35.480 WARN  (coreLoadExecutor-9-thread-1) [   x:sportPerson2] o.a.s.c.SolrResourceLoader Solr loaded a deprecated plugin/analysis class [solr.LatLonType]. Please consult documentation how to replace it accordingly.
2019-11-27 12:08:35.480 WARN  (coreLoadExecutor-9-thread-2) [   x:sportPerson] o.a.s.c.SolrResourceLoader Solr loaded a deprecated plugin/analysis class [solr.LatLonType]. Please consult documentation how to replace it accordingly.
2019-11-27 12:08:35.484 WARN  (coreLoadExecutor-9-thread-2) [   x:sportPerson] o.a.s.c.SolrResourceLoader Solr loaded a deprecated plugin/analysis class [solr.TrieLongField]. Please consult documentation how to replace it accordingly.
2019-11-27 12:08:35.484 WARN  (coreLoadExecutor-9-thread-1) [   x:sportPerson2] o.a.s.c.SolrResourceLoader Solr loaded a deprecated plugin/analysis class [solr.TrieLongField]. Please consult documentation how to replace it accordingly.
2019-11-27 12:08:35.546 WARN  (coreLoadExecutor-9-thread-1) [   x:sportPerson2] o.a.s.c.SolrResourceLoader Solr loaded a deprecated plugin/analysis class [solr.SynonymFilterFactory]. Please consult documentation how to replace it accordingly.
2019-11-27 12:08:35.550 WARN  (coreLoadExecutor-9-thread-1) [   x:sportPerson2] o.a.s.c.SolrResourceLoader Solr loaded a deprecated plugin/analysis class [solr.WordDelimiterFilterFactory]. Please consult documentation how to replace it accordingly.
2019-11-27 12:08:35.720 INFO  (coreLoadExecutor-9-thread-1) [   x:sportPerson2] o.a.s.s.IndexSchema Loaded schema nutch/1.5 with uniqueid field id
2019-11-27 12:08:35.720 INFO  (coreLoadExecutor-9-thread-2) [   x:sportPerson] o.a.s.s.IndexSchema Loaded schema nutch/1.5 with uniqueid field id
2019-11-27 12:08:35.737 INFO  (coreLoadExecutor-9-thread-1) [   x:sportPerson2] o.a.s.c.CoreContainer Creating SolrCore 'sportPerson2' using configuration from instancedir /Users/omini/IRP/solr-8.3.0/server/solr/sportPerson2, trusted=true
2019-11-27 12:08:35.740 INFO  (coreLoadExecutor-9-thread-2) [   x:sportPerson] o.a.s.c.CoreContainer Creating SolrCore 'sportPerson' using configuration from instancedir /Users/omini/IRP/solr-8.3.0/server/solr/sportPerson, trusted=true
2019-11-27 12:08:35.774 INFO  (coreLoadExecutor-9-thread-2) [   x:sportPerson] o.a.s.m.r.SolrJmxReporter JMX monitoring for 'solr.core.sportPerson' (registry 'solr.core.sportPerson') enabled at server: com.sun.jmx.mbeanserver.JmxMBeanServer@14ec4505
2019-11-27 12:08:35.776 INFO  (coreLoadExecutor-9-thread-1) [   x:sportPerson2] o.a.s.m.r.SolrJmxReporter JMX monitoring for 'solr.core.sportPerson2' (registry 'solr.core.sportPerson2') enabled at server: com.sun.jmx.mbeanserver.JmxMBeanServer@14ec4505
2019-11-27 12:08:35.799 INFO  (coreLoadExecutor-9-thread-2) [   x:sportPerson] o.a.s.c.SolrCore [[sportPerson] ] Opening new SolrCore at [/Users/omini/IRP/solr-8.3.0/server/solr/sportPerson], dataDir=[/Users/omini/IRP/solr-8.3.0/server/solr/sportPerson/data/]
2019-11-27 12:08:35.799 INFO  (coreLoadExecutor-9-thread-1) [   x:sportPerson2] o.a.s.c.SolrCore [[sportPerson2] ] Opening new SolrCore at [/Users/omini/IRP/solr-8.3.0/server/solr/sportPerson2], dataDir=[/Users/omini/IRP/solr-8.3.0/server/solr/sportPerson2/data/]
2019-11-27 12:08:35.853 INFO  (coreLoadExecutor-9-thread-1) [   x:sportPerson2] o.a.s.r.XSLTResponseWriter xsltCacheLifetimeSeconds=5
2019-11-27 12:08:35.856 INFO  (coreLoadExecutor-9-thread-2) [   x:sportPerson] o.a.s.r.XSLTResponseWriter xsltCacheLifetimeSeconds=5
2019-11-27 12:08:36.627 INFO  (coreLoadExecutor-9-thread-1) [   x:sportPerson2] o.a.s.u.UpdateHandler Using UpdateLog implementation: org.apache.solr.update.UpdateLog
2019-11-27 12:08:36.628 INFO  (coreLoadExecutor-9-thread-1) [   x:sportPerson2] o.a.s.u.UpdateLog Initializing UpdateLog: dataDir= defaultSyncLevel=FLUSH numRecordsToKeep=100 maxNumLogsToKeep=10 numVersionBuckets=65536
2019-11-27 12:08:36.628 INFO  (coreLoadExecutor-9-thread-2) [   x:sportPerson] o.a.s.u.UpdateHandler Using UpdateLog implementation: org.apache.solr.update.UpdateLog
2019-11-27 12:08:36.629 INFO  (coreLoadExecutor-9-thread-2) [   x:sportPerson] o.a.s.u.UpdateLog Initializing UpdateLog: dataDir= defaultSyncLevel=FLUSH numRecordsToKeep=100 maxNumLogsToKeep=10 numVersionBuckets=65536
2019-11-27 12:08:36.662 INFO  (coreLoadExecutor-9-thread-2) [   x:sportPerson] o.a.s.u.CommitTracker Hard AutoCommit: if uncommitted for 15000ms; 
2019-11-27 12:08:36.662 INFO  (coreLoadExecutor-9-thread-2) [   x:sportPerson] o.a.s.u.CommitTracker Soft AutoCommit: disabled
2019-11-27 12:08:36.668 INFO  (coreLoadExecutor-9-thread-1) [   x:sportPerson2] o.a.s.u.CommitTracker Hard AutoCommit: if uncommitted for 15000ms; 
2019-11-27 12:08:36.668 INFO  (coreLoadExecutor-9-thread-1) [   x:sportPerson2] o.a.s.u.CommitTracker Soft AutoCommit: disabled
2019-11-27 12:08:36.974 INFO  (coreLoadExecutor-9-thread-1) [   x:sportPerson2] o.a.s.s.SolrIndexSearcher Opening [Searcher@de49fa4[sportPerson2] main]
2019-11-27 12:08:36.976 INFO  (coreLoadExecutor-9-thread-2) [   x:sportPerson] o.a.s.s.SolrIndexSearcher Opening [Searcher@e967211[sportPerson] main]
2019-11-27 12:08:36.988 INFO  (coreLoadExecutor-9-thread-1) [   x:sportPerson2] o.a.s.r.ManagedResourceStorage File-based storage initialized to use dir: /Users/omini/IRP/solr-8.3.0/server/solr/sportPerson2/conf
2019-11-27 12:08:36.989 INFO  (coreLoadExecutor-9-thread-2) [   x:sportPerson] o.a.s.r.ManagedResourceStorage File-based storage initialized to use dir: /Users/omini/IRP/solr-8.3.0/server/solr/sportPerson/conf
2019-11-27 12:08:37.025 INFO  (coreLoadExecutor-9-thread-1) [   x:sportPerson2] o.a.s.h.c.SpellCheckComponent Initializing spell checkers
2019-11-27 12:08:37.027 INFO  (coreLoadExecutor-9-thread-2) [   x:sportPerson] o.a.s.h.c.SpellCheckComponent Initializing spell checkers
2019-11-27 12:08:37.036 INFO  (coreLoadExecutor-9-thread-2) [   x:sportPerson] o.a.s.s.DirectSolrSpellChecker init: {name=default,field=_text_,classname=solr.DirectSolrSpellChecker,distanceMeasure=internal,accuracy=0.5,maxEdits=2,minPrefix=1,maxInspections=5,minQueryLength=4,maxQueryFrequency=0.01}
2019-11-27 12:08:37.036 INFO  (coreLoadExecutor-9-thread-1) [   x:sportPerson2] o.a.s.s.DirectSolrSpellChecker init: {name=default,field=_text_,classname=solr.DirectSolrSpellChecker,distanceMeasure=internal,accuracy=0.5,maxEdits=2,minPrefix=1,maxInspections=5,minQueryLength=4,maxQueryFrequency=0.01}
2019-11-27 12:08:37.056 INFO  (coreLoadExecutor-9-thread-2) [   x:sportPerson] o.a.s.h.ReplicationHandler Commits will be reserved for 10000ms.
2019-11-27 12:08:37.056 INFO  (coreLoadExecutor-9-thread-1) [   x:sportPerson2] o.a.s.h.ReplicationHandler Commits will be reserved for 10000ms.
2019-11-27 12:08:37.084 INFO  (searcherExecutor-11-thread-1-processing-x:sportPerson2) [   x:sportPerson2] o.a.s.c.QuerySenderListener QuerySenderListener sending requests to Searcher@de49fa4[sportPerson2] main{ExitableDirectoryReader(UninvertingDirectoryReader(Uninverting(_0(8.3.0):C2:[diagnostics={java.vendor=AdoptOpenJDK, os=Mac OS X, java.version=1.8.0_222, java.vm.version=25.222-b10, lucene.version=8.3.0, os.arch=x86_64, java.runtime.version=1.8.0_222-b10, source=flush, os.version=10.15.1, timestamp=1574686721425}]:[attributes={Lucene50StoredFieldsFormat.mode=BEST_SPEED}]) Uninverting(_1(8.3.0):C1685:[diagnostics={java.vendor=AdoptOpenJDK, os=Mac OS X, java.version=1.8.0_222, java.vm.version=25.222-b10, lucene.version=8.3.0, os.arch=x86_64, java.runtime.version=1.8.0_222-b10, source=flush, os.version=10.15.1, timestamp=1574715824688}]:[attributes={Lucene50StoredFieldsFormat.mode=BEST_SPEED}]) Uninverting(_2(8.3.0):C1997:[diagnostics={java.vendor=AdoptOpenJDK, os=Mac OS X, java.version=1.8.0_222, java.vm.version=25.222-b10, lucene.version=8.3.0, os.arch=x86_64, java.runtime.version=1.8.0_222-b10, source=flush, os.version=10.15.1, timestamp=1574726913749}]:[attributes={Lucene50StoredFieldsFormat.mode=BEST_SPEED}])))}
2019-11-27 12:08:37.084 INFO  (searcherExecutor-11-thread-1-processing-x:sportPerson2) [   x:sportPerson2] o.a.s.c.QuerySenderListener QuerySenderListener done.
2019-11-27 12:08:37.084 INFO  (searcherExecutor-11-thread-1-processing-x:sportPerson2) [   x:sportPerson2] o.a.s.h.c.SpellCheckComponent Loading spell index for spellchecker: default
2019-11-27 12:08:37.092 INFO  (searcherExecutor-11-thread-1-processing-x:sportPerson2) [   x:sportPerson2] o.a.s.c.SolrCore [sportPerson2] Registered new searcher Searcher@de49fa4[sportPerson2] main{ExitableDirectoryReader(UninvertingDirectoryReader(Uninverting(_0(8.3.0):C2:[diagnostics={java.vendor=AdoptOpenJDK, os=Mac OS X, java.version=1.8.0_222, java.vm.version=25.222-b10, lucene.version=8.3.0, os.arch=x86_64, java.runtime.version=1.8.0_222-b10, source=flush, os.version=10.15.1, timestamp=1574686721425}]:[attributes={Lucene50StoredFieldsFormat.mode=BEST_SPEED}]) Uninverting(_1(8.3.0):C1685:[diagnostics={java.vendor=AdoptOpenJDK, os=Mac OS X, java.version=1.8.0_222, java.vm.version=25.222-b10, lucene.version=8.3.0, os.arch=x86_64, java.runtime.version=1.8.0_222-b10, source=flush, os.version=10.15.1, timestamp=1574715824688}]:[attributes={Lucene50StoredFieldsFormat.mode=BEST_SPEED}]) Uninverting(_2(8.3.0):C1997:[diagnostics={java.vendor=AdoptOpenJDK, os=Mac OS X, java.version=1.8.0_222, java.vm.version=25.222-b10, lucene.version=8.3.0, os.arch=x86_64, java.runtime.version=1.8.0_222-b10, source=flush, os.version=10.15.1, timestamp=1574726913749}]:[attributes={Lucene50StoredFieldsFormat.mode=BEST_SPEED}])))}
2019-11-27 12:08:37.095 INFO  (searcherExecutor-10-thread-1-processing-x:sportPerson) [   x:sportPerson] o.a.s.c.QuerySenderListener QuerySenderListener sending requests to Searcher@e967211[sportPerson] main{ExitableDirectoryReader(UninvertingDirectoryReader(Uninverting(_3(8.3.0):C3492/2003:[diagnostics={java.vendor=AdoptOpenJDK, os=Mac OS X, java.version=1.8.0_222, java.vm.version=25.222-b10, lucene.version=8.3.0, os.arch=x86_64, java.runtime.version=1.8.0_222-b10, source=flush, os.version=10.15, timestamp=1574033481978}]:[attributes={Lucene50StoredFieldsFormat.mode=BEST_SPEED}]:delGen=5) Uninverting(_4(8.3.0):C13:[diagnostics={java.vendor=AdoptOpenJDK, os=Mac OS X, java.version=1.8.0_222, java.vm.version=25.222-b10, lucene.version=8.3.0, os.arch=x86_64, java.runtime.version=1.8.0_222-b10, source=flush, os.version=10.15, timestamp=1574279790019}]:[attributes={Lucene50StoredFieldsFormat.mode=BEST_SPEED}]) Uninverting(_5(8.3.0):C2786:[diagnostics={java.vendor=AdoptOpenJDK, os=Mac OS X, java.version=1.8.0_222, java.vm.version=25.222-b10, lucene.version=8.3.0, os.arch=x86_64, java.runtime.version=1.8.0_222-b10, source=flush, os.version=10.15, timestamp=1574289380546}]:[attributes={Lucene50StoredFieldsFormat.mode=BEST_SPEED}]) Uninverting(_6(8.3.0):C2754:[diagnostics={java.vendor=AdoptOpenJDK, os=Mac OS X, java.version=1.8.0_222, java.vm.version=25.222-b10, lucene.version=8.3.0, os.arch=x86_64, java.runtime.version=1.8.0_222-b10, source=flush, os.version=10.15, timestamp=1574301011263}]:[attributes={Lucene50StoredFieldsFormat.mode=BEST_SPEED}]) Uninverting(_7(8.3.0):C32:[diagnostics={java.vendor=AdoptOpenJDK, os=Mac OS X, java.version=1.8.0_222, java.vm.version=25.222-b10, lucene.version=8.3.0, os.arch=x86_64, java.runtime.version=1.8.0_222-b10, source=flush, os.version=10.15, timestamp=1574301011523}]:[attributes={Lucene50StoredFieldsFormat.mode=BEST_SPEED}]) Uninverting(_8(8.3.0):C3847:[diagnostics={java.vendor=AdoptOpenJDK, os=Mac OS X, java.version=1.8.0_222, java.vm.version=25.222-b10, lucene.version=8.3.0, os.arch=x86_64, java.runtime.version=1.8.0_222-b10, source=flush, os.version=10.15, timestamp=1574301029848}]:[attributes={Lucene50StoredFieldsFormat.mode=BEST_SPEED}]) Uninverting(_9(8.3.0):C2086:[diagnostics={java.vendor=AdoptOpenJDK, os=Mac OS X, java.version=1.8.0_222, java.vm.version=25.222-b10, lucene.version=8.3.0, os.arch=x86_64, java.runtime.version=1.8.0_222-b10, source=flush, os.version=10.15, timestamp=1574365728182}]:[attributes={Lucene50StoredFieldsFormat.mode=BEST_SPEED}]) Uninverting(_a(8.3.0):C2159:[diagnostics={java.vendor=AdoptOpenJDK, os=Mac OS X, java.version=1.8.0_222, java.vm.version=25.222-b10, lucene.version=8.3.0, os.arch=x86_64, java.runtime.version=1.8.0_222-b10, source=flush, os.version=10.15, timestamp=1574365730702}]:[attributes={Lucene50StoredFieldsFormat.mode=BEST_SPEED}])))}
2019-11-27 12:08:37.095 INFO  (searcherExecutor-10-thread-1-processing-x:sportPerson) [   x:sportPerson] o.a.s.c.QuerySenderListener QuerySenderListener done.
2019-11-27 12:08:37.095 INFO  (searcherExecutor-10-thread-1-processing-x:sportPerson) [   x:sportPerson] o.a.s.h.c.SpellCheckComponent Loading spell index for spellchecker: default
2019-11-27 12:08:37.099 INFO  (searcherExecutor-10-thread-1-processing-x:sportPerson) [   x:sportPerson] o.a.s.c.SolrCore [sportPerson] Registered new searcher Searcher@e967211[sportPerson] main{ExitableDirectoryReader(UninvertingDirectoryReader(Uninverting(_3(8.3.0):C3492/2003:[diagnostics={java.vendor=AdoptOpenJDK, os=Mac OS X, java.version=1.8.0_222, java.vm.version=25.222-b10, lucene.version=8.3.0, os.arch=x86_64, java.runtime.version=1.8.0_222-b10, source=flush, os.version=10.15, timestamp=1574033481978}]:[attributes={Lucene50StoredFieldsFormat.mode=BEST_SPEED}]:delGen=5) Uninverting(_4(8.3.0):C13:[diagnostics={java.vendor=AdoptOpenJDK, os=Mac OS X, java.version=1.8.0_222, java.vm.version=25.222-b10, lucene.version=8.3.0, os.arch=x86_64, java.runtime.version=1.8.0_222-b10, source=flush, os.version=10.15, timestamp=1574279790019}]:[attributes={Lucene50StoredFieldsFormat.mode=BEST_SPEED}]) Uninverting(_5(8.3.0):C2786:[diagnostics={java.vendor=AdoptOpenJDK, os=Mac OS X, java.version=1.8.0_222, java.vm.version=25.222-b10, lucene.version=8.3.0, os.arch=x86_64, java.runtime.version=1.8.0_222-b10, source=flush, os.version=10.15, timestamp=1574289380546}]:[attributes={Lucene50StoredFieldsFormat.mode=BEST_SPEED}]) Uninverting(_6(8.3.0):C2754:[diagnostics={java.vendor=AdoptOpenJDK, os=Mac OS X, java.version=1.8.0_222, java.vm.version=25.222-b10, lucene.version=8.3.0, os.arch=x86_64, java.runtime.version=1.8.0_222-b10, source=flush, os.version=10.15, timestamp=1574301011263}]:[attributes={Lucene50StoredFieldsFormat.mode=BEST_SPEED}]) Uninverting(_7(8.3.0):C32:[diagnostics={java.vendor=AdoptOpenJDK, os=Mac OS X, java.version=1.8.0_222, java.vm.version=25.222-b10, lucene.version=8.3.0, os.arch=x86_64, java.runtime.version=1.8.0_222-b10, source=flush, os.version=10.15, timestamp=1574301011523}]:[attributes={Lucene50StoredFieldsFormat.mode=BEST_SPEED}]) Uninverting(_8(8.3.0):C3847:[diagnostics={java.vendor=AdoptOpenJDK, os=Mac OS X, java.version=1.8.0_222, java.vm.version=25.222-b10, lucene.version=8.3.0, os.arch=x86_64, java.runtime.version=1.8.0_222-b10, source=flush, os.version=10.15, timestamp=1574301029848}]:[attributes={Lucene50StoredFieldsFormat.mode=BEST_SPEED}]) Uninverting(_9(8.3.0):C2086:[diagnostics={java.vendor=AdoptOpenJDK, os=Mac OS X, java.version=1.8.0_222, java.vm.version=25.222-b10, lucene.version=8.3.0, os.arch=x86_64, java.runtime.version=1.8.0_222-b10, source=flush, os.version=10.15, timestamp=1574365728182}]:[attributes={Lucene50StoredFieldsFormat.mode=BEST_SPEED}]) Uninverting(_a(8.3.0):C2159:[diagnostics={java.vendor=AdoptOpenJDK, os=Mac OS X, java.version=1.8.0_222, java.vm.version=25.222-b10, lucene.version=8.3.0, os.arch=x86_64, java.runtime.version=1.8.0_222-b10, source=flush, os.version=10.15, timestamp=1574365730702}]:[attributes={Lucene50StoredFieldsFormat.mode=BEST_SPEED}])))}
2019-11-27 12:48:39.135 INFO  (qtp1850180796-19) [   ] o.a.s.s.HttpSolrCall [admin] webapp=null path=/admin/cores params={indexInfo=false&wt=json&_=1574858918228} status=0 QTime=16
2019-11-27 12:48:39.343 INFO  (qtp1850180796-21) [   ] o.a.s.s.HttpSolrCall [admin] webapp=null path=/admin/info/system params={wt=json&_=1574858918231} status=0 QTime=213
2019-11-27 12:48:39.367 INFO  (qtp1850180796-20) [   ] o.a.s.s.HttpSolrCall [admin] webapp=null path=/admin/info/system params={wt=json&_=1574858918231} status=0 QTime=19
2019-11-27 12:49:53.371 INFO  (qtp1850180796-21) [   x:sportPerson2] o.a.s.c.S.Request [sportPerson2]  webapp=/solr path=/select params={q=content:(rossi)&hl=on&hl.fragsize=450&hl.method=unified&hl.fl=content} hits=118 status=0 QTime=507
2019-11-27 12:50:00.544 INFO  (qtp1850180796-18) [   x:sportPerson2] o.a.s.c.S.Request [sportPerson2]  webapp=/solr path=/select params={q=content:(marquez)&hl=on&hl.fragsize=450&hl.method=unified&hl.fl=content} hits=14 status=0 QTime=60
2019-11-27 12:50:06.511 INFO  (qtp1850180796-20) [   x:sportPerson2] o.a.s.c.S.Request [sportPerson2]  webapp=/solr path=/select params={q=content:(rossi)&hl=on&hl.fragsize=450&hl.method=unified&hl.fl=content} hits=118 status=0 QTime=39
2019-11-27 12:50:09.050 INFO  (qtp1850180796-18) [   x:sportPerson2] o.a.s.c.S.Request [sportPerson2]  webapp=/solr path=/select params={q=content:(rossi)&hl=on&hl.fragsize=450&hl.method=unified&hl.fl=content} hits=118 status=0 QTime=50
2019-11-27 12:50:10.796 INFO  (qtp1850180796-20) [   x:sportPerson2] o.a.s.c.S.Request [sportPerson2]  webapp=/solr path=/select params={q=content:(rossi)&hl=on&hl.fragsize=450&hl.method=unified&hl.fl=content} hits=118 status=0 QTime=43
2019-11-27 13:44:51.904 INFO  (qtp1850180796-17) [   x:sportPerson2] o.a.s.c.S.Request [sportPerson2]  webapp=/solr path=/select params={q=content:(valentino+rossi)&hl=on&hl.fragsize=450&hl.method=unified&hl.fl=content} hits=128 status=0 QTime=155
2019-11-27 13:45:58.784 INFO  (qtp1850180796-20) [   x:sportPerson2] o.a.s.c.S.Request [sportPerson2]  webapp=/solr path=/select params={q=content:(famous+motorcyclist)&hl=on&hl.fragsize=450&hl.method=unified&hl.fl=content} hits=702 status=0 QTime=97
2019-11-27 13:46:32.216 INFO  (qtp1850180796-18) [   x:sportPerson2] o.a.s.c.S.Request [sportPerson2]  webapp=/solr path=/select params={q=content:(famous+italian+motorcyclist)&hl=on&hl.fragsize=450&hl.method=unified&hl.fl=content} hits=1118 status=0 QTime=39
2019-11-27 13:47:04.041 INFO  (qtp1850180796-20) [   x:sportPerson2] o.a.s.c.S.Request [sportPerson2]  webapp=/solr path=/select params={q=content:(famous+italian+alive+motorcyclist)&hl=on&hl.fragsize=450&hl.method=unified&hl.fl=content} hits=1187 status=0 QTime=33
2019-11-27 13:47:06.307 INFO  (qtp1850180796-18) [   x:sportPerson2] o.a.s.c.S.Request [sportPerson2]  webapp=/solr path=/select params={q=content:(famous+italian+alive+motorcyclist)&hl=on&hl.fragsize=450&hl.method=unified&hl.fl=content} hits=1187 status=0 QTime=23
2019-11-27 13:47:08.597 INFO  (qtp1850180796-20) [   x:sportPerson2] o.a.s.c.S.Request [sportPerson2]  webapp=/solr path=/select params={q=content:(famous+italian+alive+motorcyclist)&hl=on&hl.fragsize=450&hl.method=unified&hl.fl=content} hits=1187 status=0 QTime=29
2019-11-27 13:47:22.684 INFO  (qtp1850180796-18) [   x:sportPerson2] o.a.s.c.S.Request [sportPerson2]  webapp=/solr path=/select params={q=content:(italian+motorcyclist)&hl=on&hl.fragsize=450&hl.method=unified&hl.fl=content} hits=640 status=0 QTime=26
2019-11-27 13:48:18.939 INFO  (qtp1850180796-20) [   x:sportPerson2] o.a.s.c.S.Request [sportPerson2]  webapp=/solr path=/select params={q=content:(italian+motorcycle+rider)&hl=on&hl.fragsize=450&hl.method=unified&hl.fl=content} hits=914 status=0 QTime=51
2019-11-27 22:12:46.901 INFO  (qtp1850180796-14) [   x:sportPerson2] o.a.s.c.S.Request [sportPerson2]  webapp=/solr path=/select params={q=content:(swiss+tennis+player)&hl=on&hl.fragsize=450&hl.method=unified&hl.fl=content} hits=1851 status=0 QTime=185
2019-11-27 22:12:53.671 INFO  (qtp1850180796-20) [   x:sportPerson2] o.a.s.c.S.Request [sportPerson2]  webapp=/solr path=/select params={q=content:(swiss+tennis+)&hl=on&hl.fragsize=450&hl.method=unified&hl.fl=content} hits=981 status=0 QTime=63
2019-11-27 22:13:18.689 INFO  (qtp1850180796-15) [   x:sportPerson2] o.a.s.c.S.Request [sportPerson2]  webapp=/solr path=/select params={q=content:(best+paid+football)&hl=on&hl.fragsize=450&hl.method=unified&hl.fl=content} hits=2421 status=0 QTime=94
2019-11-27 22:13:49.344 INFO  (qtp1850180796-21) [   x:sportPerson2] o.a.s.c.S.Request [sportPerson2]  webapp=/solr path=/select params={q=content:(soccer)&hl=on&hl.fragsize=450&hl.method=unified&hl.fl=content} hits=594 status=0 QTime=76
2019-11-27 22:14:01.618 INFO  (qtp1850180796-15) [   ] o.a.s.s.HttpSolrCall [admin] webapp=null path=/admin/cores params={indexInfo=false&wt=json&_=1574858918228} status=0 QTime=1
2019-11-27 22:14:01.716 INFO  (qtp1850180796-22) [   x:sportPerson2] o.a.s.c.S.Request [sportPerson2]  webapp=/solr path=/admin/ping params={action=status&wt=json&_=1574858918231&ts=1574858918231} status=503 QTime=84
2019-11-27 22:14:01.720 INFO  (qtp1850180796-20) [   x:sportPerson2] o.a.s.c.S.Request [sportPerson2]  webapp=/solr path=/admin/luke params={numTerms=0&show=index&wt=json&_=1574892841606} status=0 QTime=99
2019-11-27 22:14:01.741 INFO  (qtp1850180796-15) [   x:sportPerson2] o.a.s.c.S.Request [sportPerson2]  webapp=/solr path=/replication params={wt=json&command=details&_=1574892841607} status=0 QTime=114
2019-11-27 22:14:01.823 INFO  (qtp1850180796-18) [   x:sportPerson2] o.a.s.c.S.Request [sportPerson2]  webapp=/solr path=/admin/system params={wt=json&_=1574892841606} status=0 QTime=192
2019-11-27 22:14:01.823 INFO  (qtp1850180796-21) [   ] o.a.s.s.HttpSolrCall [admin] webapp=null path=/admin/info/system params={wt=json&_=1574858918231} status=0 QTime=203
2019-11-27 22:14:08.940 INFO  (qtp1850180796-14) [   ] o.a.s.s.HttpSolrCall [admin] webapp=null path=/admin/cores params={indexInfo=false&wt=json&_=1574858918228} status=0 QTime=0
2019-11-27 22:14:08.966 INFO  (qtp1850180796-17) [   ] o.a.s.s.HttpSolrCall [admin] webapp=null path=/admin/info/system params={wt=json&_=1574858918231} status=0 QTime=24
2019-11-27 22:14:42.143 ERROR (qtp1850180796-14) [   x:sportPerson2] o.a.s.h.RequestHandlerBase org.apache.solr.common.SolrException: Can't determine a Sort Order (asc or desc) in sort spec 'title', pos=5
	at org.apache.solr.search.SortSpecParsing.parseSortSpecImpl(SortSpecParsing.java:173)
	at org.apache.solr.search.SortSpecParsing.parseSortSpec(SortSpecParsing.java:60)
	at org.apache.solr.search.QParser.getSortSpec(QParser.java:281)
	at org.apache.solr.handler.component.QueryComponent.prepare(QueryComponent.java:187)
	at org.apache.solr.handler.component.SearchHandler.handleRequestBody(SearchHandler.java:279)
	at org.apache.solr.handler.RequestHandlerBase.handleRequest(RequestHandlerBase.java:198)
	at org.apache.solr.core.SolrCore.execute(SolrCore.java:2576)
	at org.apache.solr.servlet.HttpSolrCall.execute(HttpSolrCall.java:803)
	at org.apache.solr.servlet.HttpSolrCall.call(HttpSolrCall.java:582)
	at org.apache.solr.servlet.SolrDispatchFilter.doFilter(SolrDispatchFilter.java:424)
	at org.apache.solr.servlet.SolrDispatchFilter.doFilter(SolrDispatchFilter.java:351)
	at org.eclipse.jetty.servlet.ServletHandler$CachedChain.doFilter(ServletHandler.java:1602)
	at org.eclipse.jetty.servlet.ServletHandler.doHandle(ServletHandler.java:540)
	at org.eclipse.jetty.server.handler.ScopedHandler.handle(ScopedHandler.java:146)
	at org.eclipse.jetty.security.SecurityHandler.handle(SecurityHandler.java:548)
	at org.eclipse.jetty.server.handler.HandlerWrapper.handle(HandlerWrapper.java:132)
	at org.eclipse.jetty.server.handler.ScopedHandler.nextHandle(ScopedHandler.java:257)
	at org.eclipse.jetty.server.session.SessionHandler.doHandle(SessionHandler.java:1711)
	at org.eclipse.jetty.server.handler.ScopedHandler.nextHandle(ScopedHandler.java:255)
	at org.eclipse.jetty.server.handler.ContextHandler.doHandle(ContextHandler.java:1347)
	at org.eclipse.jetty.server.handler.ScopedHandler.nextScope(ScopedHandler.java:203)
	at org.eclipse.jetty.servlet.ServletHandler.doScope(ServletHandler.java:480)
	at org.eclipse.jetty.server.session.SessionHandler.doScope(SessionHandler.java:1678)
	at org.eclipse.jetty.server.handler.ScopedHandler.nextScope(ScopedHandler.java:201)
	at org.eclipse.jetty.server.handler.ContextHandler.doScope(ContextHandler.java:1249)
	at org.eclipse.jetty.server.handler.ScopedHandler.handle(ScopedHandler.java:144)
	at org.eclipse.jetty.server.handler.ContextHandlerCollection.handle(ContextHandlerCollection.java:220)
	at org.eclipse.jetty.server.handler.HandlerCollection.handle(HandlerCollection.java:152)
	at org.eclipse.jetty.server.handler.HandlerWrapper.handle(HandlerWrapper.java:132)
	at org.eclipse.jetty.rewrite.handler.RewriteHandler.handle(RewriteHandler.java:335)
	at org.eclipse.jetty.server.handler.HandlerWrapper.handle(HandlerWrapper.java:132)
	at org.eclipse.jetty.server.Server.handle(Server.java:505)
	at org.eclipse.jetty.server.HttpChannel.handle(HttpChannel.java:370)
	at org.eclipse.jetty.server.HttpConnection.onFillable(HttpConnection.java:267)
	at org.eclipse.jetty.io.AbstractConnection$ReadCallback.succeeded(AbstractConnection.java:305)
	at org.eclipse.jetty.io.FillInterest.fillable(FillInterest.java:103)
	at org.eclipse.jetty.io.ChannelEndPoint$2.run(ChannelEndPoint.java:117)
	at org.eclipse.jetty.util.thread.strategy.EatWhatYouKill.runTask(EatWhatYouKill.java:333)
	at org.eclipse.jetty.util.thread.strategy.EatWhatYouKill.doProduce(EatWhatYouKill.java:310)
	at org.eclipse.jetty.util.thread.strategy.EatWhatYouKill.tryProduce(EatWhatYouKill.java:168)
	at org.eclipse.jetty.util.thread.strategy.EatWhatYouKill.run(EatWhatYouKill.java:126)
	at org.eclipse.jetty.util.thread.ReservedThreadExecutor$ReservedThread.run(ReservedThreadExecutor.java:366)
	at org.eclipse.jetty.util.thread.QueuedThreadPool.runJob(QueuedThreadPool.java:781)
	at org.eclipse.jetty.util.thread.QueuedThreadPool$Runner.run(QueuedThreadPool.java:917)
	at java.lang.Thread.run(Thread.java:748)

2019-11-27 22:14:42.144 INFO  (qtp1850180796-14) [   x:sportPerson2] o.a.s.c.S.Request [sportPerson2]  webapp=/solr path=/select params={q=content:"Federer"&sort=title&_=1574892848898} status=400 QTime=36
2019-11-27 22:14:55.278 INFO  (qtp1850180796-17) [   x:sportPerson2] o.a.s.c.S.Request [sportPerson2]  webapp=/solr path=/select params={q=content:"Federer"&sort=title+desc&_=1574892848898} hits=84 status=0 QTime=89
2019-11-27 22:15:57.496 INFO  (qtp1850180796-14) [   x:sportPerson2] o.a.s.c.S.Request [sportPerson2]  webapp=/solr path=/select params={q=content:(switzerland+hockey)&hl=on&hl.fragsize=450&hl.method=unified&hl.fl=content} hits=1453 status=0 QTime=64
2019-11-27 22:16:16.733 INFO  (qtp1850180796-23) [   x:sportPerson2] o.a.s.c.S.Request [sportPerson2]  webapp=/solr path=/select params={q=content:(ticino+hockey)&hl=on&hl.fragsize=450&hl.method=unified&hl.fl=content} hits=1110 status=0 QTime=45
2019-11-27 22:17:23.946 INFO  (qtp1850180796-19) [   x:sportPerson2] o.a.s.c.S.Request [sportPerson2]  webapp=/solr path=/select params={q=content:(ticino)&hl=on&hl.fragsize=450&hl.method=unified&hl.fl=content} hits=23 status=0 QTime=27
2019-11-27 22:17:56.245 INFO  (qtp1850180796-23) [   x:sportPerson2] o.a.s.c.S.Request [sportPerson2]  webapp=/solr path=/select params={q=content:(locarno)&hl=on&hl.fragsize=450&hl.method=unified&hl.fl=content} hits=4 status=0 QTime=34
2019-11-27 22:18:05.448 INFO  (qtp1850180796-45) [   x:sportPerson2] o.a.s.c.S.Request [sportPerson2]  webapp=/solr path=/select params={q=content:(USI)&hl=on&hl.fragsize=450&hl.method=unified&hl.fl=content} hits=3 status=0 QTime=38
2019-11-27 22:18:15.924 INFO  (qtp1850180796-23) [   x:sportPerson2] o.a.s.c.S.Request [sportPerson2]  webapp=/solr path=/select params={q=content:(kkk)&hl=on&hl.fragsize=450&hl.method=unified&hl.fl=content} hits=1 status=0 QTime=14
2019-11-27 22:18:21.192 INFO  (qtp1850180796-19) [   x:sportPerson2] o.a.s.c.S.Request [sportPerson2]  webapp=/solr path=/select params={q=content:(aaa)&hl=on&hl.fragsize=450&hl.method=unified&hl.fl=content} hits=92 status=0 QTime=71
2019-11-27 22:18:27.231 INFO  (qtp1850180796-23) [   x:sportPerson2] o.a.s.c.S.Request [sportPerson2]  webapp=/solr path=/select params={q=content:(abz)&hl=on&hl.fragsize=450&hl.method=unified&hl.fl=content} hits=0 status=0 QTime=2
2019-11-27 22:18:33.661 INFO  (qtp1850180796-19) [   x:sportPerson2] o.a.s.c.S.Request [sportPerson2]  webapp=/solr path=/select params={q=content:(ferro)&hl=on&hl.fragsize=450&hl.method=unified&hl.fl=content} hits=16 status=0 QTime=39
2019-11-27 22:18:47.701 INFO  (qtp1850180796-21) [   x:sportPerson2] o.a.s.c.S.Request [sportPerson2]  webapp=/solr path=/select params={q=content:(festival)&hl=on&hl.fragsize=450&hl.method=unified&hl.fl=content} hits=412 status=0 QTime=67
2019-11-27 22:19:16.377 INFO  (qtp1850180796-19) [   x:sportPerson2] o.a.s.c.S.Request [sportPerson2]  webapp=/solr path=/select params={q=content:(federer)&hl=on&hl.fragsize=450&hl.method=unified&hl.fl=content} hits=84 status=0 QTime=145
2019-11-27 22:19:56.053 INFO  (qtp1850180796-21) [   x:sportPerson2] o.a.s.c.S.Request [sportPerson2]  webapp=/solr path=/select params={q=content:(festival)&hl=on&hl.fragsize=450&hl.fl=content} hits=412 status=0 QTime=363
2019-11-27 22:20:12.179 INFO  (qtp1850180796-23) [   x:sportPerson2] o.a.s.c.S.Request [sportPerson2]  webapp=/solr path=/select params={q=content:(festival)&hl=on&hl.fragsize=450&hl.method=unified&hl.fl=content} hits=412 status=0 QTime=39
2019-11-27 22:20:35.846 INFO  (qtp1850180796-19) [   x:sportPerson2] o.a.s.c.S.Request [sportPerson2]  webapp=/solr path=/select params={q=content:(festival)&hl=on&hl.fragsize=450&hl.fl=content} hits=412 status=0 QTime=154
2019-11-27 22:20:45.703 INFO  (qtp1850180796-21) [   x:sportPerson2] o.a.s.c.S.Request [sportPerson2]  webapp=/solr path=/select params={q=content:(festival+film)&hl=on&hl.fragsize=450&hl.fl=content} hits=840 status=0 QTime=166
2019-11-27 22:20:57.877 INFO  (qtp1850180796-22) [   x:sportPerson2] o.a.s.c.S.Request [sportPerson2]  webapp=/solr path=/select params={q=content:(locarno+festival)&hl=on&hl.fragsize=450&hl.fl=content} hits=413 status=0 QTime=147
2019-11-28 21:41:56.259 INFO  (qtp1850180796-45) [   x:sportPerson2] o.a.s.c.S.Request [sportPerson2]  webapp=/solr path=/select params={q=content:(federer)&hl=on&hl.fragsize=450&hl.fl=content} hits=84 status=0 QTime=287
2019-11-28 21:43:17.229 INFO  (qtp1850180796-21) [   x:sportPerson2] o.a.s.c.S.Request [sportPerson2]  webapp=/solr path=/select params={q=content:(federer)&hl=on&hl.fragsize=450&hl.fl=content} hits=84 status=0 QTime=477
2019-11-28 21:43:28.788 INFO  (qtp1850180796-23) [   x:sportPerson2] o.a.s.c.S.Request [sportPerson2]  webapp=/solr path=/select params={q=content:(federer)&hl=on&hl.fragsize=450&hl.fl=content} hits=84 status=0 QTime=342
2019-11-28 21:44:26.981 INFO  (qtp1850180796-21) [   x:sportPerson2] o.a.s.c.S.Request [sportPerson2]  webapp=/solr path=/select params={q=content:(federer)&hl=on&hl.fragsize=450&hl.fl=content} hits=84 status=0 QTime=350
2019-11-28 21:44:45.190 INFO  (qtp1850180796-20) [   x:sportPerson2] o.a.s.c.S.Request [sportPerson2]  webapp=/solr path=/select params={q=content:(federer)&hl=on&hl.fragsize=450&hl.fl=content} hits=84 status=0 QTime=256
2019-11-28 21:45:05.934 INFO  (qtp1850180796-23) [   x:sportPerson2] o.a.s.c.S.Request [sportPerson2]  webapp=/solr path=/select params={q=content:(federer)&hl=on&hl.fragsize=450&hl.fl=content} hits=84 status=0 QTime=378
2019-11-28 21:46:41.930 INFO  (qtp1850180796-21) [   x:sportPerson2] o.a.s.c.S.Request [sportPerson2]  webapp=/solr path=/select params={q=content:(federer)&hl=on&hl.fragsize=450&hl.fl=content} hits=84 status=0 QTime=96
2019-11-28 21:47:08.401 INFO  (qtp1850180796-21) [   x:sportPerson2] o.a.s.c.S.Request [sportPerson2]  webapp=/solr path=/select params={q=content:(federer)&hl=on&hl.fragsize=450&hl.fl=content} hits=84 status=0 QTime=174
2019-11-28 21:47:20.046 INFO  (qtp1850180796-21) [   x:sportPerson2] o.a.s.c.S.Request [sportPerson2]  webapp=/solr path=/select params={q=content:(federer)&hl=on&hl.fragsize=450&hl.fl=content} hits=84 status=0 QTime=232
2019-11-28 21:50:48.841 INFO  (qtp1850180796-15) [   x:sportPerson2] o.a.s.c.S.Request [sportPerson2]  webapp=/solr path=/select params={q=content:(federer)&hl=on&hl.fragsize=450&hl.fl=content} hits=84 status=0 QTime=241
2019-11-28 21:56:58.650 INFO  (qtp1850180796-48) [   x:sportPerson2] o.a.s.c.S.Request [sportPerson2]  webapp=/solr path=/select params={q=content:(federer)&hl=on&hl.fragsize=450&hl.fl=content} hits=84 status=0 QTime=234
2019-11-28 21:57:26.028 INFO  (qtp1850180796-21) [   x:sportPerson2] o.a.s.c.S.Request [sportPerson2]  webapp=/solr path=/select params={q=content:(federer)&hl=on&hl.fragsize=450&hl.fl=content} hits=84 status=0 QTime=196
2019-11-28 21:58:28.603 INFO  (qtp1850180796-21) [   x:sportPerson2] o.a.s.c.S.Request [sportPerson2]  webapp=/solr path=/select params={q=content:(federer)&hl=on&hl.fragsize=450&hl.fl=content} hits=84 status=0 QTime=168
2019-11-28 22:06:36.182 INFO  (qtp1850180796-20) [   x:sportPerson2] o.a.s.c.S.Request [sportPerson2]  webapp=/solr path=/select params={q=content:(federer+campione)&hl=on&hl.fragsize=450&hl.fl=content} hits=95 status=0 QTime=300
2019-11-28 22:08:28.877 INFO  (qtp1850180796-23) [   x:sportPerson2] o.a.s.c.S.Request [sportPerson2]  webapp=/solr path=/select params={q=content:(federer+campione)&hl=on&hl.fragsize=450&hl.fl=content} hits=95 status=0 QTime=183
2019-11-28 22:13:53.169 INFO  (qtp1850180796-50) [   x:sportPerson2] o.a.s.c.S.Request [sportPerson2]  webapp=/solr path=/select params={q=content:(federer+campione)&hl=on&hl.fragsize=450&hl.fl=content} hits=95 status=0 QTime=252
2019-11-28 22:14:32.767 INFO  (qtp1850180796-23) [   x:sportPerson2] o.a.s.c.S.Request [sportPerson2]  webapp=/solr path=/select params={q=content:(campione+federer)&hl=on&hl.fragsize=450&hl.fl=content} hits=95 status=0 QTime=232
2019-11-28 22:15:19.212 INFO  (qtp1850180796-21) [   x:sportPerson2] o.a.s.c.S.Request [sportPerson2]  webapp=/solr path=/select params={q=content:(federer+campione)&hl=on&hl.fragsize=450&hl.fl=content} hits=95 status=0 QTime=202
2019-11-28 22:16:57.191 INFO  (qtp1850180796-48) [   x:sportPerson2] o.a.s.c.S.Request [sportPerson2]  webapp=/solr path=/select params={q=content:(federer+campione)&hl=on&hl.fragsize=450&hl.fl=content} hits=95 status=0 QTime=271
2019-11-28 22:17:26.035 INFO  (qtp1850180796-21) [   x:sportPerson2] o.a.s.c.S.Request [sportPerson2]  webapp=/solr path=/select params={q=content:(marquez)&hl=on&hl.fragsize=450&hl.fl=content} hits=14 status=0 QTime=147
2019-11-28 22:18:13.264 INFO  (qtp1850180796-45) [   x:sportPerson2] o.a.s.c.S.Request [sportPerson2]  webapp=/solr path=/select params={q=content:(federer+campione)&hl=on&hl.fragsize=450&hl.fl=content} hits=95 status=0 QTime=199
2019-11-28 22:20:10.470 INFO  (qtp1850180796-21) [   x:sportPerson2] o.a.s.c.S.Request [sportPerson2]  webapp=/solr path=/select params={q=content:(federer+campione)&hl=on&hl.fragsize=450&hl.fl=content} hits=95 status=0 QTime=149
2019-11-28 22:28:10.323 INFO  (qtp1850180796-50) [   x:sportPerson2] o.a.s.c.S.Request [sportPerson2]  webapp=/solr path=/select params={q=content:(federer+campione)&hl=on&hl.fragsize=450&hl.fl=content} hits=95 status=0 QTime=171
2019-11-28 22:28:59.404 INFO  (qtp1850180796-21) [   x:sportPerson2] o.a.s.c.S.Request [sportPerson2]  webapp=/solr path=/select params={q=content:(federer+campione+23+ciao)&hl=on&hl.fragsize=450&hl.fl=content} hits=2410 status=0 QTime=162
2019-11-28 22:31:06.230 INFO  (qtp1850180796-15) [   x:sportPerson2] o.a.s.c.S.Request [sportPerson2]  webapp=/solr path=/select params={q=content:(federer+campione)&hl=on&hl.fragsize=450&hl.fl=content} hits=95 status=0 QTime=147
2019-11-28 22:32:45.259 INFO  (qtp1850180796-21) [   x:sportPerson2] o.a.s.c.S.Request [sportPerson2]  webapp=/solr path=/select params={q=content:(Federer+AND+ciao)&sort=title+desc&_=1574892848898} hits=0 status=0 QTime=346
2019-11-28 22:33:13.354 INFO  (qtp1850180796-48) [   x:sportPerson2] o.a.s.c.S.Request [sportPerson2]  webapp=/solr path=/select params={q=content:(Federer+AND+roger)&sort=title+desc&_=1574892848898} hits=79 status=0 QTime=101
2019-11-28 22:33:28.580 INFO  (qtp1850180796-50) [   x:sportPerson2] o.a.s.c.S.Request [sportPerson2]  webapp=/solr path=/select params={q=content:(Federer+ciao+AND+roger)&sort=title+desc&_=1574892848898} hits=1 status=0 QTime=3
2019-11-28 22:34:42.097 INFO  (qtp1850180796-15) [   x:sportPerson2] o.a.s.c.S.Request [sportPerson2]  webapp=/solr path=/select params={q=content:(federer)&hl=on&hl.fragsize=450&hl.fl=content} hits=84 status=0 QTime=222
2019-11-28 22:35:53.801 INFO  (qtp1850180796-15) [   x:sportPerson2] o.a.s.c.S.Request [sportPerson2]  webapp=/solr path=/select params={q=content:(federer)&hl=on&hl.fragsize=450&hl.fl=content} hits=84 status=0 QTime=279
2019-11-28 22:37:21.045 INFO  (qtp1850180796-50) [   x:sportPerson2] o.a.s.c.S.Request [sportPerson2]  webapp=/solr path=/select params={q=content:(federer+campione)&hl=on&hl.fragsize=450&hl.fl=content} hits=95 status=0 QTime=165
2019-11-28 22:37:53.294 INFO  (qtp1850180796-50) [   x:sportPerson2] o.a.s.c.S.Request [sportPerson2]  webapp=/solr path=/select params={q=content:(federer+campione)&hl=on&hl.fragsize=450&hl.fl=content} hits=95 status=0 QTime=181
2019-11-28 22:40:08.948 INFO  (qtp1850180796-19) [   x:sportPerson2] o.a.s.c.S.Request [sportPerson2]  webapp=/solr path=/select params={q=content:(federer+campione)&hl=on&hl.fragsize=450&hl.fl=content} hits=95 status=0 QTime=192
2019-11-28 22:43:07.623 INFO  (qtp1850180796-50) [   x:sportPerson2] o.a.s.c.S.Request [sportPerson2]  webapp=/solr path=/select params={q=content:(federer+campione)&hl=on&hl.fragsize=450&hl.fl=content} hits=95 status=0 QTime=163
2019-11-28 22:43:56.455 INFO  (qtp1850180796-19) [   x:sportPerson2] o.a.s.c.S.Request [sportPerson2]  webapp=/solr path=/select params={q=content:(federer+campione)&hl=on&hl.fragsize=450&hl.fl=content} hits=95 status=0 QTime=190
2019-11-28 22:44:43.377 INFO  (qtp1850180796-50) [   x:sportPerson2] o.a.s.c.S.Request [sportPerson2]  webapp=/solr path=/select params={q=content:(federer+campione)&hl=on&hl.fragsize=450&hl.fl=content} hits=95 status=0 QTime=159
2019-11-28 22:45:11.083 INFO  (qtp1850180796-17) [   x:sportPerson2] o.a.s.c.S.Request [sportPerson2]  webapp=/solr path=/select params={q=content:(federer+campione)&hl=on&hl.fragsize=450&hl.fl=content} hits=95 status=0 QTime=188
2019-11-28 22:45:29.106 INFO  (qtp1850180796-19) [   x:sportPerson2] o.a.s.c.S.Request [sportPerson2]  webapp=/solr path=/select params={q=content:(federer+campione)&hl=on&hl.fragsize=450&hl.fl=content} hits=95 status=0 QTime=135
2019-11-28 22:46:28.043 INFO  (qtp1850180796-45) [   x:sportPerson2] o.a.s.c.S.Request [sportPerson2]  webapp=/solr path=/select params={q=content:(federer+campione)&hl=on&hl.fragsize=450&hl.fl=content} hits=95 status=0 QTime=155
2019-11-28 22:46:59.015 INFO  (qtp1850180796-19) [   x:sportPerson2] o.a.s.c.S.Request [sportPerson2]  webapp=/solr path=/select params={q=content:(federer+campione)&hl=on&hl.fragsize=450&hl.fl=content} hits=95 status=0 QTime=200
2019-11-28 22:49:07.856 INFO  (qtp1850180796-45) [   x:sportPerson2] o.a.s.c.S.Request [sportPerson2]  webapp=/solr path=/select params={q=content:(federer+campione)&hl=on&hl.fragsize=450&hl.fl=content} hits=95 status=0 QTime=234
2019-11-28 22:55:31.882 INFO  (qtp1850180796-48) [   x:sportPerson2] o.a.s.c.S.Request [sportPerson2]  webapp=/solr path=/select params={q=content:(federer+campione)&hl=on&hl.fragsize=450&hl.fl=content} hits=95 status=0 QTime=173
2019-11-28 22:55:35.646 INFO  (qtp1850180796-20) [   x:sportPerson2] o.a.s.c.S.Request [sportPerson2]  webapp=/solr path=/select params={q=content:(+federer+federer+campione)&hl=on&hl.fragsize=450&hl.fl=content} hits=95 status=0 QTime=244
2019-11-28 22:55:42.046 INFO  (qtp1850180796-15) [   x:sportPerson2] o.a.s.c.S.Request [sportPerson2]  webapp=/solr path=/select params={q=content:(+campione+federer+campione)&hl=on&hl.fragsize=450&hl.fl=content} hits=95 status=0 QTime=135
2019-11-28 22:55:43.097 INFO  (qtp1850180796-20) [   x:sportPerson2] o.a.s.c.S.Request [sportPerson2]  webapp=/solr path=/select params={q=content:(+federer+federer+campione)&hl=on&hl.fragsize=450&hl.fl=content} hits=95 status=0 QTime=187
2019-11-28 22:56:07.565 INFO  (qtp1850180796-15) [   x:sportPerson2] o.a.s.c.S.Request [sportPerson2]  webapp=/solr path=/select params={q=content:(rossi)&hl=on&hl.fragsize=450&hl.fl=content} hits=118 status=0 QTime=122
2019-11-28 22:58:03.940 INFO  (qtp1850180796-20) [   x:sportPerson2] o.a.s.c.S.Request [sportPerson2]  webapp=/solr path=/select params={q=content:(federer)&hl=on&hl.fragsize=450&hl.fl=content} hits=84 status=0 QTime=252
2019-11-28 22:58:35.801 INFO  (qtp1850180796-15) [   x:sportPerson2] o.a.s.c.S.Request [sportPerson2]  webapp=/solr path=/select params={q=content:(Roger+Federer)&hl=on&hl.fragsize=450&hl.fl=content} hits=562 status=0 QTime=145
2019-11-28 22:58:48.304 INFO  (qtp1850180796-20) [   x:sportPerson2] o.a.s.c.S.Request [sportPerson2]  webapp=/solr path=/select params={q=content:(Roger+Federer+rajit)&hl=on&hl.fragsize=450&hl.fl=content} hits=562 status=0 QTime=110
2019-11-28 22:58:50.219 INFO  (qtp1850180796-19) [   x:sportPerson2] o.a.s.c.S.Request [sportPerson2]  webapp=/solr path=/select params={q=content:(Roger+Federer+rajit)&hl=on&hl.fragsize=450&hl.fl=content} hits=562 status=0 QTime=115
2019-11-28 22:58:51.122 INFO  (qtp1850180796-20) [   x:sportPerson2] o.a.s.c.S.Request [sportPerson2]  webapp=/solr path=/select params={q=content:(Roger+Federer+rajit)&hl=on&hl.fragsize=450&hl.fl=content} hits=562 status=0 QTime=138
2019-11-28 22:58:51.333 INFO  (qtp1850180796-19) [   x:sportPerson2] o.a.s.c.S.Request [sportPerson2]  webapp=/solr path=/select params={q=content:(Roger+Federer+rajit)&hl=on&hl.fragsize=450&hl.fl=content} hits=562 status=0 QTime=176
2019-11-28 22:58:51.448 INFO  (qtp1850180796-15) [   x:sportPerson2] o.a.s.c.S.Request [sportPerson2]  webapp=/solr path=/select params={q=content:(Roger+Federer+rajit)&hl=on&hl.fragsize=450&hl.fl=content} hits=562 status=0 QTime=105
2019-11-28 22:58:51.691 INFO  (qtp1850180796-21) [   x:sportPerson2] o.a.s.c.S.Request [sportPerson2]  webapp=/solr path=/select params={q=content:(Roger+Federer+rajit)&hl=on&hl.fragsize=450&hl.fl=content} hits=562 status=0 QTime=169
2019-11-28 22:58:59.586 INFO  (qtp1850180796-20) [   x:sportPerson2] o.a.s.c.S.Request [sportPerson2]  webapp=/solr path=/select params={q=content:(Roger++rajit)&hl=on&hl.fragsize=450&hl.fl=content} hits=557 status=0 QTime=112
2019-11-28 22:59:33.406 INFO  (qtp1850180796-21) [   x:sportPerson2] o.a.s.c.S.Request [sportPerson2]  webapp=/solr path=/select params={q=content:(hsegf)&hl=on&hl.fragsize=450&hl.fl=content} hits=0 status=0 QTime=21
2019-11-28 22:59:36.588 INFO  (qtp1850180796-20) [   x:sportPerson2] o.a.s.c.S.Request [sportPerson2]  webapp=/solr path=/select params={q=content:(hsegf+ddfef)&hl=on&hl.fragsize=450&hl.fl=content} hits=0 status=0 QTime=2
2019-11-28 22:59:45.502 INFO  (qtp1850180796-50) [   x:sportPerson2] o.a.s.c.S.Request [sportPerson2]  webapp=/solr path=/select params={q=content:(federer+rajit)&hl=on&hl.fragsize=450&hl.fl=content} hits=84 status=0 QTime=92
2019-11-28 22:59:47.249 INFO  (qtp1850180796-20) [   x:sportPerson2] o.a.s.c.S.Request [sportPerson2]  webapp=/solr path=/select params={q=content:(+rajit+federer+rajit)&hl=on&hl.fragsize=450&hl.fl=content} hits=84 status=0 QTime=114
2019-11-28 22:59:49.066 INFO  (qtp1850180796-50) [   x:sportPerson2] o.a.s.c.S.Request [sportPerson2]  webapp=/solr path=/select params={q=content:(+rajit+federer+rajit)&hl=on&hl.fragsize=450&hl.fl=content} hits=84 status=0 QTime=101
2019-11-28 22:59:50.035 INFO  (qtp1850180796-20) [   x:sportPerson2] o.a.s.c.S.Request [sportPerson2]  webapp=/solr path=/select params={q=content:(+rajit+federer+rajit)&hl=on&hl.fragsize=450&hl.fl=content} hits=84 status=0 QTime=111
2019-11-28 22:59:51.193 INFO  (qtp1850180796-50) [   x:sportPerson2] o.a.s.c.S.Request [sportPerson2]  webapp=/solr path=/select params={q=content:(+rajit+federer+rajit)&hl=on&hl.fragsize=450&hl.fl=content} hits=84 status=0 QTime=102
2019-11-28 22:59:52.544 INFO  (qtp1850180796-21) [   x:sportPerson2] o.a.s.c.S.Request [sportPerson2]  webapp=/solr path=/select params={q=content:(+rajit+federer+rajit)&hl=on&hl.fragsize=450&hl.fl=content} hits=84 status=0 QTime=100
2019-11-28 22:59:53.680 INFO  (qtp1850180796-20) [   x:sportPerson2] o.a.s.c.S.Request [sportPerson2]  webapp=/solr path=/select params={q=content:(+rajit+federer+rajit)&hl=on&hl.fragsize=450&hl.fl=content} hits=84 status=0 QTime=117
2019-11-28 22:59:54.902 INFO  (qtp1850180796-21) [   x:sportPerson2] o.a.s.c.S.Request [sportPerson2]  webapp=/solr path=/select params={q=content:(+rajit+federer+rajit)&hl=on&hl.fragsize=450&hl.fl=content} hits=84 status=0 QTime=107
2019-11-28 22:59:56.169 INFO  (qtp1850180796-50) [   x:sportPerson2] o.a.s.c.S.Request [sportPerson2]  webapp=/solr path=/select params={q=content:(+rajit+federer+rajit)&hl=on&hl.fragsize=450&hl.fl=content} hits=84 status=0 QTime=103
2019-11-28 22:59:58.708 INFO  (qtp1850180796-21) [   x:sportPerson2] o.a.s.c.S.Request [sportPerson2]  webapp=/solr path=/select params={q=content:(+rajit+federer+rajit)&hl=on&hl.fragsize=450&hl.fl=content} hits=84 status=0 QTime=101
2019-11-28 22:59:59.285 INFO  (qtp1850180796-20) [   x:sportPerson2] o.a.s.c.S.Request [sportPerson2]  webapp=/solr path=/select params={q=content:(+rajit+federer+rajit)&hl=on&hl.fragsize=450&hl.fl=content} hits=84 status=0 QTime=110
2019-11-28 22:59:59.508 INFO  (qtp1850180796-50) [   x:sportPerson2] o.a.s.c.S.Request [sportPerson2]  webapp=/solr path=/select params={q=content:(+rajit+federer+rajit)&hl=on&hl.fragsize=450&hl.fl=content} hits=84 status=0 QTime=157
2019-11-28 22:59:59.630 INFO  (qtp1850180796-21) [   x:sportPerson2] o.a.s.c.S.Request [sportPerson2]  webapp=/solr path=/select params={q=content:(+rajit+federer+rajit)&hl=on&hl.fragsize=450&hl.fl=content} hits=84 status=0 QTime=107
2019-11-28 23:00:01.029 INFO  (qtp1850180796-50) [   x:sportPerson2] o.a.s.c.S.Request [sportPerson2]  webapp=/solr path=/select params={q=content:(+rajit+federer+rajit)&hl=on&hl.fragsize=450&hl.fl=content} hits=84 status=0 QTime=204
2019-11-28 23:00:01.234 INFO  (qtp1850180796-15) [   x:sportPerson2] o.a.s.c.S.Request [sportPerson2]  webapp=/solr path=/select params={q=content:(+rajit+federer+rajit)&hl=on&hl.fragsize=450&hl.fl=content} hits=84 status=0 QTime=159
2019-11-28 23:00:01.578 INFO  (qtp1850180796-20) [   x:sportPerson2] o.a.s.c.S.Request [sportPerson2]  webapp=/solr path=/select params={q=content:(+rajit+federer+rajit)&hl=on&hl.fragsize=450&hl.fl=content} hits=84 status=0 QTime=142
2019-11-28 23:00:03.355 INFO  (qtp1850180796-21) [   x:sportPerson2] o.a.s.c.S.Request [sportPerson2]  webapp=/solr path=/select params={q=content:(+rajit+federer+rajit)&hl=on&hl.fragsize=450&hl.fl=content} hits=84 status=0 QTime=107
2019-11-28 23:00:03.735 INFO  (qtp1850180796-50) [   x:sportPerson2] o.a.s.c.S.Request [sportPerson2]  webapp=/solr path=/select params={q=content:(+rajit+federer+rajit)&hl=on&hl.fragsize=450&hl.fl=content} hits=84 status=0 QTime=80
2019-11-28 23:00:04.091 INFO  (qtp1850180796-20) [   x:sportPerson2] o.a.s.c.S.Request [sportPerson2]  webapp=/solr path=/select params={q=content:(+rajit+federer+rajit)&hl=on&hl.fragsize=450&hl.fl=content} hits=84 status=0 QTime=202
2019-11-28 23:00:27.006 INFO  (qtp1850180796-50) [   x:sportPerson2] o.a.s.c.S.Request [sportPerson2]  webapp=/solr path=/select params={q=content:(+rajit+federer+rajit)&hl=on&hl.fragsize=450&hl.fl=content} hits=84 status=0 QTime=170
2019-11-28 23:00:29.554 INFO  (qtp1850180796-20) [   x:sportPerson2] o.a.s.c.S.Request [sportPerson2]  webapp=/solr path=/select params={q=content:(+rajit+federer+rajit)&hl=on&hl.fragsize=450&hl.fl=content} hits=84 status=0 QTime=176
2019-11-28 23:00:46.160 INFO  (qtp1850180796-50) [   x:sportPerson2] o.a.s.c.S.Request [sportPerson2]  webapp=/solr path=/select params={q=content:(+campione+federer+campione)&hl=on&hl.fragsize=450&hl.fl=content} hits=95 status=0 QTime=115
2019-11-28 23:00:55.475 INFO  (qtp1850180796-15) [   x:sportPerson2] o.a.s.c.S.Request [sportPerson2]  webapp=/solr path=/select params={q=content:(federer+rajit)&hl=on&hl.fragsize=450&hl.fl=content} hits=84 status=0 QTime=86
2019-11-28 23:00:57.657 INFO  (qtp1850180796-20) [   x:sportPerson2] o.a.s.c.S.Request [sportPerson2]  webapp=/solr path=/select params={q=content:(+rajit+federer+rajit)&hl=on&hl.fragsize=450&hl.fl=content} hits=84 status=0 QTime=121
2019-11-28 23:00:59.112 INFO  (qtp1850180796-19) [   x:sportPerson2] o.a.s.c.S.Request [sportPerson2]  webapp=/solr path=/select params={q=content:(+rajit+federer+rajit)&hl=on&hl.fragsize=450&hl.fl=content} hits=84 status=0 QTime=101
2019-11-28 23:00:59.475 INFO  (qtp1850180796-20) [   x:sportPerson2] o.a.s.c.S.Request [sportPerson2]  webapp=/solr path=/select params={q=content:(+rajit+federer+rajit)&hl=on&hl.fragsize=450&hl.fl=content} hits=84 status=0 QTime=94
2019-11-28 23:00:59.988 INFO  (qtp1850180796-15) [   x:sportPerson2] o.a.s.c.S.Request [sportPerson2]  webapp=/solr path=/select params={q=content:(+rajit+federer+rajit)&hl=on&hl.fragsize=450&hl.fl=content} hits=84 status=0 QTime=351
2019-11-28 23:01:00.159 INFO  (qtp1850180796-20) [   x:sportPerson2] o.a.s.c.S.Request [sportPerson2]  webapp=/solr path=/select params={q=content:(+rajit+federer+rajit)&hl=on&hl.fragsize=450&hl.fl=content} hits=84 status=0 QTime=157
2019-11-28 23:01:03.385 INFO  (qtp1850180796-45) [   x:sportPerson2] o.a.s.c.S.Request [sportPerson2]  webapp=/solr path=/select params={q=content:(+rajit+federer+rajit)&hl=on&hl.fragsize=450&hl.fl=content} hits=84 status=0 QTime=122
2019-11-28 23:01:03.585 INFO  (qtp1850180796-20) [   x:sportPerson2] o.a.s.c.S.Request [sportPerson2]  webapp=/solr path=/select params={q=content:(+rajit+federer+rajit)&hl=on&hl.fragsize=450&hl.fl=content} hits=84 status=0 QTime=158
2019-11-28 23:01:04.055 INFO  (qtp1850180796-19) [   x:sportPerson2] o.a.s.c.S.Request [sportPerson2]  webapp=/solr path=/select params={q=content:(+rajit+federer+rajit)&hl=on&hl.fragsize=450&hl.fl=content} hits=84 status=0 QTime=178
2019-11-28 23:01:04.289 INFO  (qtp1850180796-20) [   x:sportPerson2] o.a.s.c.S.Request [sportPerson2]  webapp=/solr path=/select params={q=content:(+rajit+federer+rajit)&hl=on&hl.fragsize=450&hl.fl=content} hits=84 status=0 QTime=223
2019-11-28 23:01:04.460 INFO  (qtp1850180796-15) [   x:sportPerson2] o.a.s.c.S.Request [sportPerson2]  webapp=/solr path=/select params={q=content:(+rajit+federer+rajit)&hl=on&hl.fragsize=450&hl.fl=content} hits=84 status=0 QTime=161
2019-11-28 23:01:06.124 INFO  (qtp1850180796-20) [   x:sportPerson2] o.a.s.c.S.Request [sportPerson2]  webapp=/solr path=/select params={q=content:(+rajit+federer+rajit)&hl=on&hl.fragsize=450&hl.fl=content} hits=84 status=0 QTime=103
2019-11-28 23:01:07.764 INFO  (qtp1850180796-19) [   x:sportPerson2] o.a.s.c.S.Request [sportPerson2]  webapp=/solr path=/select params={q=content:(+rajit+federer+rajit)&hl=on&hl.fragsize=450&hl.fl=content} hits=84 status=0 QTime=125
2019-11-28 23:01:26.526 INFO  (qtp1850180796-15) [   x:sportPerson2] o.a.s.c.S.Request [sportPerson2]  webapp=/solr path=/select params={q=content:(federer+campione)&hl=on&hl.fragsize=450&hl.fl=content} hits=95 status=0 QTime=79
2019-11-28 23:01:33.248 INFO  (qtp1850180796-19) [   x:sportPerson2] o.a.s.c.S.Request [sportPerson2]  webapp=/solr path=/select params={q=content:(federer+rajit)&hl=on&hl.fragsize=450&hl.fl=content} hits=84 status=0 QTime=167
2019-11-28 23:01:34.663 INFO  (qtp1850180796-15) [   x:sportPerson2] o.a.s.c.S.Request [sportPerson2]  webapp=/solr path=/select params={q=content:(+rajit)&hl=on&hl.fragsize=450&hl.fl=content} hits=0 status=0 QTime=1
2019-11-28 23:01:41.401 INFO  (qtp1850180796-19) [   x:sportPerson2] o.a.s.c.S.Request [sportPerson2]  webapp=/solr path=/select params={q=content:(federer+aaaa)&hl=on&hl.fragsize=450&hl.fl=content} hits=85 status=0 QTime=90
2019-11-28 23:01:45.318 INFO  (qtp1850180796-20) [   x:sportPerson2] o.a.s.c.S.Request [sportPerson2]  webapp=/solr path=/select params={q=content:(+federer)&hl=on&hl.fragsize=450&hl.fl=content} hits=84 status=0 QTime=115
2019-11-29 11:00:41.278 INFO  (qtp1850180796-23) [   x:sportPerson2] o.a.s.c.S.Request [sportPerson2]  webapp=/solr path=/select params={q=content:(italian+motorcyclist\%3D)&hl=on&hl.fragsize=450&hl.fl=content} hits=640 status=0 QTime=128
2019-11-29 11:00:52.506 INFO  (qtp1850180796-15) [   x:sportPerson2] o.a.s.c.S.Request [sportPerson2]  webapp=/solr path=/select params={q=content:(italian+motorcyclist'\\';)&hl=on&hl.fragsize=450&hl.fl=content} hits=640 status=0 QTime=72
2019-11-29 11:00:53.405 INFO  (qtp1850180796-17) [   x:sportPerson2] o.a.s.c.S.Request [sportPerson2]  webapp=/solr path=/select params={q=content:(italian+motorcyclist'\\';)&hl=on&hl.fragsize=450&hl.fl=content} hits=640 status=0 QTime=73
2019-11-29 11:00:54.087 INFO  (qtp1850180796-15) [   x:sportPerson2] o.a.s.c.S.Request [sportPerson2]  webapp=/solr path=/select params={q=content:(italian+motorcyclist'\\';)&hl=on&hl.fragsize=450&hl.fl=content} hits=640 status=0 QTime=73
2019-11-29 11:00:56.904 INFO  (qtp1850180796-17) [   x:sportPerson2] o.a.s.c.S.Request [sportPerson2]  webapp=/solr path=/select params={q=content:(italian+motorcyclist'\\';)&hl=on&hl.fragsize=450&hl.fl=content} hits=640 status=0 QTime=87
2019-11-29 11:00:57.720 INFO  (qtp1850180796-15) [   x:sportPerson2] o.a.s.c.S.Request [sportPerson2]  webapp=/solr path=/select params={q=content:(italian+motorcyclist'\\';)&hl=on&hl.fragsize=450&hl.fl=content} hits=640 status=0 QTime=85
2019-11-29 11:00:59.870 INFO  (qtp1850180796-17) [   x:sportPerson2] o.a.s.c.S.Request [sportPerson2]  webapp=/solr path=/select params={q=content:(italian+motorcyclist'\\';)&hl=on&hl.fragsize=450&hl.fl=content} hits=640 status=0 QTime=84
2019-11-29 11:01:00.417 INFO  (qtp1850180796-15) [   x:sportPerson2] o.a.s.c.S.Request [sportPerson2]  webapp=/solr path=/select params={q=content:(italian+motorcyclist'\\';)&hl=on&hl.fragsize=450&hl.fl=content} hits=640 status=0 QTime=142
2019-11-29 11:01:09.367 INFO  (qtp1850180796-17) [   x:sportPerson2] o.a.s.c.S.Request [sportPerson2]  webapp=/solr path=/select params={q=content:(gdfsgsdfgdgsdf)&hl=on&hl.fragsize=450&hl.fl=content} hits=0 status=0 QTime=35
2019-11-29 11:01:21.639 INFO  (qtp1850180796-15) [   x:sportPerson2] o.a.s.c.S.Request [sportPerson2]  webapp=/solr path=/select params={q=content:(moto+gp)&hl=on&hl.fragsize=450&hl.fl=content} hits=436 status=0 QTime=184
2019-11-29 11:01:44.611 INFO  (qtp1850180796-19) [   x:sportPerson2] o.a.s.c.S.Request [sportPerson2]  webapp=/solr path=/select params={q=content:(+gp)&hl=on&hl.fragsize=450&hl.fl=content} hits=414 status=0 QTime=164
2019-11-29 11:01:49.063 INFO  (qtp1850180796-15) [   x:sportPerson2] o.a.s.c.S.Request [sportPerson2]  webapp=/solr path=/select params={q=content:(+moto)&hl=on&hl.fragsize=450&hl.fl=content} hits=38 status=0 QTime=79
2019-11-29 11:01:50.161 INFO  (qtp1850180796-17) [   x:sportPerson2] o.a.s.c.S.Request [sportPerson2]  webapp=/solr path=/select params={q=content:(+gp)&hl=on&hl.fragsize=450&hl.fl=content} hits=414 status=0 QTime=151
2019-11-29 11:01:50.940 INFO  (qtp1850180796-19) [   x:sportPerson2] o.a.s.c.S.Request [sportPerson2]  webapp=/solr path=/select params={q=content:(+moto)&hl=on&hl.fragsize=450&hl.fl=content} hits=38 status=0 QTime=55
2019-11-29 11:04:33.569 INFO  (qtp1850180796-17) [   x:sportPerson2] o.a.s.c.S.Request [sportPerson2]  webapp=/solr path=/select params={q=content:(moto+gp)&hl=on&hl.fragsize=450&hl.fl=content} hits=436 status=0 QTime=134
2019-11-29 11:06:50.799 INFO  (qtp1850180796-15) [   x:sportPerson2] o.a.s.c.S.Request [sportPerson2]  webapp=/solr path=/select params={q=content:(+gp)&hl=on&hl.fragsize=450&hl.fl=content} hits=414 status=0 QTime=133
2019-11-29 11:11:00.276 INFO  (qtp1850180796-21) [   x:sportPerson2] o.a.s.c.S.Request [sportPerson2]  webapp=/solr path=/select params={q=content:(moto+gp)&hl=on&hl.fragsize=450&hl.fl=content} hits=436 status=0 QTime=84
2019-11-29 11:11:03.777 INFO  (qtp1850180796-15) [   x:sportPerson2] o.a.s.c.S.Request [sportPerson2]  webapp=/solr path=/select params={q=content:(+gp+moto+gp)&hl=on&hl.fragsize=450&hl.fl=content} hits=436 status=0 QTime=123
2019-11-29 11:12:30.755 INFO  (qtp1850180796-19) [   x:sportPerson2] o.a.s.c.S.Request [sportPerson2]  webapp=/solr path=/select params={q=content:(moto+gp)&hl=on&hl.fragsize=450&hl.fl=content} hits=436 status=0 QTime=96
2019-11-29 11:12:41.881 INFO  (qtp1850180796-15) [   x:sportPerson2] o.a.s.c.S.Request [sportPerson2]  webapp=/solr path=/select params={q=content:(+(gp)+moto+gp)&hl=on&hl.fragsize=450&hl.fl=content} hits=436 status=0 QTime=94
2019-11-29 11:13:37.548 INFO  (qtp1850180796-23) [   x:sportPerson2] o.a.s.c.S.Request [sportPerson2]  webapp=/solr path=/select params={q=content:(moto+gp)&hl=on&hl.fragsize=450&hl.fl=content} hits=436 status=0 QTime=78
2019-11-29 11:14:21.173 INFO  (qtp1850180796-15) [   x:sportPerson2] o.a.s.c.S.Request [sportPerson2]  webapp=/solr path=/select params={q=content:(+(gp)+moto+gp)&hl=on&hl.fragsize=450&hl.fl=content} hits=436 status=0 QTime=124
2019-11-29 11:14:33.567 INFO  (qtp1850180796-23) [   x:sportPerson2] o.a.s.c.S.Request [sportPerson2]  webapp=/solr path=/select params={q=content:(+(jhshksf,jdsfjdfhsjfhsjfh)+moto+gp+jhshksf+jdsfjdfhsjfhsjfh)&hl=on&hl.fragsize=450&hl.fl=content} hits=436 status=0 QTime=112
2019-11-29 11:14:49.417 INFO  (qtp1850180796-15) [   x:sportPerson2] o.a.s.c.S.Request [sportPerson2]  webapp=/solr path=/select params={q=content:(+(jhshksf,jdsfjdfhsjfhsjfh,jsjdajsbd)+moto+gp+jhshksf+jdsfjdfhsjfhsjfh+jsjdajsbd)&hl=on&hl.fragsize=450&hl.fl=content} hits=436 status=0 QTime=99
2019-11-29 11:15:31.648 INFO  (qtp1850180796-17) [   x:sportPerson2] o.a.s.c.S.Request [sportPerson2]  webapp=/solr path=/select params={q=content:(moto+gp)&hl=on&hl.fragsize=450&hl.fl=content} hits=436 status=0 QTime=72
2019-11-29 11:15:43.645 INFO  (qtp1850180796-15) [   x:sportPerson2] o.a.s.c.S.Request [sportPerson2]  webapp=/solr path=/select params={q=content:(+(gp,rossi)+moto+gp+rossi)&hl=on&hl.fragsize=450&hl.fl=content} hits=511 status=0 QTime=153
2019-11-29 16:20:45.345 INFO  (qtp1850180796-23) [   x:sportPerson2] o.a.s.c.S.Request [sportPerson2]  webapp=/solr path=/select params={q=content:(a)&hl=on&hl.fragsize=450&hl.fl=content} hits=3678 status=0 QTime=248
2019-11-29 16:21:02.683 INFO  (qtp1850180796-15) [   x:sportPerson2] o.a.s.c.S.Request [sportPerson2]  webapp=/solr path=/select params={q=content:(for+a+better+world)&hl=on&hl.fragsize=450&hl.fl=content} hits=3678 status=0 QTime=147
2019-11-29 18:25:05.775 INFO  (qtp1850180796-19) [   x:sportPerson2] o.a.s.c.S.Request [sportPerson2]  webapp=/solr path=/select params={q=content:(lisa)&hl=on&hl.fragsize=450&hl.fl=content} hits=222 status=0 QTime=240
2019-11-29 18:25:13.512 INFO  (qtp1850180796-48) [   x:sportPerson2] o.a.s.c.S.Request [sportPerson2]  webapp=/solr path=/select params={q=content:(lisa+sara)&hl=on&hl.fragsize=450&hl.fl=content} hits=320 status=0 QTime=258
2019-11-29 18:25:27.270 INFO  (qtp1850180796-45) [   x:sportPerson2] o.a.s.c.S.Request [sportPerson2]  webapp=/solr path=/select params={q=content:(rossi+nepal+;)&hl=on&hl.fragsize=450&hl.fl=content} hits=269 status=0 QTime=141
2019-11-29 18:25:33.927 INFO  (qtp1850180796-17) [   x:sportPerson2] o.a.s.c.S.Request [sportPerson2]  webapp=/solr path=/select params={q=content:(rossi+nepal+)&hl=on&hl.fragsize=450&hl.fl=content} hits=269 status=0 QTime=106
2019-11-29 18:25:44.893 INFO  (qtp1850180796-45) [   x:sportPerson2] o.a.s.c.S.Request [sportPerson2]  webapp=/solr path=/select params={q=content:(+(nepal)+rossi+nepal+)&hl=on&hl.fragsize=450&hl.fl=content} hits=269 status=0 QTime=118
2019-11-29 18:25:54.818 INFO  (qtp1850180796-17) [   x:sportPerson2] o.a.s.c.S.Request [sportPerson2]  webapp=/solr path=/select params={q=content:(+(rossi)+rossi+nepal+)&hl=on&hl.fragsize=450&hl.fl=content} hits=269 status=0 QTime=122
2019-11-29 18:26:15.819 INFO  (qtp1850180796-45) [   x:sportPerson2] o.a.s.c.S.Request [sportPerson2]  webapp=/solr path=/select params={q=content:(michelle+dellavia)&hl=on&hl.fragsize=450&hl.fl=content} hits=166 status=0 QTime=158
2019-11-29 18:26:18.920 INFO  (qtp1850180796-17) [   x:sportPerson2] o.a.s.c.S.Request [sportPerson2]  webapp=/solr path=/select params={q=content:(+(dellavia)+michelle+dellavia)&hl=on&hl.fragsize=450&hl.fl=content} hits=166 status=0 QTime=147
2019-11-29 18:26:20.281 INFO  (qtp1850180796-45) [   x:sportPerson2] o.a.s.c.S.Request [sportPerson2]  webapp=/solr path=/select params={q=content:(+(dellavia)+michelle+dellavia)&hl=on&hl.fragsize=450&hl.fl=content} hits=166 status=0 QTime=90
2019-11-29 18:26:21.810 INFO  (qtp1850180796-17) [   x:sportPerson2] o.a.s.c.S.Request [sportPerson2]  webapp=/solr path=/select params={q=content:(+(dellavia)+michelle+dellavia)&hl=on&hl.fragsize=450&hl.fl=content} hits=166 status=0 QTime=54
2019-11-29 18:26:23.507 INFO  (qtp1850180796-48) [   x:sportPerson2] o.a.s.c.S.Request [sportPerson2]  webapp=/solr path=/select params={q=content:(+(dellavia)+michelle+dellavia)&hl=on&hl.fragsize=450&hl.fl=content} hits=166 status=0 QTime=77
2019-11-29 18:26:24.706 INFO  (qtp1850180796-23) [   x:sportPerson2] o.a.s.c.S.Request [sportPerson2]  webapp=/solr path=/select params={q=content:(+(dellavia)+michelle+dellavia)&hl=on&hl.fragsize=450&hl.fl=content} hits=166 status=0 QTime=70
2019-11-29 18:26:26.111 INFO  (qtp1850180796-48) [   x:sportPerson2] o.a.s.c.S.Request [sportPerson2]  webapp=/solr path=/select params={q=content:(+(dellavia)+michelle+dellavia)&hl=on&hl.fragsize=450&hl.fl=content} hits=166 status=0 QTime=54
2019-11-29 18:26:27.517 INFO  (qtp1850180796-17) [   x:sportPerson2] o.a.s.c.S.Request [sportPerson2]  webapp=/solr path=/select params={q=content:(+(dellavia)+michelle+dellavia)&hl=on&hl.fragsize=450&hl.fl=content} hits=166 status=0 QTime=56
2019-11-29 18:26:28.681 INFO  (qtp1850180796-48) [   x:sportPerson2] o.a.s.c.S.Request [sportPerson2]  webapp=/solr path=/select params={q=content:(+(dellavia)+michelle+dellavia)&hl=on&hl.fragsize=450&hl.fl=content} hits=166 status=0 QTime=52
2019-11-29 18:26:31.216 INFO  (qtp1850180796-17) [   x:sportPerson2] o.a.s.c.S.Request [sportPerson2]  webapp=/solr path=/select params={q=content:(+(dellavia)+michelle+dellavia)&hl=on&hl.fragsize=450&hl.fl=content} hits=166 status=0 QTime=54
2019-11-29 18:26:48.340 INFO  (qtp1850180796-48) [   x:sportPerson2] o.a.s.c.S.Request [sportPerson2]  webapp=/solr path=/select params={q=content:(federer+campione)&hl=on&hl.fragsize=450&hl.fl=content} hits=95 status=0 QTime=90
2019-11-29 18:26:55.386 INFO  (qtp1850180796-17) [   x:sportPerson2] o.a.s.c.S.Request [sportPerson2]  webapp=/solr path=/select params={q=content:(+(federer)+federer+campione)&hl=on&hl.fragsize=450&hl.fl=content} hits=95 status=0 QTime=172
2019-11-29 19:38:32.588 INFO  (Thread-1) [   ] o.e.j.s.AbstractConnector Stopped ServerConnector@4b2bac3f{HTTP/1.1,[http/1.1, h2c]}{0.0.0.0:8983}
2019-11-29 19:38:32.589 INFO  (Thread-1) [   ] o.e.j.s.session node0 Stopped scavenging
2019-11-29 19:38:32.608 INFO  (Thread-1) [   ] o.a.s.c.CoreContainer Shutting down CoreContainer instance=208684473
2019-11-29 19:38:32.612 INFO  (coreCloseExecutor-20-thread-2) [   x:sportPerson] o.a.s.c.SolrCore [sportPerson]  CLOSING SolrCore org.apache.solr.core.SolrCore@44513990
2019-11-29 19:38:32.612 INFO  (coreCloseExecutor-20-thread-1) [   x:sportPerson2] o.a.s.c.SolrCore [sportPerson2]  CLOSING SolrCore org.apache.solr.core.SolrCore@6ddaf96d
2019-11-29 19:38:32.613 INFO  (coreCloseExecutor-20-thread-1) [   x:sportPerson2] o.a.s.m.SolrMetricManager Closing metric reporters for registry=solr.core.sportPerson2, tag=SolrCore@6ddaf96d
2019-11-29 19:38:32.614 INFO  (coreCloseExecutor-20-thread-1) [   x:sportPerson2] o.a.s.m.r.SolrJmxReporter Closing reporter [org.apache.solr.metrics.reporters.SolrJmxReporter@47feb342: rootName = null, domain = solr.core.sportPerson2, service url = null, agent id = null] for registry solr.core.sportPerson2 / com.codahale.metrics.MetricRegistry@b103e2f
2019-11-29 19:38:32.648 INFO  (coreCloseExecutor-20-thread-2) [   x:sportPerson] o.a.s.m.SolrMetricManager Closing metric reporters for registry=solr.core.sportPerson, tag=SolrCore@44513990
2019-11-29 19:38:32.648 INFO  (coreCloseExecutor-20-thread-2) [   x:sportPerson] o.a.s.m.r.SolrJmxReporter Closing reporter [org.apache.solr.metrics.reporters.SolrJmxReporter@4ed0850: rootName = null, domain = solr.core.sportPerson, service url = null, agent id = null] for registry solr.core.sportPerson / com.codahale.metrics.MetricRegistry@a5aa8ea
2019-11-29 19:38:32.704 INFO  (Thread-1) [   ] o.a.s.m.SolrMetricManager Closing metric reporters for registry=solr.node, tag=null
2019-11-29 19:38:32.704 INFO  (Thread-1) [   ] o.a.s.m.r.SolrJmxReporter Closing reporter [org.apache.solr.metrics.reporters.SolrJmxReporter@ab7a938: rootName = null, domain = solr.node, service url = null, agent id = null] for registry solr.node / com.codahale.metrics.MetricRegistry@43702883
2019-11-29 19:38:32.706 INFO  (Thread-1) [   ] o.a.s.m.SolrMetricManager Closing metric reporters for registry=solr.jvm, tag=null
2019-11-29 19:38:32.707 INFO  (Thread-1) [   ] o.a.s.m.r.SolrJmxReporter Closing reporter [org.apache.solr.metrics.reporters.SolrJmxReporter@5dbe30be: rootName = null, domain = solr.jvm, service url = null, agent id = null] for registry solr.jvm / com.codahale.metrics.MetricRegistry@43919782
2019-11-29 19:38:32.708 INFO  (Thread-1) [   ] o.a.s.m.SolrMetricManager Closing metric reporters for registry=solr.jetty, tag=null
2019-11-29 19:38:32.708 INFO  (Thread-1) [   ] o.a.s.m.r.SolrJmxReporter Closing reporter [org.apache.solr.metrics.reporters.SolrJmxReporter@4fe89c24: rootName = null, domain = solr.jetty, service url = null, agent id = null] for registry solr.jetty / com.codahale.metrics.MetricRegistry@74d6e2ce
2019-11-29 19:38:32.729 INFO  (Thread-1) [   ] o.e.j.s.h.ContextHandler Stopped o.e.j.w.WebAppContext@693fe6c9{/solr,null,UNAVAILABLE}{/Users/omini/IRP/solr-8.3.0/server/solr-webapp/webapp}
