2019-11-25 10:41:31.719 INFO  (main) [   ] o.e.j.u.log Logging initialized @2680ms to org.eclipse.jetty.util.log.Slf4jLog
2019-11-25 10:41:31.918 WARN  (main) [   ] o.e.j.x.XmlConfiguration Deprecated method public void org.eclipse.jetty.rewrite.handler.RedirectRegexRule.setReplacement(java.lang.String) in file:///Users/omini/IRP/solr-8.3.0/server/etc/jetty.xml
2019-11-25 10:41:32.037 WARN  (main) [   ] o.e.j.s.AbstractConnector Ignoring deprecated socket close linger time
2019-11-25 10:41:32.037 WARN  (main) [   ] o.e.j.x.XmlConfiguration Deprecated method public void org.eclipse.jetty.server.ServerConnector.setSoLingerTime(int) in file:///Users/omini/IRP/solr-8.3.0/server/etc/jetty-http.xml
2019-11-25 10:41:32.053 INFO  (main) [   ] o.e.j.s.Server jetty-9.4.19.v20190610; built: 2019-06-10T16:30:51.723Z; git: afcf563148970e98786327af5e07c261fda175d3; jvm 1.8.0_222-b10
2019-11-25 10:41:32.099 INFO  (main) [   ] o.e.j.d.p.ScanningAppProvider Deployment monitor [file:///Users/omini/IRP/solr-8.3.0/server/contexts/] at interval 0
2019-11-25 10:41:32.730 INFO  (main) [   ] o.e.j.w.StandardDescriptorProcessor NO JSP Support for /solr, did not find org.apache.jasper.servlet.JspServlet
2019-11-25 10:41:32.746 INFO  (main) [   ] o.e.j.s.session DefaultSessionIdManager workerName=node0
2019-11-25 10:41:32.747 INFO  (main) [   ] o.e.j.s.session No SessionScavenger set, using defaults
2019-11-25 10:41:32.751 INFO  (main) [   ] o.e.j.s.session node0 Scavenging every 600000ms
2019-11-25 10:41:32.887 INFO  (main) [   ] o.a.s.s.SolrDispatchFilter Using logger factory org.apache.logging.slf4j.Log4jLoggerFactory
2019-11-25 10:41:32.896 INFO  (main) [   ] o.a.s.s.SolrDispatchFilter  ___      _       Welcome to Apache Solr™ version 8.3.0
2019-11-25 10:41:32.896 INFO  (main) [   ] o.a.s.s.SolrDispatchFilter / __| ___| |_ _   Starting in standalone mode on port 8983
2019-11-25 10:41:32.896 INFO  (main) [   ] o.a.s.s.SolrDispatchFilter \__ \/ _ \ | '_|  Install dir: /Users/omini/IRP/solr-8.3.0
2019-11-25 10:41:32.897 INFO  (main) [   ] o.a.s.s.SolrDispatchFilter |___/\___/_|_|    Start time: 2019-11-25T10:41:32.897Z
2019-11-25 10:41:32.932 INFO  (main) [   ] o.a.s.c.SolrResourceLoader Using system property solr.solr.home: /Users/omini/IRP/solr-8.3.0/server/solr
2019-11-25 10:41:32.941 INFO  (main) [   ] o.a.s.c.SolrXmlConfig Loading container configuration from /Users/omini/IRP/solr-8.3.0/server/solr/solr.xml
2019-11-25 10:41:33.081 INFO  (main) [   ] o.a.s.c.SolrXmlConfig MBean server found: com.sun.jmx.mbeanserver.JmxMBeanServer@14ec4505, but no JMX reporters were configured - adding default JMX reporter.
2019-11-25 10:41:33.536 INFO  (main) [   ] o.a.s.h.c.HttpShardHandlerFactory Host whitelist initialized: WhitelistHostChecker [whitelistHosts=null, whitelistHostCheckingEnabled=true]
2019-11-25 10:41:33.766 WARN  (main) [   ] o.e.j.u.s.S.config Trusting all certificates configured for Client@4ce1d6d0[provider=null,keyStore=null,trustStore=null]
2019-11-25 10:41:33.766 WARN  (main) [   ] o.e.j.u.s.S.config No Client EndPointIdentificationAlgorithm configured for Client@4ce1d6d0[provider=null,keyStore=null,trustStore=null]
2019-11-25 10:41:33.998 WARN  (main) [   ] o.e.j.u.s.S.config Trusting all certificates configured for Client@77a7cf58[provider=null,keyStore=null,trustStore=null]
2019-11-25 10:41:33.998 WARN  (main) [   ] o.e.j.u.s.S.config No Client EndPointIdentificationAlgorithm configured for Client@77a7cf58[provider=null,keyStore=null,trustStore=null]
2019-11-25 10:41:34.409 INFO  (main) [   ] o.a.s.c.TransientSolrCoreCacheDefault Allocating transient cache for 2147483647 transient cores
2019-11-25 10:41:34.412 INFO  (main) [   ] o.a.s.h.a.MetricsHistoryHandler No .system collection, keeping metrics history in memory.
2019-11-25 10:41:34.510 INFO  (main) [   ] o.a.s.m.r.SolrJmxReporter JMX monitoring for 'solr.node' (registry 'solr.node') enabled at server: com.sun.jmx.mbeanserver.JmxMBeanServer@14ec4505
2019-11-25 10:41:34.510 INFO  (main) [   ] o.a.s.m.r.SolrJmxReporter JMX monitoring for 'solr.jvm' (registry 'solr.jvm') enabled at server: com.sun.jmx.mbeanserver.JmxMBeanServer@14ec4505
2019-11-25 10:41:34.517 INFO  (main) [   ] o.a.s.m.r.SolrJmxReporter JMX monitoring for 'solr.jetty' (registry 'solr.jetty') enabled at server: com.sun.jmx.mbeanserver.JmxMBeanServer@14ec4505
2019-11-25 10:41:34.593 INFO  (main) [   ] o.a.s.c.CorePropertiesLocator Found 1 core definitions underneath /Users/omini/IRP/solr-8.3.0/server/solr
2019-11-25 10:41:34.594 INFO  (main) [   ] o.a.s.c.CorePropertiesLocator Cores are: [sportPerson]
2019-11-25 10:41:34.684 INFO  (coreLoadExecutor-9-thread-1) [   x:sportPerson] o.a.s.c.SolrResourceLoader [sportPerson] Added 61 libs to classloader, from paths: [/Users/omini/IRP/solr-8.3.0/contrib/clustering/lib, /Users/omini/IRP/solr-8.3.0/contrib/extraction/lib, /Users/omini/IRP/solr-8.3.0/contrib/langid/lib, /Users/omini/IRP/solr-8.3.0/contrib/velocity/lib, /Users/omini/IRP/solr-8.3.0/dist]
2019-11-25 10:41:34.743 INFO  (main) [   ] o.e.j.s.h.ContextHandler Started o.e.j.w.WebAppContext@693fe6c9{/solr,file:///Users/omini/IRP/solr-8.3.0/server/solr-webapp/webapp/,AVAILABLE}{/Users/omini/IRP/solr-8.3.0/server/solr-webapp/webapp}
2019-11-25 10:41:34.758 INFO  (main) [   ] o.e.j.s.AbstractConnector Started ServerConnector@4b2bac3f{HTTP/1.1,[http/1.1, h2c]}{0.0.0.0:8983}
2019-11-25 10:41:34.758 INFO  (main) [   ] o.e.j.s.Server Started @5721ms
2019-11-25 10:41:35.043 INFO  (coreLoadExecutor-9-thread-1) [   x:sportPerson] o.a.s.c.SolrConfig Using Lucene MatchVersion: 8.3.0
2019-11-25 10:41:35.256 INFO  (coreLoadExecutor-9-thread-1) [   x:sportPerson] o.a.s.s.IndexSchema [sportPerson] Schema name=nutch
2019-11-25 10:41:35.318 WARN  (coreLoadExecutor-9-thread-1) [   x:sportPerson] o.a.s.c.SolrResourceLoader Solr loaded a deprecated plugin/analysis class [solr.TrieDateField]. Please consult documentation how to replace it accordingly.
2019-11-25 10:41:35.325 WARN  (coreLoadExecutor-9-thread-1) [   x:sportPerson] o.a.s.c.SolrResourceLoader Solr loaded a deprecated plugin/analysis class [solr.TrieDoubleField]. Please consult documentation how to replace it accordingly.
2019-11-25 10:41:35.333 WARN  (coreLoadExecutor-9-thread-1) [   x:sportPerson] o.a.s.c.SolrResourceLoader Solr loaded a deprecated plugin/analysis class [solr.TrieFloatField]. Please consult documentation how to replace it accordingly.
2019-11-25 10:41:35.342 WARN  (coreLoadExecutor-9-thread-1) [   x:sportPerson] o.a.s.c.SolrResourceLoader Solr loaded a deprecated plugin/analysis class [solr.TrieIntField]. Please consult documentation how to replace it accordingly.
2019-11-25 10:41:35.355 WARN  (coreLoadExecutor-9-thread-1) [   x:sportPerson] o.a.s.c.SolrResourceLoader Solr loaded a deprecated plugin/analysis class [solr.LatLonType]. Please consult documentation how to replace it accordingly.
2019-11-25 10:41:35.360 WARN  (coreLoadExecutor-9-thread-1) [   x:sportPerson] o.a.s.c.SolrResourceLoader Solr loaded a deprecated plugin/analysis class [solr.TrieLongField]. Please consult documentation how to replace it accordingly.
2019-11-25 10:41:35.438 WARN  (coreLoadExecutor-9-thread-1) [   x:sportPerson] o.a.s.c.SolrResourceLoader Solr loaded a deprecated plugin/analysis class [solr.SynonymFilterFactory]. Please consult documentation how to replace it accordingly.
2019-11-25 10:41:35.443 WARN  (coreLoadExecutor-9-thread-1) [   x:sportPerson] o.a.s.c.SolrResourceLoader Solr loaded a deprecated plugin/analysis class [solr.WordDelimiterFilterFactory]. Please consult documentation how to replace it accordingly.
2019-11-25 10:41:35.620 INFO  (coreLoadExecutor-9-thread-1) [   x:sportPerson] o.a.s.s.IndexSchema Loaded schema nutch/1.5 with uniqueid field id
2019-11-25 10:41:35.642 INFO  (coreLoadExecutor-9-thread-1) [   x:sportPerson] o.a.s.c.CoreContainer Creating SolrCore 'sportPerson' using configuration from instancedir /Users/omini/IRP/solr-8.3.0/server/solr/sportPerson, trusted=true
2019-11-25 10:41:35.695 INFO  (coreLoadExecutor-9-thread-1) [   x:sportPerson] o.a.s.m.r.SolrJmxReporter JMX monitoring for 'solr.core.sportPerson' (registry 'solr.core.sportPerson') enabled at server: com.sun.jmx.mbeanserver.JmxMBeanServer@14ec4505
2019-11-25 10:41:35.716 INFO  (coreLoadExecutor-9-thread-1) [   x:sportPerson] o.a.s.c.SolrCore [[sportPerson] ] Opening new SolrCore at [/Users/omini/IRP/solr-8.3.0/server/solr/sportPerson], dataDir=[/Users/omini/IRP/solr-8.3.0/server/solr/sportPerson/data/]
2019-11-25 10:41:35.761 INFO  (coreLoadExecutor-9-thread-1) [   x:sportPerson] o.a.s.r.XSLTResponseWriter xsltCacheLifetimeSeconds=5
2019-11-25 10:41:36.775 INFO  (coreLoadExecutor-9-thread-1) [   x:sportPerson] o.a.s.u.UpdateHandler Using UpdateLog implementation: org.apache.solr.update.UpdateLog
2019-11-25 10:41:36.775 INFO  (coreLoadExecutor-9-thread-1) [   x:sportPerson] o.a.s.u.UpdateLog Initializing UpdateLog: dataDir= defaultSyncLevel=FLUSH numRecordsToKeep=100 maxNumLogsToKeep=10 numVersionBuckets=65536
2019-11-25 10:41:36.814 INFO  (coreLoadExecutor-9-thread-1) [   x:sportPerson] o.a.s.u.CommitTracker Hard AutoCommit: if uncommitted for 15000ms; 
2019-11-25 10:41:36.814 INFO  (coreLoadExecutor-9-thread-1) [   x:sportPerson] o.a.s.u.CommitTracker Soft AutoCommit: disabled
2019-11-25 10:41:37.231 INFO  (coreLoadExecutor-9-thread-1) [   x:sportPerson] o.a.s.s.SolrIndexSearcher Opening [Searcher@5e1f7a32[sportPerson] main]
2019-11-25 10:41:37.257 INFO  (coreLoadExecutor-9-thread-1) [   x:sportPerson] o.a.s.r.ManagedResourceStorage File-based storage initialized to use dir: /Users/omini/IRP/solr-8.3.0/server/solr/sportPerson/conf
2019-11-25 10:41:37.295 INFO  (coreLoadExecutor-9-thread-1) [   x:sportPerson] o.a.s.h.c.SpellCheckComponent Initializing spell checkers
2019-11-25 10:41:37.310 INFO  (coreLoadExecutor-9-thread-1) [   x:sportPerson] o.a.s.s.DirectSolrSpellChecker init: {name=default,field=_text_,classname=solr.DirectSolrSpellChecker,distanceMeasure=internal,accuracy=0.5,maxEdits=2,minPrefix=1,maxInspections=5,minQueryLength=4,maxQueryFrequency=0.01}
2019-11-25 10:41:37.329 INFO  (coreLoadExecutor-9-thread-1) [   x:sportPerson] o.a.s.h.ReplicationHandler Commits will be reserved for 10000ms.
2019-11-25 10:41:37.373 INFO  (searcherExecutor-10-thread-1-processing-x:sportPerson) [   x:sportPerson] o.a.s.c.QuerySenderListener QuerySenderListener sending requests to Searcher@5e1f7a32[sportPerson] main{ExitableDirectoryReader(UninvertingDirectoryReader(Uninverting(_3(8.3.0):C3492/2003:[diagnostics={java.vendor=AdoptOpenJDK, os=Mac OS X, java.version=1.8.0_222, java.vm.version=25.222-b10, lucene.version=8.3.0, os.arch=x86_64, java.runtime.version=1.8.0_222-b10, source=flush, os.version=10.15, timestamp=1574033481978}]:[attributes={Lucene50StoredFieldsFormat.mode=BEST_SPEED}]:delGen=5) Uninverting(_4(8.3.0):C13:[diagnostics={java.vendor=AdoptOpenJDK, os=Mac OS X, java.version=1.8.0_222, java.vm.version=25.222-b10, lucene.version=8.3.0, os.arch=x86_64, java.runtime.version=1.8.0_222-b10, source=flush, os.version=10.15, timestamp=1574279790019}]:[attributes={Lucene50StoredFieldsFormat.mode=BEST_SPEED}]) Uninverting(_5(8.3.0):C2786:[diagnostics={java.vendor=AdoptOpenJDK, os=Mac OS X, java.version=1.8.0_222, java.vm.version=25.222-b10, lucene.version=8.3.0, os.arch=x86_64, java.runtime.version=1.8.0_222-b10, source=flush, os.version=10.15, timestamp=1574289380546}]:[attributes={Lucene50StoredFieldsFormat.mode=BEST_SPEED}]) Uninverting(_6(8.3.0):C2754:[diagnostics={java.vendor=AdoptOpenJDK, os=Mac OS X, java.version=1.8.0_222, java.vm.version=25.222-b10, lucene.version=8.3.0, os.arch=x86_64, java.runtime.version=1.8.0_222-b10, source=flush, os.version=10.15, timestamp=1574301011263}]:[attributes={Lucene50StoredFieldsFormat.mode=BEST_SPEED}]) Uninverting(_7(8.3.0):C32:[diagnostics={java.vendor=AdoptOpenJDK, os=Mac OS X, java.version=1.8.0_222, java.vm.version=25.222-b10, lucene.version=8.3.0, os.arch=x86_64, java.runtime.version=1.8.0_222-b10, source=flush, os.version=10.15, timestamp=1574301011523}]:[attributes={Lucene50StoredFieldsFormat.mode=BEST_SPEED}]) Uninverting(_8(8.3.0):C3847:[diagnostics={java.vendor=AdoptOpenJDK, os=Mac OS X, java.version=1.8.0_222, java.vm.version=25.222-b10, lucene.version=8.3.0, os.arch=x86_64, java.runtime.version=1.8.0_222-b10, source=flush, os.version=10.15, timestamp=1574301029848}]:[attributes={Lucene50StoredFieldsFormat.mode=BEST_SPEED}]) Uninverting(_9(8.3.0):C2086:[diagnostics={java.vendor=AdoptOpenJDK, os=Mac OS X, java.version=1.8.0_222, java.vm.version=25.222-b10, lucene.version=8.3.0, os.arch=x86_64, java.runtime.version=1.8.0_222-b10, source=flush, os.version=10.15, timestamp=1574365728182}]:[attributes={Lucene50StoredFieldsFormat.mode=BEST_SPEED}]) Uninverting(_a(8.3.0):C2159:[diagnostics={java.vendor=AdoptOpenJDK, os=Mac OS X, java.version=1.8.0_222, java.vm.version=25.222-b10, lucene.version=8.3.0, os.arch=x86_64, java.runtime.version=1.8.0_222-b10, source=flush, os.version=10.15, timestamp=1574365730702}]:[attributes={Lucene50StoredFieldsFormat.mode=BEST_SPEED}])))}
2019-11-25 10:41:37.373 INFO  (searcherExecutor-10-thread-1-processing-x:sportPerson) [   x:sportPerson] o.a.s.c.QuerySenderListener QuerySenderListener done.
2019-11-25 10:41:37.373 INFO  (searcherExecutor-10-thread-1-processing-x:sportPerson) [   x:sportPerson] o.a.s.h.c.SpellCheckComponent Loading spell index for spellchecker: default
2019-11-25 10:41:37.386 INFO  (searcherExecutor-10-thread-1-processing-x:sportPerson) [   x:sportPerson] o.a.s.c.SolrCore [sportPerson] Registered new searcher Searcher@5e1f7a32[sportPerson] main{ExitableDirectoryReader(UninvertingDirectoryReader(Uninverting(_3(8.3.0):C3492/2003:[diagnostics={java.vendor=AdoptOpenJDK, os=Mac OS X, java.version=1.8.0_222, java.vm.version=25.222-b10, lucene.version=8.3.0, os.arch=x86_64, java.runtime.version=1.8.0_222-b10, source=flush, os.version=10.15, timestamp=1574033481978}]:[attributes={Lucene50StoredFieldsFormat.mode=BEST_SPEED}]:delGen=5) Uninverting(_4(8.3.0):C13:[diagnostics={java.vendor=AdoptOpenJDK, os=Mac OS X, java.version=1.8.0_222, java.vm.version=25.222-b10, lucene.version=8.3.0, os.arch=x86_64, java.runtime.version=1.8.0_222-b10, source=flush, os.version=10.15, timestamp=1574279790019}]:[attributes={Lucene50StoredFieldsFormat.mode=BEST_SPEED}]) Uninverting(_5(8.3.0):C2786:[diagnostics={java.vendor=AdoptOpenJDK, os=Mac OS X, java.version=1.8.0_222, java.vm.version=25.222-b10, lucene.version=8.3.0, os.arch=x86_64, java.runtime.version=1.8.0_222-b10, source=flush, os.version=10.15, timestamp=1574289380546}]:[attributes={Lucene50StoredFieldsFormat.mode=BEST_SPEED}]) Uninverting(_6(8.3.0):C2754:[diagnostics={java.vendor=AdoptOpenJDK, os=Mac OS X, java.version=1.8.0_222, java.vm.version=25.222-b10, lucene.version=8.3.0, os.arch=x86_64, java.runtime.version=1.8.0_222-b10, source=flush, os.version=10.15, timestamp=1574301011263}]:[attributes={Lucene50StoredFieldsFormat.mode=BEST_SPEED}]) Uninverting(_7(8.3.0):C32:[diagnostics={java.vendor=AdoptOpenJDK, os=Mac OS X, java.version=1.8.0_222, java.vm.version=25.222-b10, lucene.version=8.3.0, os.arch=x86_64, java.runtime.version=1.8.0_222-b10, source=flush, os.version=10.15, timestamp=1574301011523}]:[attributes={Lucene50StoredFieldsFormat.mode=BEST_SPEED}]) Uninverting(_8(8.3.0):C3847:[diagnostics={java.vendor=AdoptOpenJDK, os=Mac OS X, java.version=1.8.0_222, java.vm.version=25.222-b10, lucene.version=8.3.0, os.arch=x86_64, java.runtime.version=1.8.0_222-b10, source=flush, os.version=10.15, timestamp=1574301029848}]:[attributes={Lucene50StoredFieldsFormat.mode=BEST_SPEED}]) Uninverting(_9(8.3.0):C2086:[diagnostics={java.vendor=AdoptOpenJDK, os=Mac OS X, java.version=1.8.0_222, java.vm.version=25.222-b10, lucene.version=8.3.0, os.arch=x86_64, java.runtime.version=1.8.0_222-b10, source=flush, os.version=10.15, timestamp=1574365728182}]:[attributes={Lucene50StoredFieldsFormat.mode=BEST_SPEED}]) Uninverting(_a(8.3.0):C2159:[diagnostics={java.vendor=AdoptOpenJDK, os=Mac OS X, java.version=1.8.0_222, java.vm.version=25.222-b10, lucene.version=8.3.0, os.arch=x86_64, java.runtime.version=1.8.0_222-b10, source=flush, os.version=10.15, timestamp=1574365730702}]:[attributes={Lucene50StoredFieldsFormat.mode=BEST_SPEED}])))}
2019-11-25 10:42:11.562 INFO  (qtp1850180796-19) [   x:sportPerson] o.a.s.c.S.Request [sportPerson]  webapp=/solr path=/select params={q=content:(marquz)&hl=on&hl.fragsize=450&hl.fl=content} hits=0 status=0 QTime=102
2019-11-25 10:42:14.467 INFO  (qtp1850180796-14) [   x:sportPerson] o.a.s.c.S.Request [sportPerson]  webapp=/solr path=/select params={q=content:(marquez)&hl=on&hl.fragsize=450&hl.fl=content} hits=41 status=0 QTime=208
2019-11-25 10:42:35.492 INFO  (qtp1850180796-20) [   x:sportPerson] o.a.s.c.S.Request [sportPerson]  webapp=/solr path=/select params={q=content:(rossi)&hl=on&hl.fragsize=450&hl.fl=content} hits=254 status=0 QTime=121
2019-11-25 10:44:17.438 INFO  (qtp1850180796-18) [   x:sportPerson] o.a.s.c.S.Request [sportPerson]  webapp=/solr path=/select params={q=content:(marquez)&hl=on&hl.fragsize=450&hl.fl=content} hits=41 status=0 QTime=74
2019-11-25 10:50:44.314 INFO  (qtp1850180796-15) [   x:sportPerson] o.a.s.c.S.Request [sportPerson]  webapp=/solr path=/select params={q=content:(rossi)&hl=on&hl.fragsize=450&hl.fl=content} hits=254 status=0 QTime=73
2019-11-25 10:56:30.450 INFO  (qtp1850180796-19) [   ] o.a.s.s.HttpSolrCall [admin] webapp=null path=/admin/cores params={indexInfo=false&wt=json&_=1574679390206} status=0 QTime=1
2019-11-25 10:56:30.538 INFO  (qtp1850180796-17) [   ] o.a.s.s.HttpSolrCall [admin] webapp=null path=/admin/info/system params={wt=json&_=1574679390207} status=0 QTime=89
2019-11-25 10:56:30.570 INFO  (qtp1850180796-21) [   ] o.a.s.s.HttpSolrCall [admin] webapp=null path=/admin/info/system params={wt=json&_=1574679390207} status=0 QTime=25
2019-11-25 10:56:32.771 INFO  (qtp1850180796-21) [   ] o.a.s.s.HttpSolrCall [admin] webapp=null path=/admin/cores params={indexInfo=false&wt=json&_=1574679390206} status=0 QTime=0
2019-11-25 10:56:32.782 INFO  (qtp1850180796-15) [   x:sportPerson] o.a.s.c.S.Request [sportPerson]  webapp=/solr path=/admin/ping params={action=status&wt=json&_=1574679390207&ts=1574679390207} status=503 QTime=7
2019-11-25 10:56:32.793 INFO  (qtp1850180796-21) [   x:sportPerson] o.a.s.c.S.Request [sportPerson]  webapp=/solr path=/replication params={wt=json&command=details&_=1574679392754} status=0 QTime=19
2019-11-25 10:56:32.827 INFO  (qtp1850180796-17) [   x:sportPerson] o.a.s.c.S.Request [sportPerson]  webapp=/solr path=/admin/luke params={numTerms=0&show=index&wt=json&_=1574679392753} status=0 QTime=54
2019-11-25 10:56:32.841 INFO  (qtp1850180796-22) [   ] o.a.s.s.HttpSolrCall [admin] webapp=null path=/admin/info/system params={wt=json&_=1574679390207} status=0 QTime=65
2019-11-25 10:56:32.845 INFO  (qtp1850180796-20) [   x:sportPerson] o.a.s.c.S.Request [sportPerson]  webapp=/solr path=/admin/system params={wt=json&_=1574679392753} status=0 QTime=58
2019-11-25 10:56:36.552 INFO  (qtp1850180796-21) [   ] o.a.s.s.HttpSolrCall [admin] webapp=null path=/admin/cores params={indexInfo=false&wt=json&_=1574679390206} status=0 QTime=0
2019-11-25 10:56:36.605 INFO  (qtp1850180796-14) [   ] o.a.s.s.HttpSolrCall [admin] webapp=null path=/admin/info/system params={wt=json&_=1574679390207} status=0 QTime=51
2019-11-25 10:56:38.033 INFO  (qtp1850180796-23) [   ] o.a.s.s.HttpSolrCall [admin] webapp=null path=/admin/cores params={indexInfo=false&wt=json&_=1574679390206} status=0 QTime=0
2019-11-25 10:56:38.047 INFO  (qtp1850180796-18) [   x:sportPerson] o.a.s.c.S.Request [sportPerson]  webapp=/solr path=/admin/file params={wt=json&_=1574679398026} status=0 QTime=8
2019-11-25 10:56:38.088 INFO  (qtp1850180796-21) [   x:sportPerson] o.a.s.c.S.Request [sportPerson]  webapp=/solr path=/admin/file params={file=lang&wt=json&_=1574679398026} status=0 QTime=3
2019-11-25 10:56:38.097 INFO  (qtp1850180796-19) [   ] o.a.s.s.HttpSolrCall [admin] webapp=null path=/admin/info/system params={wt=json&_=1574679390207} status=0 QTime=63
2019-11-25 10:56:44.236 INFO  (qtp1850180796-21) [   ] o.a.s.s.HttpSolrCall [admin] webapp=null path=/admin/cores params={indexInfo=false&wt=json&_=1574679390206} status=0 QTime=0
2019-11-25 10:56:44.240 INFO  (qtp1850180796-21) [   x:sportPerson] o.a.s.c.S.Request [sportPerson]  webapp=/solr path=/admin/luke params={show=schema&wt=json&_=1574679392753} status=0 QTime=2
2019-11-25 10:56:44.275 INFO  (qtp1850180796-15) [   ] o.a.s.s.HttpSolrCall [admin] webapp=null path=/admin/info/system params={wt=json&_=1574679390207} status=0 QTime=38
2019-11-25 10:56:54.201 INFO  (qtp1850180796-23) [   ] o.a.s.s.HttpSolrCall [admin] webapp=null path=/admin/cores params={indexInfo=false&wt=json&_=1574679390206} status=0 QTime=0
2019-11-25 10:56:54.239 INFO  (qtp1850180796-17) [   ] o.a.s.s.HttpSolrCall [admin] webapp=null path=/admin/info/system params={wt=json&_=1574679390207} status=0 QTime=36
2019-11-25 10:56:55.884 INFO  (qtp1850180796-23) [   x:sportPerson] o.a.s.c.S.Request [sportPerson]  webapp=/solr path=/select params={q=*:*&_=1574679396509} hits=15166 status=0 QTime=6
2019-11-25 11:07:47.256 INFO  (qtp1850180796-15) [   ] o.a.s.s.HttpSolrCall [admin] webapp=null path=/admin/info/system params={wt=json} status=0 QTime=26
2019-11-25 11:07:47.342 INFO  (qtp1850180796-23) [   ] o.a.s.s.HttpSolrCall [admin] webapp=null path=/admin/info/system params={wt=json} status=0 QTime=14
2019-11-25 11:07:47.349 INFO  (qtp1850180796-18) [   x:sportPerson2] o.a.s.s.HttpSolrCall [admin] webapp=null path=/admin/cores params={core=sportPerson2&action=STATUS&wt=json} status=0 QTime=0
2019-11-25 11:07:47.409 INFO  (qtp1850180796-23) [   x:sportPerson2] o.a.s.h.a.CoreAdminOperation core create command name=sportPerson2&action=CREATE&instanceDir=sportPerson2&wt=json
2019-11-25 11:07:47.461 INFO  (qtp1850180796-23) [   x:sportPerson2] o.a.s.c.SolrResourceLoader [sportPerson2] Added 61 libs to classloader, from paths: [/Users/omini/IRP/solr-8.3.0/contrib/clustering/lib, /Users/omini/IRP/solr-8.3.0/contrib/extraction/lib, /Users/omini/IRP/solr-8.3.0/contrib/langid/lib, /Users/omini/IRP/solr-8.3.0/contrib/velocity/lib, /Users/omini/IRP/solr-8.3.0/dist]
2019-11-25 11:07:47.526 INFO  (qtp1850180796-23) [   x:sportPerson2] o.a.s.c.SolrConfig Using Lucene MatchVersion: 8.3.0
2019-11-25 11:07:47.592 INFO  (qtp1850180796-23) [   x:sportPerson2] o.a.s.s.ManagedIndexSchemaFactory The schema is configured as managed, but managed schema resource managed-schema not found - loading non-managed schema schema.xml instead
2019-11-25 11:07:47.606 INFO  (qtp1850180796-23) [   x:sportPerson2] o.a.s.s.IndexSchema [sportPerson2] Schema name=nutch
2019-11-25 11:07:47.768 INFO  (qtp1850180796-23) [   x:sportPerson2] o.a.s.s.IndexSchema Loaded schema nutch/1.5 with uniqueid field id
2019-11-25 11:07:47.801 INFO  (qtp1850180796-23) [   x:sportPerson2] o.a.s.s.ManagedIndexSchema Upgraded to managed schema at /Users/omini/IRP/solr-8.3.0/server/solr/sportPerson2/conf/managed-schema
2019-11-25 11:07:47.802 INFO  (qtp1850180796-23) [   x:sportPerson2] o.a.s.s.ManagedIndexSchemaFactory After upgrading to managed schema, renamed the non-managed schema /Users/omini/IRP/solr-8.3.0/server/solr/sportPerson2/conf/schema.xml to /Users/omini/IRP/solr-8.3.0/server/solr/sportPerson2/conf/schema.xml.bak
2019-11-25 11:07:47.802 INFO  (qtp1850180796-23) [   x:sportPerson2] o.a.s.c.CoreContainer Creating SolrCore 'sportPerson2' using configuration from instancedir /Users/omini/IRP/solr-8.3.0/server/solr/sportPerson2, trusted=true
2019-11-25 11:07:47.804 INFO  (qtp1850180796-23) [   x:sportPerson2] o.a.s.m.r.SolrJmxReporter JMX monitoring for 'solr.core.sportPerson2' (registry 'solr.core.sportPerson2') enabled at server: com.sun.jmx.mbeanserver.JmxMBeanServer@14ec4505
2019-11-25 11:07:47.804 INFO  (qtp1850180796-23) [   x:sportPerson2] o.a.s.c.SolrCore [[sportPerson2] ] Opening new SolrCore at [/Users/omini/IRP/solr-8.3.0/server/solr/sportPerson2], dataDir=[/Users/omini/IRP/solr-8.3.0/server/solr/sportPerson2/data/]
2019-11-25 11:07:47.826 INFO  (qtp1850180796-23) [   x:sportPerson2] o.a.s.r.XSLTResponseWriter xsltCacheLifetimeSeconds=5
2019-11-25 11:07:47.972 INFO  (qtp1850180796-23) [   x:sportPerson2] o.a.s.u.UpdateHandler Using UpdateLog implementation: org.apache.solr.update.UpdateLog
2019-11-25 11:07:47.972 INFO  (qtp1850180796-23) [   x:sportPerson2] o.a.s.u.UpdateLog Initializing UpdateLog: dataDir= defaultSyncLevel=FLUSH numRecordsToKeep=100 maxNumLogsToKeep=10 numVersionBuckets=65536
2019-11-25 11:07:47.979 INFO  (qtp1850180796-23) [   x:sportPerson2] o.a.s.u.CommitTracker Hard AutoCommit: if uncommitted for 15000ms; 
2019-11-25 11:07:47.979 INFO  (qtp1850180796-23) [   x:sportPerson2] o.a.s.u.CommitTracker Soft AutoCommit: disabled
2019-11-25 11:07:47.983 INFO  (qtp1850180796-23) [   x:sportPerson2] o.a.s.s.SolrIndexSearcher Opening [Searcher@510d924a[sportPerson2] main]
2019-11-25 11:07:47.985 INFO  (qtp1850180796-23) [   x:sportPerson2] o.a.s.r.ManagedResourceStorage File-based storage initialized to use dir: /Users/omini/IRP/solr-8.3.0/server/solr/sportPerson2/conf
2019-11-25 11:07:47.986 INFO  (qtp1850180796-23) [   x:sportPerson2] o.a.s.h.c.SpellCheckComponent Initializing spell checkers
2019-11-25 11:07:47.986 INFO  (qtp1850180796-23) [   x:sportPerson2] o.a.s.s.DirectSolrSpellChecker init: {name=default,field=_text_,classname=solr.DirectSolrSpellChecker,distanceMeasure=internal,accuracy=0.5,maxEdits=2,minPrefix=1,maxInspections=5,minQueryLength=4,maxQueryFrequency=0.01}
2019-11-25 11:07:47.988 INFO  (qtp1850180796-23) [   x:sportPerson2] o.a.s.h.ReplicationHandler Commits will be reserved for 10000ms.
2019-11-25 11:07:47.989 INFO  (qtp1850180796-23) [   x:sportPerson2] o.a.s.u.UpdateLog Could not find max version in index or recent updates, using new clock 1651171726971633664
2019-11-25 11:07:47.991 INFO  (qtp1850180796-23) [   x:sportPerson2] o.a.s.s.HttpSolrCall [admin] webapp=null path=/admin/cores params={name=sportPerson2&action=CREATE&instanceDir=sportPerson2&wt=json} status=0 QTime=582
2019-11-25 11:07:47.994 INFO  (searcherExecutor-15-thread-1-processing-x:sportPerson2) [   x:sportPerson2] o.a.s.c.QuerySenderListener QuerySenderListener sending requests to Searcher@510d924a[sportPerson2] main{ExitableDirectoryReader(UninvertingDirectoryReader())}
2019-11-25 11:07:47.994 INFO  (searcherExecutor-15-thread-1-processing-x:sportPerson2) [   x:sportPerson2] o.a.s.c.QuerySenderListener QuerySenderListener done.
2019-11-25 11:07:47.994 INFO  (searcherExecutor-15-thread-1-processing-x:sportPerson2) [   x:sportPerson2] o.a.s.h.c.SpellCheckComponent Loading spell index for spellchecker: default
2019-11-25 11:07:47.999 INFO  (searcherExecutor-15-thread-1-processing-x:sportPerson2) [   x:sportPerson2] o.a.s.c.SolrCore [sportPerson2] Registered new searcher Searcher@510d924a[sportPerson2] main{ExitableDirectoryReader(UninvertingDirectoryReader())}
2019-11-25 11:08:08.563 INFO  (qtp1850180796-23) [   ] o.a.s.s.HttpSolrCall [admin] webapp=null path=/admin/cores params={indexInfo=false&wt=json&_=1574680088379} status=0 QTime=0
2019-11-25 11:08:08.587 INFO  (qtp1850180796-20) [   ] o.a.s.s.HttpSolrCall [admin] webapp=null path=/admin/info/system params={wt=json&_=1574680088380} status=0 QTime=22
2019-11-25 11:08:09.926 INFO  (qtp1850180796-20) [   ] o.a.s.s.HttpSolrCall [admin] webapp=null path=/admin/cores params={indexInfo=false&wt=json&_=1574680088379} status=0 QTime=0
2019-11-25 11:08:09.943 INFO  (qtp1850180796-23) [   x:sportPerson2] o.a.s.c.S.Request [sportPerson2]  webapp=/solr path=/admin/luke params={numTerms=0&show=index&wt=json&_=1574680089915} status=0 QTime=0
2019-11-25 11:08:09.953 INFO  (qtp1850180796-14) [   x:sportPerson2] o.a.s.c.S.Request [sportPerson2]  webapp=/solr path=/admin/ping params={action=status&wt=json&_=1574680088380&ts=1574680088380} status=503 QTime=3
2019-11-25 11:08:09.955 INFO  (qtp1850180796-15) [   x:sportPerson2] o.a.s.c.S.Request [sportPerson2]  webapp=/solr path=/replication params={wt=json&command=details&_=1574680089915} status=0 QTime=4
2019-11-25 11:08:09.993 INFO  (qtp1850180796-18) [   ] o.a.s.s.HttpSolrCall [admin] webapp=null path=/admin/info/system params={wt=json&_=1574680088380} status=0 QTime=67
2019-11-25 11:08:10.005 INFO  (qtp1850180796-22) [   x:sportPerson2] o.a.s.c.S.Request [sportPerson2]  webapp=/solr path=/admin/system params={wt=json&_=1574680089915} status=0 QTime=52
2019-11-25 11:08:12.490 INFO  (qtp1850180796-20) [   ] o.a.s.s.HttpSolrCall [admin] webapp=null path=/admin/cores params={indexInfo=false&wt=json&_=1574680088379} status=0 QTime=0
2019-11-25 11:08:12.527 INFO  (qtp1850180796-21) [   ] o.a.s.s.HttpSolrCall [admin] webapp=null path=/admin/info/system params={wt=json&_=1574680088380} status=0 QTime=36
2019-11-25 11:08:13.911 INFO  (qtp1850180796-20) [   x:sportPerson2] o.a.s.c.S.Request [sportPerson2]  webapp=/solr path=/select params={q=*:*&_=1574680088520} hits=0 status=0 QTime=3
2019-11-25 12:56:24.039 INFO  (qtp1850180796-19) [   x:sportPerson2] o.a.s.c.S.Request [sportPerson2]  webapp=/solr path=/select params={q=content:(gg)&hl=on&hl.fragsize=450&hl.fl=content} hits=0 status=0 QTime=8
2019-11-25 12:56:32.055 INFO  (qtp1850180796-21) [   x:sportPerson2] o.a.s.c.S.Request [sportPerson2]  webapp=/solr path=/select params={q=content:(rossi)&hl=on&hl.fragsize=450&hl.fl=content} hits=0 status=0 QTime=6
2019-11-25 12:58:41.196 INFO  (qtp1850180796-15) [   x:sportPerson2] o.a.s.u.p.LogUpdateProcessorFactory [sportPerson2]  webapp=/solr path=/update params={wt=javabin&version=2}{add=[https://en.wikipedia.org/wiki/List_of_sports_rivalries (1651178703202287616), https://en.wikipedia.org/wiki/Lists_of_sportspeople (1651178703358525440)]} 0 283
2019-11-25 12:58:41.228 INFO  (qtp1850180796-18) [   x:sportPerson2] o.a.s.u.DirectUpdateHandler2 start commit{_version_=1651178703398371328,optimize=false,openSearcher=true,waitSearcher=true,expungeDeletes=false,softCommit=false,prepareCommit=false}
2019-11-25 12:58:41.228 INFO  (qtp1850180796-18) [   x:sportPerson2] o.a.s.u.SolrIndexWriter Calling setCommitData with IW:org.apache.solr.update.SolrIndexWriter@271a51fb commitCommandVersion:1651178703398371328
2019-11-25 12:58:41.448 INFO  (qtp1850180796-18) [   x:sportPerson2] o.a.s.s.SolrIndexSearcher Opening [Searcher@41f37c09[sportPerson2] main]
2019-11-25 12:58:41.452 INFO  (searcherExecutor-15-thread-1-processing-x:sportPerson2) [   x:sportPerson2] o.a.s.c.QuerySenderListener QuerySenderListener sending requests to Searcher@41f37c09[sportPerson2] main{ExitableDirectoryReader(UninvertingDirectoryReader(Uninverting(_0(8.3.0):C2:[diagnostics={os=Mac OS X, java.vendor=AdoptOpenJDK, java.version=1.8.0_222, java.vm.version=25.222-b10, lucene.version=8.3.0, os.arch=x86_64, java.runtime.version=1.8.0_222-b10, source=flush, os.version=10.15.1, timestamp=1574686721425}]:[attributes={Lucene50StoredFieldsFormat.mode=BEST_SPEED}])))}
2019-11-25 12:58:41.452 INFO  (searcherExecutor-15-thread-1-processing-x:sportPerson2) [   x:sportPerson2] o.a.s.c.QuerySenderListener QuerySenderListener done.
2019-11-25 12:58:41.453 INFO  (qtp1850180796-18) [   x:sportPerson2] o.a.s.u.DirectUpdateHandler2 end_commit_flush
2019-11-25 12:58:41.465 INFO  (searcherExecutor-15-thread-1-processing-x:sportPerson2) [   x:sportPerson2] o.a.s.c.SolrCore [sportPerson2] Registered new searcher Searcher@41f37c09[sportPerson2] main{ExitableDirectoryReader(UninvertingDirectoryReader(Uninverting(_0(8.3.0):C2:[diagnostics={os=Mac OS X, java.vendor=AdoptOpenJDK, java.version=1.8.0_222, java.vm.version=25.222-b10, lucene.version=8.3.0, os.arch=x86_64, java.runtime.version=1.8.0_222-b10, source=flush, os.version=10.15.1, timestamp=1574686721425}]:[attributes={Lucene50StoredFieldsFormat.mode=BEST_SPEED}])))}
2019-11-25 12:58:41.471 INFO  (qtp1850180796-18) [   x:sportPerson2] o.a.s.u.p.LogUpdateProcessorFactory [sportPerson2]  webapp=/solr path=/update params={waitSearcher=true&commit=true&softCommit=false&wt=javabin&version=2}{commit=} 0 244
2019-11-25 12:58:41.474 INFO  (qtp1850180796-15) [   x:sportPerson2] o.a.s.u.DirectUpdateHandler2 start commit{_version_=1651178703656321024,optimize=false,openSearcher=true,waitSearcher=true,expungeDeletes=false,softCommit=false,prepareCommit=false}
2019-11-25 12:58:41.474 INFO  (qtp1850180796-15) [   x:sportPerson2] o.a.s.u.DirectUpdateHandler2 No uncommitted changes. Skipping IW.commit.
2019-11-25 12:58:41.475 INFO  (qtp1850180796-15) [   x:sportPerson2] o.a.s.u.DirectUpdateHandler2 end_commit_flush
2019-11-25 12:58:41.475 INFO  (qtp1850180796-15) [   x:sportPerson2] o.a.s.u.p.LogUpdateProcessorFactory [sportPerson2]  webapp=/solr path=/update params={waitSearcher=true&commit=true&softCommit=false&wt=javabin&version=2}{commit=} 0 1
2019-11-25 12:58:44.627 INFO  (qtp1850180796-14) [   x:sportPerson2] o.a.s.u.DirectUpdateHandler2 start commit{_version_=1651178706962481152,optimize=false,openSearcher=true,waitSearcher=true,expungeDeletes=false,softCommit=false,prepareCommit=false}
2019-11-25 12:58:44.627 INFO  (qtp1850180796-14) [   x:sportPerson2] o.a.s.u.DirectUpdateHandler2 No uncommitted changes. Skipping IW.commit.
2019-11-25 12:58:44.627 INFO  (qtp1850180796-14) [   x:sportPerson2] o.a.s.u.DirectUpdateHandler2 end_commit_flush
2019-11-25 12:58:44.627 INFO  (qtp1850180796-14) [   x:sportPerson2] o.a.s.u.p.LogUpdateProcessorFactory [sportPerson2]  webapp=/solr path=/update params={waitSearcher=true&commit=true&softCommit=false&wt=javabin&version=2}{commit=} 0 1
2019-11-25 12:59:26.342 INFO  (qtp1850180796-18) [   x:sportPerson2] o.a.s.c.S.Request [sportPerson2]  webapp=/solr path=/select params={q=content:(skiers)&hl=on&hl.fragsize=450&hl.fl=content} hits=1 status=0 QTime=15
2019-11-25 13:00:00.551 INFO  (qtp1850180796-14) [   x:sportPerson2] o.a.s.c.S.Request [sportPerson2]  webapp=/solr path=/select params={q=*:*&_=1574680088520} hits=2 status=0 QTime=0
2019-11-25 13:08:26.562 INFO  (qtp1850180796-17) [   x:sportPerson2] o.a.s.c.S.Request [sportPerson2]  webapp=/solr path=/select params={q=content:(archers)&hl=on&hl.fragsize=450&hl.fl=content} hits=1 status=0 QTime=5
2019-11-25 13:09:55.914 INFO  (qtp1850180796-19) [   x:sportPerson2] o.a.s.c.S.Request [sportPerson2]  webapp=/solr path=/select params={q=content:(federer)&hl=on&hl.fragsize=450&hl.fl=content} hits=1 status=0 QTime=28
2019-11-25 13:10:23.543 INFO  (qtp1850180796-23) [   x:sportPerson2] o.a.s.c.S.Request [sportPerson2]  webapp=/solr path=/select params={q=content:(ambri)&hl=on&hl.fragsize=450&hl.fl=content} hits=1 status=0 QTime=17
2019-11-25 14:53:40.406 INFO  (qtp1850180796-20) [   x:sportPerson2] o.a.s.c.S.Request [sportPerson2]  webapp=/solr path=/select params={q=content:(federer)&hl=on&hl.fragsize=450&hl.fl=content} hits=1 status=0 QTime=31
2019-11-25 14:53:54.421 INFO  (qtp1850180796-23) [   x:sportPerson2] o.a.s.c.S.Request [sportPerson2]  webapp=/solr path=/select params={q=content:(marquez)&hl=on&hl.fragsize=450&hl.fl=content} hits=0 status=0 QTime=3
2019-11-25 14:53:59.214 INFO  (qtp1850180796-22) [   x:sportPerson2] o.a.s.c.S.Request [sportPerson2]  webapp=/solr path=/select params={q=content:(rossi)&hl=on&hl.fragsize=450&hl.fl=content} hits=1 status=0 QTime=19
2019-11-25 19:00:24.329 INFO  (qtp1850180796-19) [   x:sportPerson2] o.a.s.c.S.Request [sportPerson2]  webapp=/solr path=/select params={q=content:(rossi)&hl=on&hl.fragsize=450&hl.fl=content} hits=1 status=0 QTime=42
2019-11-25 19:26:30.377 INFO  (qtp1850180796-14) [   x:sportPerson2] o.a.s.c.S.Request [sportPerson2]  webapp=/solr path=/select params={q=content:(b)&hl=on&hl.fragsize=450&hl.fl=content} hits=1 status=0 QTime=63
2019-11-25 19:47:59.751 INFO  (qtp1850180796-18) [   x:sportPerson2] o.a.s.c.S.Request [sportPerson2]  webapp=/solr path=/select params={q=content:(hshs)&hl=on&hl.fragsize=450&hl.fl=content} hits=0 status=0 QTime=30
2019-11-25 19:48:06.675 INFO  (qtp1850180796-20) [   x:sportPerson2] o.a.s.c.S.Request [sportPerson2]  webapp=/solr path=/select params={q=content:(rossi)&hl=on&hl.fragsize=450&hl.fl=content} hits=1 status=0 QTime=30
2019-11-25 19:48:31.622 INFO  (qtp1850180796-19) [   x:sportPerson2] o.a.s.c.S.Request [sportPerson2]  webapp=/solr path=/select params={q=content:(rossi)&hl=on&hl.fragsize=450&hl.fl=content} hits=1 status=0 QTime=20
2019-11-25 19:48:47.942 INFO  (qtp1850180796-15) [   x:sportPerson2] o.a.s.c.S.Request [sportPerson2]  webapp=/solr path=/select params={q=content:(Marquez)&hl=on&hl.fragsize=450&hl.fl=content} hits=0 status=0 QTime=2
2019-11-25 19:50:10.144 INFO  (qtp1850180796-20) [   x:sportPerson2] o.a.s.c.S.Request [sportPerson2]  webapp=/solr path=/select params={q=content:(bella)&hl=on&hl.fragsize=450&hl.fl=content} hits=0 status=0 QTime=0
2019-11-25 19:51:25.010 INFO  (qtp1850180796-19) [   x:sportPerson2] o.a.s.c.S.Request [sportPerson2]  webapp=/solr path=/select params={q=content:(marquez)&hl=on&hl.fragsize=450&hl.fl=content} hits=0 status=0 QTime=0
2019-11-25 21:03:35.531 INFO  (qtp1850180796-18) [   x:sportPerson2] o.a.s.u.p.LogUpdateProcessorFactory [sportPerson2]  webapp=/solr path=/update params={wt=javabin&version=2}{add=[https://en.wikipedia.org/wiki/%C3%81guilas_Blancas (1651209203547635712), https://en.wikipedia.org/wiki/%C3%84ss%C3%A4t_Pori (1651209203576995840), https://en.wikipedia.org/wiki/%C3%89lan_B%C3%A9arnais (1651209203586433024), https://en.wikipedia.org/wiki/%C3%89rik_Morales (1651209203614744576), https://en.wikipedia.org/wiki/%C3%89rik_Morales_vs._Marco_Antonio_Barrera (1651209203643056128), https://en.wikipedia.org/wiki/%C3%89rik_Morales_vs._Marco_Antonio_Barrera_II (1651209203652493312), https://en.wikipedia.org/wiki/%C3%89rik_Morales_vs._Marco_Antonio_Barrera_III (1651209203659833344), https://en.wikipedia.org/wiki/%C4%B0stanbul_B%C3%BCy%C3%BCk%C5%9Fehir_Belediyespor_(basketball) (1651209203665076224), https://en.wikipedia.org/wiki/1954_World_Ice_Hockey_Championships (1651209203671367680), https://en.wikipedia.org/wiki/1955_Le_Mans_disaster (1651209203681853440), ... (1000 adds)]} 0 7147
2019-11-25 21:03:41.110 INFO  (qtp1850180796-21) [   x:sportPerson2] o.a.s.u.p.LogUpdateProcessorFactory [sportPerson2]  webapp=/solr path=/update params={wt=javabin&version=2}{add=[https://en.wikipedia.org/wiki/Matt_Serra (1651209212520300544), https://en.wikipedia.org/wiki/Maur%C3%ADcio_Rua (1651209212525543424), https://en.wikipedia.org/wiki/Max_Biaggi (1651209212530786304), https://en.wikipedia.org/wiki/Maya_Usova (1651209212534980608), https://en.wikipedia.org/wiki/Mazda_R100 (1651209212539174912), https://en.wikipedia.org/wiki/Mazda_RX-3 (1651209212551757824), https://en.wikipedia.org/wiki/McLaren (1651209212557000704), https://en.wikipedia.org/wiki/Medicine_Hat_Tigers (1651209212582166528), https://en.wikipedia.org/wiki/Medieval_football (1651209212586360832), https://en.wikipedia.org/wiki/Melbourne_Storm (1651209212597895168), ... (685 adds)]} 0 4120
2019-11-25 21:03:41.114 INFO  (qtp1850180796-19) [   x:sportPerson2] o.a.s.u.DirectUpdateHandler2 start commit{_version_=1651209216840433664,optimize=false,openSearcher=true,waitSearcher=true,expungeDeletes=false,softCommit=false,prepareCommit=false}
2019-11-25 21:03:41.114 INFO  (qtp1850180796-19) [   x:sportPerson2] o.a.s.u.SolrIndexWriter Calling setCommitData with IW:org.apache.solr.update.SolrIndexWriter@271a51fb commitCommandVersion:1651209216840433664
2019-11-25 21:03:44.796 INFO  (qtp1850180796-19) [   x:sportPerson2] o.a.s.s.SolrIndexSearcher Opening [Searcher@aebde2f[sportPerson2] main]
2019-11-25 21:03:44.798 INFO  (searcherExecutor-15-thread-1-processing-x:sportPerson2) [   x:sportPerson2] o.a.s.c.QuerySenderListener QuerySenderListener sending requests to Searcher@aebde2f[sportPerson2] main{ExitableDirectoryReader(UninvertingDirectoryReader(Uninverting(_0(8.3.0):C2:[diagnostics={os=Mac OS X, java.vendor=AdoptOpenJDK, java.version=1.8.0_222, java.vm.version=25.222-b10, lucene.version=8.3.0, os.arch=x86_64, java.runtime.version=1.8.0_222-b10, source=flush, os.version=10.15.1, timestamp=1574686721425}]:[attributes={Lucene50StoredFieldsFormat.mode=BEST_SPEED}]) Uninverting(_1(8.3.0):C1685:[diagnostics={os=Mac OS X, java.vendor=AdoptOpenJDK, java.version=1.8.0_222, java.vm.version=25.222-b10, lucene.version=8.3.0, os.arch=x86_64, java.runtime.version=1.8.0_222-b10, source=flush, os.version=10.15.1, timestamp=1574715824688}]:[attributes={Lucene50StoredFieldsFormat.mode=BEST_SPEED}])))}
2019-11-25 21:03:44.798 INFO  (qtp1850180796-19) [   x:sportPerson2] o.a.s.u.DirectUpdateHandler2 end_commit_flush
2019-11-25 21:03:44.798 INFO  (searcherExecutor-15-thread-1-processing-x:sportPerson2) [   x:sportPerson2] o.a.s.c.QuerySenderListener QuerySenderListener done.
2019-11-25 21:03:44.805 INFO  (searcherExecutor-15-thread-1-processing-x:sportPerson2) [   x:sportPerson2] o.a.s.c.SolrCore [sportPerson2] Registered new searcher Searcher@aebde2f[sportPerson2] main{ExitableDirectoryReader(UninvertingDirectoryReader(Uninverting(_0(8.3.0):C2:[diagnostics={os=Mac OS X, java.vendor=AdoptOpenJDK, java.version=1.8.0_222, java.vm.version=25.222-b10, lucene.version=8.3.0, os.arch=x86_64, java.runtime.version=1.8.0_222-b10, source=flush, os.version=10.15.1, timestamp=1574686721425}]:[attributes={Lucene50StoredFieldsFormat.mode=BEST_SPEED}]) Uninverting(_1(8.3.0):C1685:[diagnostics={os=Mac OS X, java.vendor=AdoptOpenJDK, java.version=1.8.0_222, java.vm.version=25.222-b10, lucene.version=8.3.0, os.arch=x86_64, java.runtime.version=1.8.0_222-b10, source=flush, os.version=10.15.1, timestamp=1574715824688}]:[attributes={Lucene50StoredFieldsFormat.mode=BEST_SPEED}])))}
2019-11-25 21:03:44.809 INFO  (qtp1850180796-19) [   x:sportPerson2] o.a.s.u.p.LogUpdateProcessorFactory [sportPerson2]  webapp=/solr path=/update params={waitSearcher=true&commit=true&softCommit=false&wt=javabin&version=2}{commit=} 0 3695
2019-11-25 21:03:44.811 INFO  (qtp1850180796-21) [   x:sportPerson2] o.a.s.u.DirectUpdateHandler2 start commit{_version_=1651209220717019136,optimize=false,openSearcher=true,waitSearcher=true,expungeDeletes=false,softCommit=false,prepareCommit=false}
2019-11-25 21:03:44.811 INFO  (qtp1850180796-21) [   x:sportPerson2] o.a.s.u.DirectUpdateHandler2 No uncommitted changes. Skipping IW.commit.
2019-11-25 21:03:44.812 INFO  (qtp1850180796-21) [   x:sportPerson2] o.a.s.u.DirectUpdateHandler2 end_commit_flush
2019-11-25 21:03:44.812 INFO  (qtp1850180796-21) [   x:sportPerson2] o.a.s.u.p.LogUpdateProcessorFactory [sportPerson2]  webapp=/solr path=/update params={waitSearcher=true&commit=true&softCommit=false&wt=javabin&version=2}{commit=} 0 0
2019-11-25 21:03:49.036 INFO  (qtp1850180796-20) [   x:sportPerson2] o.a.s.u.p.LogUpdateProcessorFactory [sportPerson2]  webapp=/solr path=/update params={wt=javabin&version=2}{delete=[https://en.wikipedia.org/wiki/T%C3%BCrk_Telekom_B.K (-1651209225144107008), https://en.wikipedia.org/wiki/St_Helens_R.F.C (-1651209225147252736), https://en.wikipedia.org/wiki/Special:WhatLinksHere/Lists_of_sportspeople (-1651209225147252737), https://en.wikipedia.org/wiki/Special:SpecialPages (-1651209225147252738), https://en.wikipedia.org/wiki/Special:RecentChanges (-1651209225147252739), https://en.wikipedia.org/wiki/Special:Random (-1651209225147252740), https://en.wikipedia.org/wiki/Special:MyTalk (-1651209225147252741), https://en.wikipedia.org/wiki/Special:MyContributions (-1651209225147252742), https://en.wikipedia.org/wiki/Special:BookSources/9780552171311 (-1651209225147252743), https://en.wikipedia.org/wiki/Special:BookSources/9780230747173 (-1651209225147252744), ... (27 deletes)]} 0 5
2019-11-25 21:03:49.049 INFO  (qtp1850180796-19) [   x:sportPerson2] o.a.s.u.DirectUpdateHandler2 start commit{_version_=1651209225160884224,optimize=false,openSearcher=true,waitSearcher=true,expungeDeletes=false,softCommit=false,prepareCommit=false}
2019-11-25 21:03:49.049 INFO  (qtp1850180796-19) [   x:sportPerson2] o.a.s.u.SolrIndexWriter Calling setCommitData with IW:org.apache.solr.update.SolrIndexWriter@271a51fb commitCommandVersion:1651209225160884224
2019-11-25 21:03:49.053 INFO  (qtp1850180796-19) [   x:sportPerson2] o.a.s.s.SolrIndexSearcher Opening [Searcher@287bfd80[sportPerson2] main]
2019-11-25 21:03:49.054 INFO  (qtp1850180796-19) [   x:sportPerson2] o.a.s.u.DirectUpdateHandler2 end_commit_flush
2019-11-25 21:03:49.054 INFO  (searcherExecutor-15-thread-1-processing-x:sportPerson2) [   x:sportPerson2] o.a.s.c.QuerySenderListener QuerySenderListener sending requests to Searcher@287bfd80[sportPerson2] main{ExitableDirectoryReader(UninvertingDirectoryReader(Uninverting(_0(8.3.0):C2:[diagnostics={os=Mac OS X, java.vendor=AdoptOpenJDK, java.version=1.8.0_222, java.vm.version=25.222-b10, lucene.version=8.3.0, os.arch=x86_64, java.runtime.version=1.8.0_222-b10, source=flush, os.version=10.15.1, timestamp=1574686721425}]:[attributes={Lucene50StoredFieldsFormat.mode=BEST_SPEED}]) Uninverting(_1(8.3.0):C1685:[diagnostics={os=Mac OS X, java.vendor=AdoptOpenJDK, java.version=1.8.0_222, java.vm.version=25.222-b10, lucene.version=8.3.0, os.arch=x86_64, java.runtime.version=1.8.0_222-b10, source=flush, os.version=10.15.1, timestamp=1574715824688}]:[attributes={Lucene50StoredFieldsFormat.mode=BEST_SPEED}])))}
2019-11-25 21:03:49.054 INFO  (searcherExecutor-15-thread-1-processing-x:sportPerson2) [   x:sportPerson2] o.a.s.c.QuerySenderListener QuerySenderListener done.
2019-11-25 21:03:49.056 INFO  (searcherExecutor-15-thread-1-processing-x:sportPerson2) [   x:sportPerson2] o.a.s.c.SolrCore [sportPerson2] Registered new searcher Searcher@287bfd80[sportPerson2] main{ExitableDirectoryReader(UninvertingDirectoryReader(Uninverting(_0(8.3.0):C2:[diagnostics={os=Mac OS X, java.vendor=AdoptOpenJDK, java.version=1.8.0_222, java.vm.version=25.222-b10, lucene.version=8.3.0, os.arch=x86_64, java.runtime.version=1.8.0_222-b10, source=flush, os.version=10.15.1, timestamp=1574686721425}]:[attributes={Lucene50StoredFieldsFormat.mode=BEST_SPEED}]) Uninverting(_1(8.3.0):C1685:[diagnostics={os=Mac OS X, java.vendor=AdoptOpenJDK, java.version=1.8.0_222, java.vm.version=25.222-b10, lucene.version=8.3.0, os.arch=x86_64, java.runtime.version=1.8.0_222-b10, source=flush, os.version=10.15.1, timestamp=1574715824688}]:[attributes={Lucene50StoredFieldsFormat.mode=BEST_SPEED}])))}
2019-11-25 21:03:49.057 INFO  (qtp1850180796-19) [   x:sportPerson2] o.a.s.u.p.LogUpdateProcessorFactory [sportPerson2]  webapp=/solr path=/update params={waitSearcher=true&commit=true&softCommit=false&wt=javabin&version=2}{commit=} 0 8
2019-11-25 21:03:49.060 INFO  (qtp1850180796-20) [   x:sportPerson2] o.a.s.u.DirectUpdateHandler2 start commit{_version_=1651209225172418560,optimize=false,openSearcher=true,waitSearcher=true,expungeDeletes=false,softCommit=false,prepareCommit=false}
2019-11-25 21:03:49.060 INFO  (qtp1850180796-20) [   x:sportPerson2] o.a.s.u.DirectUpdateHandler2 No uncommitted changes. Skipping IW.commit.
2019-11-25 21:03:49.060 INFO  (qtp1850180796-20) [   x:sportPerson2] o.a.s.u.DirectUpdateHandler2 end_commit_flush
2019-11-25 21:03:49.060 INFO  (qtp1850180796-20) [   x:sportPerson2] o.a.s.u.p.LogUpdateProcessorFactory [sportPerson2]  webapp=/solr path=/update params={waitSearcher=true&commit=true&softCommit=false&wt=javabin&version=2}{commit=} 0 0
2019-11-25 21:55:06.113 INFO  (qtp1850180796-14) [   x:sportPerson2] o.a.s.c.S.Request [sportPerson2]  webapp=/solr path=/select params={q=content:(rossi)&hl=on&hl.fragsize=450&hl.fl=content} hits=79 status=0 QTime=95
2019-11-25 21:55:23.139 INFO  (qtp1850180796-20) [   x:sportPerson2] o.a.s.c.S.Request [sportPerson2]  webapp=/solr path=/select params={q=content:(marquez)&hl=on&hl.fragsize=450&hl.fl=content} hits=11 status=0 QTime=80
2019-11-25 21:55:42.096 INFO  (qtp1850180796-20) [   x:sportPerson2] o.a.s.c.S.Request [sportPerson2]  webapp=/solr path=/select params={q=content:(oo)&hl=on&hl.fragsize=450&hl.fl=content} hits=6 status=0 QTime=45
2019-11-25 21:55:54.463 INFO  (qtp1850180796-20) [   x:sportPerson2] o.a.s.c.S.Request [sportPerson2]  webapp=/solr path=/select params={q=content:(marcelo)&hl=on&hl.fragsize=450&hl.fl=content} hits=48 status=0 QTime=116
2019-11-25 21:56:29.496 INFO  (qtp1850180796-20) [   x:sportPerson2] o.a.s.c.S.Request [sportPerson2]  webapp=/solr path=/select params={q=content:(marquez)&hl=on&hl.fragsize=450&hl.fl=content} hits=11 status=0 QTime=85
2019-11-25 21:57:14.151 INFO  (qtp1850180796-20) [   x:sportPerson2] o.a.s.c.S.Request [sportPerson2]  webapp=/solr path=/select params={q=content:(marquez)&hl=on&hl.fragsize=450&hl.fl=content} hits=11 status=0 QTime=111
2019-11-25 21:58:25.975 INFO  (qtp1850180796-20) [   x:sportPerson2] o.a.s.c.S.Request [sportPerson2]  webapp=/solr path=/select params={q=content:(marquez)&hl=on&hl.fragsize=450&hl.fl=content} hits=11 status=0 QTime=141
2019-11-25 21:58:42.416 INFO  (qtp1850180796-20) [   x:sportPerson2] o.a.s.c.S.Request [sportPerson2]  webapp=/solr path=/select params={q=content:(marquez)&hl=on&hl.fragsize=450&hl.fl=content} hits=11 status=0 QTime=199
2019-11-25 22:00:17.470 INFO  (qtp1850180796-20) [   x:sportPerson2] o.a.s.c.S.Request [sportPerson2]  webapp=/solr path=/select params={q=content:(marquez)&hl=on&hl.fragsize=450&hl.fl=content} hits=11 status=0 QTime=156
2019-11-25 22:00:57.053 INFO  (qtp1850180796-17) [   x:sportPerson2] o.a.s.c.S.Request [sportPerson2]  webapp=/solr path=/select params={q=content:(marquez)&hl=on&hl.fragsize=450&hl.fl=content} hits=11 status=0 QTime=137
2019-11-25 22:01:19.804 INFO  (qtp1850180796-17) [   x:sportPerson2] o.a.s.c.S.Request [sportPerson2]  webapp=/solr path=/select params={q=content:(marquez)&hl=on&hl.fragsize=450&hl.fl=content} hits=11 status=0 QTime=144
2019-11-25 22:02:05.161 INFO  (qtp1850180796-17) [   x:sportPerson2] o.a.s.c.S.Request [sportPerson2]  webapp=/solr path=/select params={q=content:(marquez)&hl=on&hl.fragsize=450&hl.fl=content} hits=11 status=0 QTime=147
2019-11-25 22:02:30.131 INFO  (qtp1850180796-18) [   x:sportPerson2] o.a.s.c.S.Request [sportPerson2]  webapp=/solr path=/select params={q=content:(federer)&hl=on&hl.fragsize=450&hl.fl=content} hits=58 status=0 QTime=242
2019-11-25 22:02:51.295 INFO  (qtp1850180796-20) [   x:sportPerson2] o.a.s.c.S.Request [sportPerson2]  webapp=/solr path=/select params={q=content:(federer)&hl=on&hl.fragsize=450&hl.fl=content} hits=58 status=0 QTime=375
2019-11-25 22:03:45.631 INFO  (qtp1850180796-18) [   x:sportPerson2] o.a.s.c.S.Request [sportPerson2]  webapp=/solr path=/select params={q=content:(federer)&hl=on&hl.fragsize=450&hl.fl=content} hits=58 status=0 QTime=112
2019-11-25 22:04:28.393 INFO  (qtp1850180796-15) [   x:sportPerson2] o.a.s.c.S.Request [sportPerson2]  webapp=/solr path=/select params={q=content:(marquez)&hl=on&hl.fragsize=450&hl.fl=content} hits=11 status=0 QTime=62
2019-11-25 22:04:37.595 INFO  (qtp1850180796-15) [   x:sportPerson2] o.a.s.c.S.Request [sportPerson2]  webapp=/solr path=/select params={q=content:(marquez)&hl=on&hl.fragsize=450&hl.fl=content} hits=11 status=0 QTime=75
2019-11-25 22:06:38.127 INFO  (qtp1850180796-15) [   x:sportPerson2] o.a.s.c.S.Request [sportPerson2]  webapp=/solr path=/select params={q=content:(marquez)&hl=on&hl.fragsize=450&hl.fl=content} hits=11 status=0 QTime=89
2019-11-25 22:07:16.962 INFO  (qtp1850180796-15) [   x:sportPerson2] o.a.s.c.S.Request [sportPerson2]  webapp=/solr path=/select params={q=content:(marquez)&hl=on&hl.fragsize=450&hl.fl=content} hits=11 status=0 QTime=102
2019-11-25 22:07:57.575 INFO  (qtp1850180796-18) [   x:sportPerson2] o.a.s.c.S.Request [sportPerson2]  webapp=/solr path=/select params={q=content:(marquez)&hl=on&hl.fragsize=450&hl.fl=content} hits=11 status=0 QTime=150
2019-11-25 22:09:53.920 INFO  (qtp1850180796-15) [   x:sportPerson2] o.a.s.c.S.Request [sportPerson2]  webapp=/solr path=/select params={q=content:(marquez)&hl=on&hl.fragsize=450&hl.fl=content} hits=11 status=0 QTime=150
2019-11-25 22:10:47.788 INFO  (qtp1850180796-22) [   x:sportPerson2] o.a.s.c.S.Request [sportPerson2]  webapp=/solr path=/select params={q=content:(ciao)&hl=on&hl.fragsize=450&hl.fl=content} hits=1 status=0 QTime=23
2019-11-25 22:11:09.775 INFO  (qtp1850180796-19) [   x:sportPerson2] o.a.s.c.S.Request [sportPerson2]  webapp=/solr path=/select params={q=content:(scimmia)&hl=on&hl.fragsize=450&hl.fl=content} hits=0 status=0 QTime=8
2019-11-25 22:11:17.898 INFO  (qtp1850180796-15) [   x:sportPerson2] o.a.s.c.S.Request [sportPerson2]  webapp=/solr path=/select params={q=content:(williams)&hl=on&hl.fragsize=450&hl.fl=content} hits=389 status=0 QTime=209
2019-11-25 22:11:32.454 INFO  (qtp1850180796-19) [   x:sportPerson2] o.a.s.c.S.Request [sportPerson2]  webapp=/solr path=/select params={q=content:(marquez)&hl=on&hl.fragsize=450&hl.fl=content} hits=11 status=0 QTime=106
2019-11-25 22:11:55.421 INFO  (qtp1850180796-15) [   x:sportPerson2] o.a.s.c.S.Request [sportPerson2]  webapp=/solr path=/select params={q=content:(Valentino+Rossi)&hl=on&hl.fragsize=450&hl.fl=content} hits=81 status=0 QTime=157
2019-11-25 22:14:52.594 INFO  (qtp1850180796-22) [   x:sportPerson2] o.a.s.c.S.Request [sportPerson2]  webapp=/solr path=/select params={q=content:(marquez)&hl=on&hl.fragsize=450&hl.fl=content} hits=11 status=0 QTime=114
2019-11-25 22:15:43.175 INFO  (qtp1850180796-14) [   x:sportPerson2] o.a.s.c.S.Request [sportPerson2]  webapp=/solr path=/select params={q=content:(marquez)&hl=on&hl.fragsize=450&hl.fl=content} hits=11 status=0 QTime=145
2019-11-25 22:16:59.587 INFO  (qtp1850180796-22) [   x:sportPerson2] o.a.s.c.S.Request [sportPerson2]  webapp=/solr path=/select params={q=content:(rossi)&hl=on&hl.fragsize=450&hl.fl=content} hits=79 status=0 QTime=154
2019-11-25 22:17:08.993 INFO  (qtp1850180796-18) [   x:sportPerson2] o.a.s.c.S.Request [sportPerson2]  webapp=/solr path=/select params={q=content:(williams)&hl=on&hl.fragsize=450&hl.fl=content} hits=389 status=0 QTime=177
2019-11-25 22:18:21.614 INFO  (qtp1850180796-22) [   x:sportPerson2] o.a.s.c.S.Request [sportPerson2]  webapp=/solr path=/select params={q=content:(marquez)&hl=on&hl.fragsize=450&hl.fl=content} hits=11 status=0 QTime=134
2019-11-25 22:19:09.602 INFO  (qtp1850180796-18) [   x:sportPerson2] o.a.s.c.S.Request [sportPerson2]  webapp=/solr path=/select params={q=content:(ciao)&hl=on&hl.fragsize=450&hl.fl=content} hits=1 status=0 QTime=6
2019-11-25 22:19:13.149 INFO  (qtp1850180796-22) [   x:sportPerson2] o.a.s.c.S.Request [sportPerson2]  webapp=/solr path=/select params={q=content:(bella)&hl=on&hl.fragsize=450&hl.fl=content} hits=15 status=0 QTime=138
2019-11-25 22:20:37.046 INFO  (qtp1850180796-22) [   x:sportPerson2] o.a.s.c.S.Request [sportPerson2]  webapp=/solr path=/select params={q=content:(marquez)&hl=on&hl.fragsize=450&hl.fl=content} hits=11 status=0 QTime=247
2019-11-25 22:22:13.220 INFO  (qtp1850180796-18) [   x:sportPerson2] o.a.s.c.S.Request [sportPerson2]  webapp=/solr path=/select params={q=content:(nela)&hl=on&hl.fragsize=450&hl.fl=content} hits=0 status=0 QTime=6
2019-11-25 22:22:18.960 INFO  (qtp1850180796-15) [   x:sportPerson2] o.a.s.c.S.Request [sportPerson2]  webapp=/solr path=/select params={q=content:(michelle)&hl=on&hl.fragsize=450&hl.fl=content} hits=87 status=0 QTime=125
2019-11-25 22:22:51.239 INFO  (qtp1850180796-18) [   x:sportPerson2] o.a.s.c.S.Request [sportPerson2]  webapp=/solr path=/select params={q=content:(tr)&hl=on&hl.fragsize=450&hl.fl=content} hits=43 status=0 QTime=72
2019-11-25 22:25:25.205 INFO  (qtp1850180796-21) [   x:sportPerson2] o.a.s.c.S.Request [sportPerson2]  webapp=/solr path=/select params={q=content:(rossi)&hl=on&hl.fragsize=450&hl.fl=content} hits=79 status=0 QTime=113
2019-11-25 22:25:40.361 INFO  (qtp1850180796-15) [   x:sportPerson2] o.a.s.c.S.Request [sportPerson2]  webapp=/solr path=/select params={q=content:(marquez)&hl=on&hl.fragsize=450&hl.fl=content} hits=11 status=0 QTime=129
2019-11-25 22:27:23.630 INFO  (qtp1850180796-21) [   x:sportPerson2] o.a.s.c.S.Request [sportPerson2]  webapp=/solr path=/select params={q=content:(syria)&hl=on&hl.fragsize=450&hl.fl=content} hits=50 status=0 QTime=178
2019-11-25 22:27:36.479 INFO  (qtp1850180796-15) [   x:sportPerson2] o.a.s.c.S.Request [sportPerson2]  webapp=/solr path=/select params={q=content:(basket)&hl=on&hl.fragsize=450&hl.fl=content} hits=292 status=0 QTime=68
2019-11-26 00:08:24.151 INFO  (qtp1850180796-21) [   x:sportPerson2] o.a.s.u.p.LogUpdateProcessorFactory [sportPerson2]  webapp=/solr path=/update params={wt=javabin&version=2}{add=[https://en.wikipedia.org/wiki/%C3%89p%C3%A9e (1651220833331314688), https://en.wikipedia.org/wiki/%C5%A0ar%C5%ABnas_Jasikevi%C4%8Dius (1651220833371160576), https://en.wikipedia.org/wiki/%C5%BDeljko_Obradovi%C4%87 (1651220833382694912), https://en.wikipedia.org/wiki/100-yard_dash (1651220833388986368), https://en.wikipedia.org/wiki/1869_New_Jersey_vs._Rutgers_football_game (1651220833392132096), https://en.wikipedia.org/wiki/1876_United_States_presidential_election (1651220833397374976), https://en.wikipedia.org/wiki/1893_Penn_State_Nittany_Lions_football_team (1651220833406812160), https://en.wikipedia.org/wiki/1896_VFA_season (1651220833407860736), https://en.wikipedia.org/wiki/1898_Penn_State_Nittany_Lions_football_team (1651220833412055040), https://en.wikipedia.org/wiki/1912%E2%80%9313_French_Ice_Hockey_Championship (1651220833414152192), ... (1000 adds)]} 0 4705
2019-11-26 00:08:30.734 INFO  (qtp1850180796-20) [   x:sportPerson2] o.a.s.u.p.LogUpdateProcessorFactory [sportPerson2]  webapp=/solr path=/update params={wt=javabin&version=2}{add=[https://en.wikipedia.org/wiki/Jacques_Ochs (1651220839834583040), https://en.wikipedia.org/wiki/Jamaica_national_rugby_league_team (1651220839837728768), https://en.wikipedia.org/wiki/James_Roby (1651220839841923072), https://en.wikipedia.org/wiki/Jamestown_Ironmen (1651220839846117376), https://en.wikipedia.org/wiki/Jan_Janssen (1651220839847165952), https://en.wikipedia.org/wiki/Jan_Snijders (1651220839852408832), https://en.wikipedia.org/wiki/Jason_Lezak (1651220839853457408), https://en.wikipedia.org/wiki/Jay_Monahan (1651220839858700288), https://en.wikipedia.org/wiki/Jayant_Rajora (1651220839859748864), https://en.wikipedia.org/wiki/Jedburgh (1651220839860797440), ... (997 adds)]} 0 5070
2019-11-26 00:08:30.740 INFO  (qtp1850180796-23) [   x:sportPerson2] o.a.s.u.DirectUpdateHandler2 start commit{_version_=1651220845155057664,optimize=false,openSearcher=true,waitSearcher=true,expungeDeletes=false,softCommit=false,prepareCommit=false}
2019-11-26 00:08:30.740 INFO  (qtp1850180796-23) [   x:sportPerson2] o.a.s.u.SolrIndexWriter Calling setCommitData with IW:org.apache.solr.update.SolrIndexWriter@271a51fb commitCommandVersion:1651220845155057664
2019-11-26 00:08:33.855 INFO  (qtp1850180796-23) [   x:sportPerson2] o.a.s.s.SolrIndexSearcher Opening [Searcher@5618e068[sportPerson2] main]
2019-11-26 00:08:33.857 INFO  (searcherExecutor-15-thread-1-processing-x:sportPerson2) [   x:sportPerson2] o.a.s.c.QuerySenderListener QuerySenderListener sending requests to Searcher@5618e068[sportPerson2] main{ExitableDirectoryReader(UninvertingDirectoryReader(Uninverting(_0(8.3.0):C2:[diagnostics={os=Mac OS X, java.vendor=AdoptOpenJDK, java.version=1.8.0_222, java.vm.version=25.222-b10, lucene.version=8.3.0, os.arch=x86_64, java.runtime.version=1.8.0_222-b10, source=flush, os.version=10.15.1, timestamp=1574686721425}]:[attributes={Lucene50StoredFieldsFormat.mode=BEST_SPEED}]) Uninverting(_1(8.3.0):C1685:[diagnostics={os=Mac OS X, java.vendor=AdoptOpenJDK, java.version=1.8.0_222, java.vm.version=25.222-b10, lucene.version=8.3.0, os.arch=x86_64, java.runtime.version=1.8.0_222-b10, source=flush, os.version=10.15.1, timestamp=1574715824688}]:[attributes={Lucene50StoredFieldsFormat.mode=BEST_SPEED}]) Uninverting(_2(8.3.0):C1997:[diagnostics={os=Mac OS X, java.vendor=AdoptOpenJDK, java.version=1.8.0_222, java.vm.version=25.222-b10, lucene.version=8.3.0, os.arch=x86_64, java.runtime.version=1.8.0_222-b10, source=flush, os.version=10.15.1, timestamp=1574726913749}]:[attributes={Lucene50StoredFieldsFormat.mode=BEST_SPEED}])))}
2019-11-26 00:08:33.857 INFO  (searcherExecutor-15-thread-1-processing-x:sportPerson2) [   x:sportPerson2] o.a.s.c.QuerySenderListener QuerySenderListener done.
2019-11-26 00:08:33.858 INFO  (qtp1850180796-23) [   x:sportPerson2] o.a.s.u.DirectUpdateHandler2 end_commit_flush
2019-11-26 00:08:33.861 INFO  (searcherExecutor-15-thread-1-processing-x:sportPerson2) [   x:sportPerson2] o.a.s.c.SolrCore [sportPerson2] Registered new searcher Searcher@5618e068[sportPerson2] main{ExitableDirectoryReader(UninvertingDirectoryReader(Uninverting(_0(8.3.0):C2:[diagnostics={os=Mac OS X, java.vendor=AdoptOpenJDK, java.version=1.8.0_222, java.vm.version=25.222-b10, lucene.version=8.3.0, os.arch=x86_64, java.runtime.version=1.8.0_222-b10, source=flush, os.version=10.15.1, timestamp=1574686721425}]:[attributes={Lucene50StoredFieldsFormat.mode=BEST_SPEED}]) Uninverting(_1(8.3.0):C1685:[diagnostics={os=Mac OS X, java.vendor=AdoptOpenJDK, java.version=1.8.0_222, java.vm.version=25.222-b10, lucene.version=8.3.0, os.arch=x86_64, java.runtime.version=1.8.0_222-b10, source=flush, os.version=10.15.1, timestamp=1574715824688}]:[attributes={Lucene50StoredFieldsFormat.mode=BEST_SPEED}]) Uninverting(_2(8.3.0):C1997:[diagnostics={os=Mac OS X, java.vendor=AdoptOpenJDK, java.version=1.8.0_222, java.vm.version=25.222-b10, lucene.version=8.3.0, os.arch=x86_64, java.runtime.version=1.8.0_222-b10, source=flush, os.version=10.15.1, timestamp=1574726913749}]:[attributes={Lucene50StoredFieldsFormat.mode=BEST_SPEED}])))}
2019-11-26 00:08:33.862 INFO  (qtp1850180796-23) [   x:sportPerson2] o.a.s.u.p.LogUpdateProcessorFactory [sportPerson2]  webapp=/solr path=/update params={waitSearcher=true&commit=true&softCommit=false&wt=javabin&version=2}{commit=} 0 3122
2019-11-26 00:08:33.864 INFO  (qtp1850180796-20) [   x:sportPerson2] o.a.s.u.DirectUpdateHandler2 start commit{_version_=1651220848431857664,optimize=false,openSearcher=true,waitSearcher=true,expungeDeletes=false,softCommit=false,prepareCommit=false}
2019-11-26 00:08:33.864 INFO  (qtp1850180796-20) [   x:sportPerson2] o.a.s.u.DirectUpdateHandler2 No uncommitted changes. Skipping IW.commit.
2019-11-26 00:08:33.865 INFO  (qtp1850180796-20) [   x:sportPerson2] o.a.s.u.DirectUpdateHandler2 end_commit_flush
2019-11-26 00:08:33.865 INFO  (qtp1850180796-20) [   x:sportPerson2] o.a.s.u.p.LogUpdateProcessorFactory [sportPerson2]  webapp=/solr path=/update params={waitSearcher=true&commit=true&softCommit=false&wt=javabin&version=2}{commit=} 0 1
2019-11-26 00:08:38.565 INFO  (qtp1850180796-22) [   x:sportPerson2] o.a.s.u.p.LogUpdateProcessorFactory [sportPerson2]  webapp=/solr path=/update params={wt=javabin&version=2}{delete=[https://en.wikipedia.org/wiki/Panathinaikos_B.C (-1651220853357019136), https://en.wikipedia.org/wiki/P.A.O.K._B.C (-1651220853359116288), https://en.wikipedia.org/wiki/Olympiacos_B.C (-1651220853359116289), https://en.wikipedia.org/wiki/Maccabi_Tel_Aviv_B.C (-1651220853359116290), https://en.wikipedia.org/wiki/Hapoel_Tel_Aviv_B.C (-1651220853359116291), https://en.wikipedia.org/wiki/Dar%C3%BC%C5%9F%C5%9Fafaka_S.K (-1651220853359116292), https://en.wikipedia.org/wiki/Competitor_Group,_Inc (-1651220853359116293), https://en.wikipedia.org/wiki/Aris_B.C (-1651220853359116294), https://en.wikipedia.org/wiki/Al_Unser,_Jr (-1651220853359116295), https://en.wikipedia.org/wiki/AEK_B.C (-1651220853359116296), ... (71 deletes)]} 0 3
2019-11-26 00:08:38.581 INFO  (qtp1850180796-20) [   x:sportPerson2] o.a.s.u.DirectUpdateHandler2 start commit{_version_=1651220853377990656,optimize=false,openSearcher=true,waitSearcher=true,expungeDeletes=false,softCommit=false,prepareCommit=false}
2019-11-26 00:08:38.581 INFO  (qtp1850180796-20) [   x:sportPerson2] o.a.s.u.SolrIndexWriter Calling setCommitData with IW:org.apache.solr.update.SolrIndexWriter@271a51fb commitCommandVersion:1651220853377990656
2019-11-26 00:08:38.586 INFO  (qtp1850180796-20) [   x:sportPerson2] o.a.s.s.SolrIndexSearcher Opening [Searcher@5e1115e5[sportPerson2] main]
2019-11-26 00:08:38.588 INFO  (searcherExecutor-15-thread-1-processing-x:sportPerson2) [   x:sportPerson2] o.a.s.c.QuerySenderListener QuerySenderListener sending requests to Searcher@5e1115e5[sportPerson2] main{ExitableDirectoryReader(UninvertingDirectoryReader(Uninverting(_0(8.3.0):C2:[diagnostics={os=Mac OS X, java.vendor=AdoptOpenJDK, java.version=1.8.0_222, java.vm.version=25.222-b10, lucene.version=8.3.0, os.arch=x86_64, java.runtime.version=1.8.0_222-b10, source=flush, os.version=10.15.1, timestamp=1574686721425}]:[attributes={Lucene50StoredFieldsFormat.mode=BEST_SPEED}]) Uninverting(_1(8.3.0):C1685:[diagnostics={os=Mac OS X, java.vendor=AdoptOpenJDK, java.version=1.8.0_222, java.vm.version=25.222-b10, lucene.version=8.3.0, os.arch=x86_64, java.runtime.version=1.8.0_222-b10, source=flush, os.version=10.15.1, timestamp=1574715824688}]:[attributes={Lucene50StoredFieldsFormat.mode=BEST_SPEED}]) Uninverting(_2(8.3.0):C1997:[diagnostics={os=Mac OS X, java.vendor=AdoptOpenJDK, java.version=1.8.0_222, java.vm.version=25.222-b10, lucene.version=8.3.0, os.arch=x86_64, java.runtime.version=1.8.0_222-b10, source=flush, os.version=10.15.1, timestamp=1574726913749}]:[attributes={Lucene50StoredFieldsFormat.mode=BEST_SPEED}])))}
2019-11-26 00:08:38.588 INFO  (searcherExecutor-15-thread-1-processing-x:sportPerson2) [   x:sportPerson2] o.a.s.c.QuerySenderListener QuerySenderListener done.
2019-11-26 00:08:38.592 INFO  (searcherExecutor-15-thread-1-processing-x:sportPerson2) [   x:sportPerson2] o.a.s.c.SolrCore [sportPerson2] Registered new searcher Searcher@5e1115e5[sportPerson2] main{ExitableDirectoryReader(UninvertingDirectoryReader(Uninverting(_0(8.3.0):C2:[diagnostics={os=Mac OS X, java.vendor=AdoptOpenJDK, java.version=1.8.0_222, java.vm.version=25.222-b10, lucene.version=8.3.0, os.arch=x86_64, java.runtime.version=1.8.0_222-b10, source=flush, os.version=10.15.1, timestamp=1574686721425}]:[attributes={Lucene50StoredFieldsFormat.mode=BEST_SPEED}]) Uninverting(_1(8.3.0):C1685:[diagnostics={os=Mac OS X, java.vendor=AdoptOpenJDK, java.version=1.8.0_222, java.vm.version=25.222-b10, lucene.version=8.3.0, os.arch=x86_64, java.runtime.version=1.8.0_222-b10, source=flush, os.version=10.15.1, timestamp=1574715824688}]:[attributes={Lucene50StoredFieldsFormat.mode=BEST_SPEED}]) Uninverting(_2(8.3.0):C1997:[diagnostics={os=Mac OS X, java.vendor=AdoptOpenJDK, java.version=1.8.0_222, java.vm.version=25.222-b10, lucene.version=8.3.0, os.arch=x86_64, java.runtime.version=1.8.0_222-b10, source=flush, os.version=10.15.1, timestamp=1574726913749}]:[attributes={Lucene50StoredFieldsFormat.mode=BEST_SPEED}])))}
2019-11-26 00:08:38.593 INFO  (qtp1850180796-20) [   x:sportPerson2] o.a.s.u.DirectUpdateHandler2 end_commit_flush
2019-11-26 00:08:38.602 INFO  (qtp1850180796-20) [   x:sportPerson2] o.a.s.u.p.LogUpdateProcessorFactory [sportPerson2]  webapp=/solr path=/update params={waitSearcher=true&commit=true&softCommit=false&wt=javabin&version=2}{commit=} 0 21
2019-11-26 00:08:38.608 INFO  (qtp1850180796-22) [   x:sportPerson2] o.a.s.u.DirectUpdateHandler2 start commit{_version_=1651220853406302208,optimize=false,openSearcher=true,waitSearcher=true,expungeDeletes=false,softCommit=false,prepareCommit=false}
2019-11-26 00:08:38.608 INFO  (qtp1850180796-22) [   x:sportPerson2] o.a.s.u.DirectUpdateHandler2 No uncommitted changes. Skipping IW.commit.
2019-11-26 00:08:38.608 INFO  (qtp1850180796-22) [   x:sportPerson2] o.a.s.u.DirectUpdateHandler2 end_commit_flush
2019-11-26 00:08:38.610 INFO  (qtp1850180796-22) [   x:sportPerson2] o.a.s.u.p.LogUpdateProcessorFactory [sportPerson2]  webapp=/solr path=/update params={waitSearcher=true&commit=true&softCommit=false&wt=javabin&version=2}{commit=} 0 2
2019-11-26 06:01:41.472 INFO  (qtp1850180796-20) [   x:sportPerson2] o.a.s.c.S.Request [sportPerson2]  webapp=/solr path=/select params={q=*:*&_=1574680088520} hits=3684 status=0 QTime=2
2019-11-26 08:45:03.471 INFO  (qtp1850180796-21) [   x:sportPerson2] o.a.s.c.S.Request [sportPerson2]  webapp=/solr path=/select params={q=content:(rossi)&hl=on&hl.fragsize=450&hl.fl=content} hits=118 status=0 QTime=358
2019-11-26 08:45:23.359 INFO  (qtp1850180796-23) [   x:sportPerson2] o.a.s.c.S.Request [sportPerson2]  webapp=/solr path=/select params={q=content:(marquez)&hl=on&hl.fragsize=450&hl.fl=content} hits=14 status=0 QTime=189
2019-11-26 08:46:17.754 INFO  (qtp1850180796-18) [   x:sportPerson2] o.a.s.c.S.Request [sportPerson2]  webapp=/solr path=/select params={q=content:(màrquez)&hl=on&hl.fragsize=450&hl.fl=content} hits=0 status=0 QTime=1
2019-11-26 09:20:29.130 INFO  (qtp1850180796-23) [   x:sportPerson2] o.a.s.c.S.Request [sportPerson2]  webapp=/solr path=/select params={q=content:(rossi)&hl=on&hl.fragsize=450&hl.fl=content} hits=118 status=0 QTime=150
2019-11-26 09:20:48.737 INFO  (qtp1850180796-18) [   x:sportPerson2] o.a.s.c.S.Request [sportPerson2]  webapp=/solr path=/select params={q=content:(marquez)&hl=on&hl.fragsize=450&hl.fl=content} hits=14 status=0 QTime=162
2019-11-26 09:22:15.193 INFO  (qtp1850180796-23) [   x:sportPerson2] o.a.s.c.S.Request [sportPerson2]  webapp=/solr path=/select params={q=content:(maqrquez)&hl=on&hl.fragsize=450&hl.fl=content} hits=0 status=0 QTime=1
2019-11-26 09:22:19.895 INFO  (qtp1850180796-18) [   x:sportPerson2] o.a.s.c.S.Request [sportPerson2]  webapp=/solr path=/select params={q=content:(màrquez)&hl=on&hl.fragsize=450&hl.fl=content} hits=0 status=0 QTime=0
2019-11-26 09:22:20.499 INFO  (qtp1850180796-23) [   x:sportPerson2] o.a.s.c.S.Request [sportPerson2]  webapp=/solr path=/select params={q=content:(màrquez)&hl=on&hl.fragsize=450&hl.fl=content} hits=0 status=0 QTime=0
2019-11-26 09:22:20.651 INFO  (qtp1850180796-19) [   x:sportPerson2] o.a.s.c.S.Request [sportPerson2]  webapp=/solr path=/select params={q=content:(màrquez)&hl=on&hl.fragsize=450&hl.fl=content} hits=0 status=0 QTime=0
2019-11-26 09:22:20.790 INFO  (qtp1850180796-18) [   x:sportPerson2] o.a.s.c.S.Request [sportPerson2]  webapp=/solr path=/select params={q=content:(màrquez)&hl=on&hl.fragsize=450&hl.fl=content} hits=0 status=0 QTime=0
2019-11-26 09:22:37.979 INFO  (qtp1850180796-23) [   x:sportPerson2] o.a.s.c.S.Request [sportPerson2]  webapp=/solr path=/select params={q=content:(marquez)&hl=on&hl.fragsize=450&hl.fl=content} hits=14 status=0 QTime=181
2019-11-26 10:23:46.817 INFO  (qtp1850180796-19) [   x:sportPerson2] o.a.s.c.S.Request [sportPerson2]  webapp=/solr path=/select params={q=content:(marquez)&hl=on&hl.fragsize=450&hl.fl=content} hits=14 status=0 QTime=170
2019-11-26 10:24:01.806 INFO  (qtp1850180796-23) [   x:sportPerson2] o.a.s.c.S.Request [sportPerson2]  webapp=/solr path=/select params={q=content:(márquez)&hl=on&hl.fragsize=450&hl.fl=content} hits=55 status=0 QTime=170
2019-11-26 10:24:20.948 INFO  (qtp1850180796-19) [   x:sportPerson2] o.a.s.c.S.Request [sportPerson2]  webapp=/solr path=/select params={q=content:(marquez)&hl=on&hl.fragsize=450&hl.fl=content} hits=14 status=0 QTime=177
2019-11-26 10:24:27.300 INFO  (qtp1850180796-23) [   x:sportPerson2] o.a.s.c.S.Request [sportPerson2]  webapp=/solr path=/select params={q=content:(màrquez)&hl=on&hl.fragsize=450&hl.fl=content} hits=0 status=0 QTime=0
2019-11-26 10:24:32.816 INFO  (qtp1850180796-19) [   x:sportPerson2] o.a.s.c.S.Request [sportPerson2]  webapp=/solr path=/select params={q=content:(márquez)&hl=on&hl.fragsize=450&hl.fl=content} hits=55 status=0 QTime=91
2019-11-26 10:33:25.290 INFO  (qtp1850180796-21) [   x:sportPerson2] o.a.s.c.S.Request [sportPerson2]  webapp=/solr path=/select params={q=content:(marquez)&hl=on&hl.fragsize=450&hl.fl=content} hits=14 status=0 QTime=160
2019-11-26 22:54:14.147 INFO  (qtp1850180796-14) [   x:sportPerson2] o.a.s.c.S.Request [sportPerson2]  webapp=/solr path=/select params={q=content:(pestoni)&hl=on&hl.fragsize=450&hl.fl=content} hits=1 status=0 QTime=97
2019-11-26 22:54:30.091 INFO  (qtp1850180796-19) [   x:sportPerson2] o.a.s.c.S.Request [sportPerson2]  webapp=/solr path=/select params={q=content:(ambri)&hl=on&hl.fragsize=450&hl.fl=content} hits=4 status=0 QTime=141
2019-11-26 22:54:43.449 INFO  (qtp1850180796-23) [   x:sportPerson2] o.a.s.c.S.Request [sportPerson2]  webapp=/solr path=/select params={q=content:(bianchi)&hl=on&hl.fragsize=450&hl.fl=content} hits=66 status=0 QTime=187
2019-11-26 22:54:55.913 INFO  (qtp1850180796-19) [   x:sportPerson2] o.a.s.c.S.Request [sportPerson2]  webapp=/solr path=/select params={q=content:(fora)&hl=on&hl.fragsize=450&hl.fl=content} hits=10 status=0 QTime=190
2019-11-26 22:55:14.179 INFO  (qtp1850180796-23) [   x:sportPerson2] o.a.s.c.S.Request [sportPerson2]  webapp=/solr path=/select params={q=content:(fora+michael)&hl=on&hl.fragsize=450&hl.fl=content} hits=1334 status=0 QTime=239
2019-11-26 22:55:28.407 INFO  (qtp1850180796-19) [   x:sportPerson2] o.a.s.c.S.Request [sportPerson2]  webapp=/solr path=/select params={q=content:(asia)&hl=on&hl.fragsize=450&hl.fl=content} hits=731 status=0 QTime=132
2019-11-26 22:55:36.480 INFO  (qtp1850180796-23) [   x:sportPerson2] o.a.s.c.S.Request [sportPerson2]  webapp=/solr path=/select params={q=content:(federer)&hl=on&hl.fragsize=450&hl.fl=content} hits=84 status=0 QTime=265
2019-11-27 07:35:44.363 INFO  (ShutdownMonitor) [   ] o.e.j.s.AbstractConnector Stopped ServerConnector@4b2bac3f{HTTP/1.1,[http/1.1, h2c]}{0.0.0.0:8983}
2019-11-27 07:35:44.364 INFO  (ShutdownMonitor) [   ] o.e.j.s.session node0 Stopped scavenging
2019-11-27 07:35:44.384 INFO  (ShutdownMonitor) [   ] o.a.s.c.CoreContainer Shutting down CoreContainer instance=208684473
2019-11-27 07:35:44.399 INFO  (coreCloseExecutor-20-thread-2) [   x:sportPerson2] o.a.s.c.SolrCore [sportPerson2]  CLOSING SolrCore org.apache.solr.core.SolrCore@5c14bf3
2019-11-27 07:35:44.399 INFO  (coreCloseExecutor-20-thread-1) [   x:sportPerson] o.a.s.c.SolrCore [sportPerson]  CLOSING SolrCore org.apache.solr.core.SolrCore@12100107
2019-11-27 07:35:44.402 INFO  (coreCloseExecutor-20-thread-1) [   x:sportPerson] o.a.s.m.SolrMetricManager Closing metric reporters for registry=solr.core.sportPerson, tag=SolrCore@12100107
2019-11-27 07:35:44.409 INFO  (coreCloseExecutor-20-thread-1) [   x:sportPerson] o.a.s.m.r.SolrJmxReporter Closing reporter [org.apache.solr.metrics.reporters.SolrJmxReporter@2aafee8: rootName = null, domain = solr.core.sportPerson, service url = null, agent id = null] for registry solr.core.sportPerson / com.codahale.metrics.MetricRegistry@133960fa
2019-11-27 07:35:44.448 INFO  (coreCloseExecutor-20-thread-2) [   x:sportPerson2] o.a.s.m.SolrMetricManager Closing metric reporters for registry=solr.core.sportPerson2, tag=SolrCore@5c14bf3
2019-11-27 07:35:44.448 INFO  (coreCloseExecutor-20-thread-2) [   x:sportPerson2] o.a.s.m.r.SolrJmxReporter Closing reporter [org.apache.solr.metrics.reporters.SolrJmxReporter@6dad46d6: rootName = null, domain = solr.core.sportPerson2, service url = null, agent id = null] for registry solr.core.sportPerson2 / com.codahale.metrics.MetricRegistry@13aab742
2019-11-27 07:35:44.567 INFO  (ShutdownMonitor) [   ] o.a.s.m.SolrMetricManager Closing metric reporters for registry=solr.node, tag=null
2019-11-27 07:35:44.567 INFO  (ShutdownMonitor) [   ] o.a.s.m.r.SolrJmxReporter Closing reporter [org.apache.solr.metrics.reporters.SolrJmxReporter@ab7a938: rootName = null, domain = solr.node, service url = null, agent id = null] for registry solr.node / com.codahale.metrics.MetricRegistry@538b309a
2019-11-27 07:35:44.571 INFO  (ShutdownMonitor) [   ] o.a.s.m.SolrMetricManager Closing metric reporters for registry=solr.jvm, tag=null
2019-11-27 07:35:44.573 INFO  (ShutdownMonitor) [   ] o.a.s.m.r.SolrJmxReporter Closing reporter [org.apache.solr.metrics.reporters.SolrJmxReporter@5dbe30be: rootName = null, domain = solr.jvm, service url = null, agent id = null] for registry solr.jvm / com.codahale.metrics.MetricRegistry@36de081a
2019-11-27 07:35:44.574 INFO  (ShutdownMonitor) [   ] o.a.s.m.SolrMetricManager Closing metric reporters for registry=solr.jetty, tag=null
2019-11-27 07:35:44.574 INFO  (ShutdownMonitor) [   ] o.a.s.m.r.SolrJmxReporter Closing reporter [org.apache.solr.metrics.reporters.SolrJmxReporter@4fe89c24: rootName = null, domain = solr.jetty, service url = null, agent id = null] for registry solr.jetty / com.codahale.metrics.MetricRegistry@774b3352
2019-11-27 07:35:44.693 INFO  (ShutdownMonitor) [   ] o.e.j.s.h.ContextHandler Stopped o.e.j.w.WebAppContext@693fe6c9{/solr,null,UNAVAILABLE}{/Users/omini/IRP/solr-8.3.0/server/solr-webapp/webapp}
