2019-11-24 09:36:26.932 INFO  (main) [   ] o.e.j.u.log Logging initialized @1389ms to org.eclipse.jetty.util.log.Slf4jLog
2019-11-24 09:36:27.138 WARN  (main) [   ] o.e.j.x.XmlConfiguration Deprecated method public void org.eclipse.jetty.rewrite.handler.RedirectRegexRule.setReplacement(java.lang.String) in file:///Users/omini/IRP/solr-8.3.0/server/etc/jetty.xml
2019-11-24 09:36:27.254 WARN  (main) [   ] o.e.j.s.AbstractConnector Ignoring deprecated socket close linger time
2019-11-24 09:36:27.254 WARN  (main) [   ] o.e.j.x.XmlConfiguration Deprecated method public void org.eclipse.jetty.server.ServerConnector.setSoLingerTime(int) in file:///Users/omini/IRP/solr-8.3.0/server/etc/jetty-http.xml
2019-11-24 09:36:27.265 INFO  (main) [   ] o.e.j.s.Server jetty-9.4.19.v20190610; built: 2019-06-10T16:30:51.723Z; git: afcf563148970e98786327af5e07c261fda175d3; jvm 1.8.0_222-b10
2019-11-24 09:36:27.296 INFO  (main) [   ] o.e.j.d.p.ScanningAppProvider Deployment monitor [file:///Users/omini/IRP/solr-8.3.0/server/contexts/] at interval 0
2019-11-24 09:36:28.044 INFO  (main) [   ] o.e.j.w.StandardDescriptorProcessor NO JSP Support for /solr, did not find org.apache.jasper.servlet.JspServlet
2019-11-24 09:36:28.061 INFO  (main) [   ] o.e.j.s.session DefaultSessionIdManager workerName=node0
2019-11-24 09:36:28.062 INFO  (main) [   ] o.e.j.s.session No SessionScavenger set, using defaults
2019-11-24 09:36:28.068 INFO  (main) [   ] o.e.j.s.session node0 Scavenging every 660000ms
2019-11-24 09:36:28.188 INFO  (main) [   ] o.a.s.s.SolrDispatchFilter Using logger factory org.apache.logging.slf4j.Log4jLoggerFactory
2019-11-24 09:36:28.194 INFO  (main) [   ] o.a.s.s.SolrDispatchFilter  ___      _       Welcome to Apache Solr™ version 8.3.0
2019-11-24 09:36:28.194 INFO  (main) [   ] o.a.s.s.SolrDispatchFilter / __| ___| |_ _   Starting in standalone mode on port 8983
2019-11-24 09:36:28.194 INFO  (main) [   ] o.a.s.s.SolrDispatchFilter \__ \/ _ \ | '_|  Install dir: /Users/omini/IRP/solr-8.3.0
2019-11-24 09:36:28.195 INFO  (main) [   ] o.a.s.s.SolrDispatchFilter |___/\___/_|_|    Start time: 2019-11-24T09:36:28.195Z
2019-11-24 09:36:28.228 INFO  (main) [   ] o.a.s.c.SolrResourceLoader Using system property solr.solr.home: /Users/omini/IRP/solr-8.3.0/server/solr
2019-11-24 09:36:28.239 INFO  (main) [   ] o.a.s.c.SolrXmlConfig Loading container configuration from /Users/omini/IRP/solr-8.3.0/server/solr/solr.xml
2019-11-24 09:36:28.419 INFO  (main) [   ] o.a.s.c.SolrXmlConfig MBean server found: com.sun.jmx.mbeanserver.JmxMBeanServer@14ec4505, but no JMX reporters were configured - adding default JMX reporter.
2019-11-24 09:36:28.816 INFO  (main) [   ] o.a.s.h.c.HttpShardHandlerFactory Host whitelist initialized: WhitelistHostChecker [whitelistHosts=null, whitelistHostCheckingEnabled=true]
2019-11-24 09:36:29.032 WARN  (main) [   ] o.e.j.u.s.S.config Trusting all certificates configured for Client@4ce1d6d0[provider=null,keyStore=null,trustStore=null]
2019-11-24 09:36:29.032 WARN  (main) [   ] o.e.j.u.s.S.config No Client EndPointIdentificationAlgorithm configured for Client@4ce1d6d0[provider=null,keyStore=null,trustStore=null]
2019-11-24 09:36:29.487 WARN  (main) [   ] o.e.j.u.s.S.config Trusting all certificates configured for Client@77a7cf58[provider=null,keyStore=null,trustStore=null]
2019-11-24 09:36:29.487 WARN  (main) [   ] o.e.j.u.s.S.config No Client EndPointIdentificationAlgorithm configured for Client@77a7cf58[provider=null,keyStore=null,trustStore=null]
2019-11-24 09:36:29.737 INFO  (main) [   ] o.a.s.c.TransientSolrCoreCacheDefault Allocating transient cache for 2147483647 transient cores
2019-11-24 09:36:29.740 INFO  (main) [   ] o.a.s.h.a.MetricsHistoryHandler No .system collection, keeping metrics history in memory.
2019-11-24 09:36:29.845 INFO  (main) [   ] o.a.s.m.r.SolrJmxReporter JMX monitoring for 'solr.node' (registry 'solr.node') enabled at server: com.sun.jmx.mbeanserver.JmxMBeanServer@14ec4505
2019-11-24 09:36:29.846 INFO  (main) [   ] o.a.s.m.r.SolrJmxReporter JMX monitoring for 'solr.jvm' (registry 'solr.jvm') enabled at server: com.sun.jmx.mbeanserver.JmxMBeanServer@14ec4505
2019-11-24 09:36:29.855 INFO  (main) [   ] o.a.s.m.r.SolrJmxReporter JMX monitoring for 'solr.jetty' (registry 'solr.jetty') enabled at server: com.sun.jmx.mbeanserver.JmxMBeanServer@14ec4505
2019-11-24 09:36:29.951 INFO  (main) [   ] o.a.s.c.CorePropertiesLocator Found 1 core definitions underneath /Users/omini/IRP/solr-8.3.0/server/solr
2019-11-24 09:36:29.951 INFO  (main) [   ] o.a.s.c.CorePropertiesLocator Cores are: [sportPerson]
2019-11-24 09:36:30.011 INFO  (coreLoadExecutor-9-thread-1) [   x:sportPerson] o.a.s.c.SolrResourceLoader [sportPerson] Added 61 libs to classloader, from paths: [/Users/omini/IRP/solr-8.3.0/contrib/clustering/lib, /Users/omini/IRP/solr-8.3.0/contrib/extraction/lib, /Users/omini/IRP/solr-8.3.0/contrib/langid/lib, /Users/omini/IRP/solr-8.3.0/contrib/velocity/lib, /Users/omini/IRP/solr-8.3.0/dist]
2019-11-24 09:36:30.068 INFO  (main) [   ] o.e.j.s.h.ContextHandler Started o.e.j.w.WebAppContext@693fe6c9{/solr,file:///Users/omini/IRP/solr-8.3.0/server/solr-webapp/webapp/,AVAILABLE}{/Users/omini/IRP/solr-8.3.0/server/solr-webapp/webapp}
2019-11-24 09:36:30.083 INFO  (main) [   ] o.e.j.s.AbstractConnector Started ServerConnector@4b2bac3f{HTTP/1.1,[http/1.1, h2c]}{0.0.0.0:8983}
2019-11-24 09:36:30.083 INFO  (main) [   ] o.e.j.s.Server Started @4543ms
2019-11-24 09:36:30.622 INFO  (coreLoadExecutor-9-thread-1) [   x:sportPerson] o.a.s.c.SolrConfig Using Lucene MatchVersion: 8.3.0
2019-11-24 09:36:30.816 INFO  (coreLoadExecutor-9-thread-1) [   x:sportPerson] o.a.s.s.IndexSchema [sportPerson] Schema name=nutch
2019-11-24 09:36:30.870 WARN  (coreLoadExecutor-9-thread-1) [   x:sportPerson] o.a.s.c.SolrResourceLoader Solr loaded a deprecated plugin/analysis class [solr.TrieDateField]. Please consult documentation how to replace it accordingly.
2019-11-24 09:36:30.875 WARN  (coreLoadExecutor-9-thread-1) [   x:sportPerson] o.a.s.c.SolrResourceLoader Solr loaded a deprecated plugin/analysis class [solr.TrieDoubleField]. Please consult documentation how to replace it accordingly.
2019-11-24 09:36:30.878 WARN  (coreLoadExecutor-9-thread-1) [   x:sportPerson] o.a.s.c.SolrResourceLoader Solr loaded a deprecated plugin/analysis class [solr.TrieFloatField]. Please consult documentation how to replace it accordingly.
2019-11-24 09:36:30.885 WARN  (coreLoadExecutor-9-thread-1) [   x:sportPerson] o.a.s.c.SolrResourceLoader Solr loaded a deprecated plugin/analysis class [solr.TrieIntField]. Please consult documentation how to replace it accordingly.
2019-11-24 09:36:30.892 WARN  (coreLoadExecutor-9-thread-1) [   x:sportPerson] o.a.s.c.SolrResourceLoader Solr loaded a deprecated plugin/analysis class [solr.LatLonType]. Please consult documentation how to replace it accordingly.
2019-11-24 09:36:30.895 WARN  (coreLoadExecutor-9-thread-1) [   x:sportPerson] o.a.s.c.SolrResourceLoader Solr loaded a deprecated plugin/analysis class [solr.TrieLongField]. Please consult documentation how to replace it accordingly.
2019-11-24 09:36:30.939 WARN  (coreLoadExecutor-9-thread-1) [   x:sportPerson] o.a.s.c.SolrResourceLoader Solr loaded a deprecated plugin/analysis class [solr.SynonymFilterFactory]. Please consult documentation how to replace it accordingly.
2019-11-24 09:36:30.943 WARN  (coreLoadExecutor-9-thread-1) [   x:sportPerson] o.a.s.c.SolrResourceLoader Solr loaded a deprecated plugin/analysis class [solr.WordDelimiterFilterFactory]. Please consult documentation how to replace it accordingly.
2019-11-24 09:36:31.186 INFO  (coreLoadExecutor-9-thread-1) [   x:sportPerson] o.a.s.s.IndexSchema Loaded schema nutch/1.5 with uniqueid field id
2019-11-24 09:36:31.200 INFO  (coreLoadExecutor-9-thread-1) [   x:sportPerson] o.a.s.c.CoreContainer Creating SolrCore 'sportPerson' using configuration from instancedir /Users/omini/IRP/solr-8.3.0/server/solr/sportPerson, trusted=true
2019-11-24 09:36:31.248 INFO  (coreLoadExecutor-9-thread-1) [   x:sportPerson] o.a.s.m.r.SolrJmxReporter JMX monitoring for 'solr.core.sportPerson' (registry 'solr.core.sportPerson') enabled at server: com.sun.jmx.mbeanserver.JmxMBeanServer@14ec4505
2019-11-24 09:36:31.280 INFO  (coreLoadExecutor-9-thread-1) [   x:sportPerson] o.a.s.c.SolrCore [[sportPerson] ] Opening new SolrCore at [/Users/omini/IRP/solr-8.3.0/server/solr/sportPerson], dataDir=[/Users/omini/IRP/solr-8.3.0/server/solr/sportPerson/data/]
2019-11-24 09:36:31.336 INFO  (coreLoadExecutor-9-thread-1) [   x:sportPerson] o.a.s.r.XSLTResponseWriter xsltCacheLifetimeSeconds=5
2019-11-24 09:36:32.240 INFO  (coreLoadExecutor-9-thread-1) [   x:sportPerson] o.a.s.u.UpdateHandler Using UpdateLog implementation: org.apache.solr.update.UpdateLog
2019-11-24 09:36:32.240 INFO  (coreLoadExecutor-9-thread-1) [   x:sportPerson] o.a.s.u.UpdateLog Initializing UpdateLog: dataDir= defaultSyncLevel=FLUSH numRecordsToKeep=100 maxNumLogsToKeep=10 numVersionBuckets=65536
2019-11-24 09:36:32.278 INFO  (coreLoadExecutor-9-thread-1) [   x:sportPerson] o.a.s.u.CommitTracker Hard AutoCommit: if uncommitted for 15000ms; 
2019-11-24 09:36:32.278 INFO  (coreLoadExecutor-9-thread-1) [   x:sportPerson] o.a.s.u.CommitTracker Soft AutoCommit: disabled
2019-11-24 09:36:32.669 INFO  (coreLoadExecutor-9-thread-1) [   x:sportPerson] o.a.s.s.SolrIndexSearcher Opening [Searcher@4b08f654[sportPerson] main]
2019-11-24 09:36:32.679 INFO  (coreLoadExecutor-9-thread-1) [   x:sportPerson] o.a.s.r.ManagedResourceStorage File-based storage initialized to use dir: /Users/omini/IRP/solr-8.3.0/server/solr/sportPerson/conf
2019-11-24 09:36:32.702 INFO  (coreLoadExecutor-9-thread-1) [   x:sportPerson] o.a.s.h.c.SpellCheckComponent Initializing spell checkers
2019-11-24 09:36:32.708 INFO  (coreLoadExecutor-9-thread-1) [   x:sportPerson] o.a.s.s.DirectSolrSpellChecker init: {name=default,field=_text_,classname=solr.DirectSolrSpellChecker,distanceMeasure=internal,accuracy=0.5,maxEdits=2,minPrefix=1,maxInspections=5,minQueryLength=4,maxQueryFrequency=0.01}
2019-11-24 09:36:32.722 INFO  (coreLoadExecutor-9-thread-1) [   x:sportPerson] o.a.s.h.ReplicationHandler Commits will be reserved for 10000ms.
2019-11-24 09:36:32.748 INFO  (searcherExecutor-10-thread-1-processing-x:sportPerson) [   x:sportPerson] o.a.s.c.QuerySenderListener QuerySenderListener sending requests to Searcher@4b08f654[sportPerson] main{ExitableDirectoryReader(UninvertingDirectoryReader(Uninverting(_3(8.3.0):C3492/2003:[diagnostics={java.vendor=AdoptOpenJDK, os=Mac OS X, java.version=1.8.0_222, java.vm.version=25.222-b10, lucene.version=8.3.0, os.arch=x86_64, java.runtime.version=1.8.0_222-b10, source=flush, os.version=10.15, timestamp=1574033481978}]:[attributes={Lucene50StoredFieldsFormat.mode=BEST_SPEED}]:delGen=5) Uninverting(_4(8.3.0):C13:[diagnostics={java.vendor=AdoptOpenJDK, os=Mac OS X, java.version=1.8.0_222, java.vm.version=25.222-b10, lucene.version=8.3.0, os.arch=x86_64, java.runtime.version=1.8.0_222-b10, source=flush, os.version=10.15, timestamp=1574279790019}]:[attributes={Lucene50StoredFieldsFormat.mode=BEST_SPEED}]) Uninverting(_5(8.3.0):C2786:[diagnostics={java.vendor=AdoptOpenJDK, os=Mac OS X, java.version=1.8.0_222, java.vm.version=25.222-b10, lucene.version=8.3.0, os.arch=x86_64, java.runtime.version=1.8.0_222-b10, source=flush, os.version=10.15, timestamp=1574289380546}]:[attributes={Lucene50StoredFieldsFormat.mode=BEST_SPEED}]) Uninverting(_6(8.3.0):C2754:[diagnostics={java.vendor=AdoptOpenJDK, os=Mac OS X, java.version=1.8.0_222, java.vm.version=25.222-b10, lucene.version=8.3.0, os.arch=x86_64, java.runtime.version=1.8.0_222-b10, source=flush, os.version=10.15, timestamp=1574301011263}]:[attributes={Lucene50StoredFieldsFormat.mode=BEST_SPEED}]) Uninverting(_7(8.3.0):C32:[diagnostics={java.vendor=AdoptOpenJDK, os=Mac OS X, java.version=1.8.0_222, java.vm.version=25.222-b10, lucene.version=8.3.0, os.arch=x86_64, java.runtime.version=1.8.0_222-b10, source=flush, os.version=10.15, timestamp=1574301011523}]:[attributes={Lucene50StoredFieldsFormat.mode=BEST_SPEED}]) Uninverting(_8(8.3.0):C3847:[diagnostics={java.vendor=AdoptOpenJDK, os=Mac OS X, java.version=1.8.0_222, java.vm.version=25.222-b10, lucene.version=8.3.0, os.arch=x86_64, java.runtime.version=1.8.0_222-b10, source=flush, os.version=10.15, timestamp=1574301029848}]:[attributes={Lucene50StoredFieldsFormat.mode=BEST_SPEED}]) Uninverting(_9(8.3.0):C2086:[diagnostics={java.vendor=AdoptOpenJDK, os=Mac OS X, java.version=1.8.0_222, java.vm.version=25.222-b10, lucene.version=8.3.0, os.arch=x86_64, java.runtime.version=1.8.0_222-b10, source=flush, os.version=10.15, timestamp=1574365728182}]:[attributes={Lucene50StoredFieldsFormat.mode=BEST_SPEED}]) Uninverting(_a(8.3.0):C2159:[diagnostics={java.vendor=AdoptOpenJDK, os=Mac OS X, java.version=1.8.0_222, java.vm.version=25.222-b10, lucene.version=8.3.0, os.arch=x86_64, java.runtime.version=1.8.0_222-b10, source=flush, os.version=10.15, timestamp=1574365730702}]:[attributes={Lucene50StoredFieldsFormat.mode=BEST_SPEED}])))}
2019-11-24 09:36:32.748 INFO  (searcherExecutor-10-thread-1-processing-x:sportPerson) [   x:sportPerson] o.a.s.c.QuerySenderListener QuerySenderListener done.
2019-11-24 09:36:32.748 INFO  (searcherExecutor-10-thread-1-processing-x:sportPerson) [   x:sportPerson] o.a.s.h.c.SpellCheckComponent Loading spell index for spellchecker: default
2019-11-24 09:36:32.758 INFO  (searcherExecutor-10-thread-1-processing-x:sportPerson) [   x:sportPerson] o.a.s.c.SolrCore [sportPerson] Registered new searcher Searcher@4b08f654[sportPerson] main{ExitableDirectoryReader(UninvertingDirectoryReader(Uninverting(_3(8.3.0):C3492/2003:[diagnostics={java.vendor=AdoptOpenJDK, os=Mac OS X, java.version=1.8.0_222, java.vm.version=25.222-b10, lucene.version=8.3.0, os.arch=x86_64, java.runtime.version=1.8.0_222-b10, source=flush, os.version=10.15, timestamp=1574033481978}]:[attributes={Lucene50StoredFieldsFormat.mode=BEST_SPEED}]:delGen=5) Uninverting(_4(8.3.0):C13:[diagnostics={java.vendor=AdoptOpenJDK, os=Mac OS X, java.version=1.8.0_222, java.vm.version=25.222-b10, lucene.version=8.3.0, os.arch=x86_64, java.runtime.version=1.8.0_222-b10, source=flush, os.version=10.15, timestamp=1574279790019}]:[attributes={Lucene50StoredFieldsFormat.mode=BEST_SPEED}]) Uninverting(_5(8.3.0):C2786:[diagnostics={java.vendor=AdoptOpenJDK, os=Mac OS X, java.version=1.8.0_222, java.vm.version=25.222-b10, lucene.version=8.3.0, os.arch=x86_64, java.runtime.version=1.8.0_222-b10, source=flush, os.version=10.15, timestamp=1574289380546}]:[attributes={Lucene50StoredFieldsFormat.mode=BEST_SPEED}]) Uninverting(_6(8.3.0):C2754:[diagnostics={java.vendor=AdoptOpenJDK, os=Mac OS X, java.version=1.8.0_222, java.vm.version=25.222-b10, lucene.version=8.3.0, os.arch=x86_64, java.runtime.version=1.8.0_222-b10, source=flush, os.version=10.15, timestamp=1574301011263}]:[attributes={Lucene50StoredFieldsFormat.mode=BEST_SPEED}]) Uninverting(_7(8.3.0):C32:[diagnostics={java.vendor=AdoptOpenJDK, os=Mac OS X, java.version=1.8.0_222, java.vm.version=25.222-b10, lucene.version=8.3.0, os.arch=x86_64, java.runtime.version=1.8.0_222-b10, source=flush, os.version=10.15, timestamp=1574301011523}]:[attributes={Lucene50StoredFieldsFormat.mode=BEST_SPEED}]) Uninverting(_8(8.3.0):C3847:[diagnostics={java.vendor=AdoptOpenJDK, os=Mac OS X, java.version=1.8.0_222, java.vm.version=25.222-b10, lucene.version=8.3.0, os.arch=x86_64, java.runtime.version=1.8.0_222-b10, source=flush, os.version=10.15, timestamp=1574301029848}]:[attributes={Lucene50StoredFieldsFormat.mode=BEST_SPEED}]) Uninverting(_9(8.3.0):C2086:[diagnostics={java.vendor=AdoptOpenJDK, os=Mac OS X, java.version=1.8.0_222, java.vm.version=25.222-b10, lucene.version=8.3.0, os.arch=x86_64, java.runtime.version=1.8.0_222-b10, source=flush, os.version=10.15, timestamp=1574365728182}]:[attributes={Lucene50StoredFieldsFormat.mode=BEST_SPEED}]) Uninverting(_a(8.3.0):C2159:[diagnostics={java.vendor=AdoptOpenJDK, os=Mac OS X, java.version=1.8.0_222, java.vm.version=25.222-b10, lucene.version=8.3.0, os.arch=x86_64, java.runtime.version=1.8.0_222-b10, source=flush, os.version=10.15, timestamp=1574365730702}]:[attributes={Lucene50StoredFieldsFormat.mode=BEST_SPEED}])))}
2019-11-24 09:38:00.177 INFO  (ShutdownMonitor) [   ] o.e.j.s.AbstractConnector Stopped ServerConnector@4b2bac3f{HTTP/1.1,[http/1.1, h2c]}{0.0.0.0:8983}
2019-11-24 09:38:00.177 INFO  (ShutdownMonitor) [   ] o.e.j.s.session node0 Stopped scavenging
2019-11-24 09:38:00.180 INFO  (ShutdownMonitor) [   ] o.a.s.c.CoreContainer Shutting down CoreContainer instance=208684473
2019-11-24 09:38:00.182 INFO  (coreCloseExecutor-15-thread-1) [   x:sportPerson] o.a.s.c.SolrCore [sportPerson]  CLOSING SolrCore org.apache.solr.core.SolrCore@6afa50e9
2019-11-24 09:38:00.182 INFO  (coreCloseExecutor-15-thread-1) [   x:sportPerson] o.a.s.m.SolrMetricManager Closing metric reporters for registry=solr.core.sportPerson, tag=SolrCore@6afa50e9
2019-11-24 09:38:00.183 INFO  (coreCloseExecutor-15-thread-1) [   x:sportPerson] o.a.s.m.r.SolrJmxReporter Closing reporter [org.apache.solr.metrics.reporters.SolrJmxReporter@2938877d: rootName = null, domain = solr.core.sportPerson, service url = null, agent id = null] for registry solr.core.sportPerson / com.codahale.metrics.MetricRegistry@299ca2eb
2019-11-24 09:38:00.251 INFO  (ShutdownMonitor) [   ] o.a.s.m.SolrMetricManager Closing metric reporters for registry=solr.node, tag=null
2019-11-24 09:38:00.252 INFO  (ShutdownMonitor) [   ] o.a.s.m.r.SolrJmxReporter Closing reporter [org.apache.solr.metrics.reporters.SolrJmxReporter@ab7a938: rootName = null, domain = solr.node, service url = null, agent id = null] for registry solr.node / com.codahale.metrics.MetricRegistry@598f5e83
2019-11-24 09:38:00.255 INFO  (ShutdownMonitor) [   ] o.a.s.m.SolrMetricManager Closing metric reporters for registry=solr.jvm, tag=null
2019-11-24 09:38:00.255 INFO  (ShutdownMonitor) [   ] o.a.s.m.r.SolrJmxReporter Closing reporter [org.apache.solr.metrics.reporters.SolrJmxReporter@5dbe30be: rootName = null, domain = solr.jvm, service url = null, agent id = null] for registry solr.jvm / com.codahale.metrics.MetricRegistry@6ff0991
2019-11-24 09:38:00.257 INFO  (ShutdownMonitor) [   ] o.a.s.m.SolrMetricManager Closing metric reporters for registry=solr.jetty, tag=null
2019-11-24 09:38:00.257 INFO  (ShutdownMonitor) [   ] o.a.s.m.r.SolrJmxReporter Closing reporter [org.apache.solr.metrics.reporters.SolrJmxReporter@4fe89c24: rootName = null, domain = solr.jetty, service url = null, agent id = null] for registry solr.jetty / com.codahale.metrics.MetricRegistry@1e151ad5
2019-11-24 09:38:00.277 INFO  (ShutdownMonitor) [   ] o.e.j.s.h.ContextHandler Stopped o.e.j.w.WebAppContext@693fe6c9{/solr,null,UNAVAILABLE}{/Users/omini/IRP/solr-8.3.0/server/solr-webapp/webapp}
