2019-11-17 11:48:16.789 INFO  (main) [   ] o.e.j.u.log Logging initialized @1532ms to org.eclipse.jetty.util.log.Slf4jLog
2019-11-17 11:48:16.918 WARN  (main) [   ] o.e.j.x.XmlConfiguration Deprecated method public void org.eclipse.jetty.rewrite.handler.RedirectRegexRule.setReplacement(java.lang.String) in file:///Users/omini/IRP/solr-8.3.0/server/etc/jetty.xml
2019-11-17 11:48:17.023 WARN  (main) [   ] o.e.j.s.AbstractConnector Ignoring deprecated socket close linger time
2019-11-17 11:48:17.023 WARN  (main) [   ] o.e.j.x.XmlConfiguration Deprecated method public void org.eclipse.jetty.server.ServerConnector.setSoLingerTime(int) in file:///Users/omini/IRP/solr-8.3.0/server/etc/jetty-http.xml
2019-11-17 11:48:17.034 INFO  (main) [   ] o.e.j.s.Server jetty-9.4.19.v20190610; built: 2019-06-10T16:30:51.723Z; git: afcf563148970e98786327af5e07c261fda175d3; jvm 1.8.0_222-b10
2019-11-17 11:48:17.067 INFO  (main) [   ] o.e.j.d.p.ScanningAppProvider Deployment monitor [file:///Users/omini/IRP/solr-8.3.0/server/contexts/] at interval 0
2019-11-17 11:48:17.589 INFO  (main) [   ] o.e.j.w.StandardDescriptorProcessor NO JSP Support for /solr, did not find org.apache.jasper.servlet.JspServlet
2019-11-17 11:48:17.604 INFO  (main) [   ] o.e.j.s.session DefaultSessionIdManager workerName=node0
2019-11-17 11:48:17.604 INFO  (main) [   ] o.e.j.s.session No SessionScavenger set, using defaults
2019-11-17 11:48:17.608 INFO  (main) [   ] o.e.j.s.session node0 Scavenging every 600000ms
2019-11-17 11:48:17.718 INFO  (main) [   ] o.a.s.s.SolrDispatchFilter Using logger factory org.apache.logging.slf4j.Log4jLoggerFactory
2019-11-17 11:48:17.726 INFO  (main) [   ] o.a.s.s.SolrDispatchFilter  ___      _       Welcome to Apache Solr™ version 8.3.0
2019-11-17 11:48:17.726 INFO  (main) [   ] o.a.s.s.SolrDispatchFilter / __| ___| |_ _   Starting in standalone mode on port 8983
2019-11-17 11:48:17.726 INFO  (main) [   ] o.a.s.s.SolrDispatchFilter \__ \/ _ \ | '_|  Install dir: /Users/omini/IRP/solr-8.3.0
2019-11-17 11:48:17.728 INFO  (main) [   ] o.a.s.s.SolrDispatchFilter |___/\___/_|_|    Start time: 2019-11-17T11:48:17.728Z
2019-11-17 11:48:17.766 INFO  (main) [   ] o.a.s.c.SolrResourceLoader Using system property solr.solr.home: /Users/omini/IRP/solr-8.3.0/server/solr
2019-11-17 11:48:17.776 INFO  (main) [   ] o.a.s.c.SolrXmlConfig Loading container configuration from /Users/omini/IRP/solr-8.3.0/server/solr/solr.xml
2019-11-17 11:48:17.897 INFO  (main) [   ] o.a.s.c.SolrXmlConfig MBean server found: com.sun.jmx.mbeanserver.JmxMBeanServer@14ec4505, but no JMX reporters were configured - adding default JMX reporter.
2019-11-17 11:48:18.336 INFO  (main) [   ] o.a.s.h.c.HttpShardHandlerFactory Host whitelist initialized: WhitelistHostChecker [whitelistHosts=null, whitelistHostCheckingEnabled=true]
2019-11-17 11:48:18.530 WARN  (main) [   ] o.e.j.u.s.S.config Trusting all certificates configured for Client@4ce1d6d0[provider=null,keyStore=null,trustStore=null]
2019-11-17 11:48:18.531 WARN  (main) [   ] o.e.j.u.s.S.config No Client EndPointIdentificationAlgorithm configured for Client@4ce1d6d0[provider=null,keyStore=null,trustStore=null]
2019-11-17 11:48:18.736 WARN  (main) [   ] o.e.j.u.s.S.config Trusting all certificates configured for Client@77a7cf58[provider=null,keyStore=null,trustStore=null]
2019-11-17 11:48:18.737 WARN  (main) [   ] o.e.j.u.s.S.config No Client EndPointIdentificationAlgorithm configured for Client@77a7cf58[provider=null,keyStore=null,trustStore=null]
2019-11-17 11:48:18.990 INFO  (main) [   ] o.a.s.c.TransientSolrCoreCacheDefault Allocating transient cache for 2147483647 transient cores
2019-11-17 11:48:18.992 INFO  (main) [   ] o.a.s.h.a.MetricsHistoryHandler No .system collection, keeping metrics history in memory.
2019-11-17 11:48:19.091 INFO  (main) [   ] o.a.s.m.r.SolrJmxReporter JMX monitoring for 'solr.node' (registry 'solr.node') enabled at server: com.sun.jmx.mbeanserver.JmxMBeanServer@14ec4505
2019-11-17 11:48:19.092 INFO  (main) [   ] o.a.s.m.r.SolrJmxReporter JMX monitoring for 'solr.jvm' (registry 'solr.jvm') enabled at server: com.sun.jmx.mbeanserver.JmxMBeanServer@14ec4505
2019-11-17 11:48:19.099 INFO  (main) [   ] o.a.s.m.r.SolrJmxReporter JMX monitoring for 'solr.jetty' (registry 'solr.jetty') enabled at server: com.sun.jmx.mbeanserver.JmxMBeanServer@14ec4505
2019-11-17 11:48:19.186 INFO  (main) [   ] o.a.s.c.CorePropertiesLocator Found 1 core definitions underneath /Users/omini/IRP/solr-8.3.0/server/solr
2019-11-17 11:48:19.187 INFO  (main) [   ] o.a.s.c.CorePropertiesLocator Cores are: [sportPerson]
2019-11-17 11:48:19.264 INFO  (coreLoadExecutor-9-thread-1) [   x:sportPerson] o.a.s.c.SolrResourceLoader [sportPerson] Added 61 libs to classloader, from paths: [/Users/omini/IRP/solr-8.3.0/contrib/clustering/lib, /Users/omini/IRP/solr-8.3.0/contrib/extraction/lib, /Users/omini/IRP/solr-8.3.0/contrib/langid/lib, /Users/omini/IRP/solr-8.3.0/contrib/velocity/lib, /Users/omini/IRP/solr-8.3.0/dist]
2019-11-17 11:48:19.266 INFO  (main) [   ] o.e.j.s.h.ContextHandler Started o.e.j.w.WebAppContext@693fe6c9{/solr,file:///Users/omini/IRP/solr-8.3.0/server/solr-webapp/webapp/,AVAILABLE}{/Users/omini/IRP/solr-8.3.0/server/solr-webapp/webapp}
2019-11-17 11:48:19.285 INFO  (main) [   ] o.e.j.s.AbstractConnector Started ServerConnector@4b2bac3f{HTTP/1.1,[http/1.1, h2c]}{0.0.0.0:8983}
2019-11-17 11:48:19.285 INFO  (main) [   ] o.e.j.s.Server Started @4030ms
2019-11-17 11:48:19.636 INFO  (coreLoadExecutor-9-thread-1) [   x:sportPerson] o.a.s.c.SolrConfig Using Lucene MatchVersion: 8.3.0
2019-11-17 11:48:19.899 INFO  (coreLoadExecutor-9-thread-1) [   x:sportPerson] o.a.s.s.IndexSchema [sportPerson] Schema name=nutch
2019-11-17 11:48:20.069 WARN  (coreLoadExecutor-9-thread-1) [   x:sportPerson] o.a.s.c.SolrResourceLoader Solr loaded a deprecated plugin/analysis class [solr.TrieDateField]. Please consult documentation how to replace it accordingly.
2019-11-17 11:48:20.077 WARN  (coreLoadExecutor-9-thread-1) [   x:sportPerson] o.a.s.c.SolrResourceLoader Solr loaded a deprecated plugin/analysis class [solr.TrieDoubleField]. Please consult documentation how to replace it accordingly.
2019-11-17 11:48:20.081 WARN  (coreLoadExecutor-9-thread-1) [   x:sportPerson] o.a.s.c.SolrResourceLoader Solr loaded a deprecated plugin/analysis class [solr.TrieFloatField]. Please consult documentation how to replace it accordingly.
2019-11-17 11:48:20.090 WARN  (coreLoadExecutor-9-thread-1) [   x:sportPerson] o.a.s.c.SolrResourceLoader Solr loaded a deprecated plugin/analysis class [solr.TrieIntField]. Please consult documentation how to replace it accordingly.
2019-11-17 11:48:20.102 WARN  (coreLoadExecutor-9-thread-1) [   x:sportPerson] o.a.s.c.SolrResourceLoader Solr loaded a deprecated plugin/analysis class [solr.LatLonType]. Please consult documentation how to replace it accordingly.
2019-11-17 11:48:20.120 WARN  (coreLoadExecutor-9-thread-1) [   x:sportPerson] o.a.s.c.SolrResourceLoader Solr loaded a deprecated plugin/analysis class [solr.TrieLongField]. Please consult documentation how to replace it accordingly.
2019-11-17 11:48:20.209 WARN  (coreLoadExecutor-9-thread-1) [   x:sportPerson] o.a.s.c.SolrResourceLoader Solr loaded a deprecated plugin/analysis class [solr.SynonymFilterFactory]. Please consult documentation how to replace it accordingly.
2019-11-17 11:48:20.213 WARN  (coreLoadExecutor-9-thread-1) [   x:sportPerson] o.a.s.c.SolrResourceLoader Solr loaded a deprecated plugin/analysis class [solr.WordDelimiterFilterFactory]. Please consult documentation how to replace it accordingly.
2019-11-17 11:48:20.471 INFO  (coreLoadExecutor-9-thread-1) [   x:sportPerson] o.a.s.s.IndexSchema Loaded schema nutch/1.5 with uniqueid field id
2019-11-17 11:48:20.487 INFO  (coreLoadExecutor-9-thread-1) [   x:sportPerson] o.a.s.c.CoreContainer Creating SolrCore 'sportPerson' using configuration from instancedir /Users/omini/IRP/solr-8.3.0/server/solr/sportPerson, trusted=true
2019-11-17 11:48:20.545 INFO  (coreLoadExecutor-9-thread-1) [   x:sportPerson] o.a.s.m.r.SolrJmxReporter JMX monitoring for 'solr.core.sportPerson' (registry 'solr.core.sportPerson') enabled at server: com.sun.jmx.mbeanserver.JmxMBeanServer@14ec4505
2019-11-17 11:48:20.583 INFO  (coreLoadExecutor-9-thread-1) [   x:sportPerson] o.a.s.c.SolrCore [[sportPerson] ] Opening new SolrCore at [/Users/omini/IRP/solr-8.3.0/server/solr/sportPerson], dataDir=[/Users/omini/IRP/solr-8.3.0/server/solr/sportPerson/data/]
2019-11-17 11:48:20.642 INFO  (coreLoadExecutor-9-thread-1) [   x:sportPerson] o.a.s.r.XSLTResponseWriter xsltCacheLifetimeSeconds=5
2019-11-17 11:48:21.512 INFO  (coreLoadExecutor-9-thread-1) [   x:sportPerson] o.a.s.u.UpdateHandler Using UpdateLog implementation: org.apache.solr.update.UpdateLog
2019-11-17 11:48:21.512 INFO  (coreLoadExecutor-9-thread-1) [   x:sportPerson] o.a.s.u.UpdateLog Initializing UpdateLog: dataDir= defaultSyncLevel=FLUSH numRecordsToKeep=100 maxNumLogsToKeep=10 numVersionBuckets=65536
2019-11-17 11:48:21.557 INFO  (coreLoadExecutor-9-thread-1) [   x:sportPerson] o.a.s.u.CommitTracker Hard AutoCommit: if uncommitted for 15000ms; 
2019-11-17 11:48:21.557 INFO  (coreLoadExecutor-9-thread-1) [   x:sportPerson] o.a.s.u.CommitTracker Soft AutoCommit: disabled
2019-11-17 11:48:21.701 INFO  (coreLoadExecutor-9-thread-1) [   x:sportPerson] o.a.s.s.SolrIndexSearcher Opening [Searcher@17043eca[sportPerson] main]
2019-11-17 11:48:21.715 INFO  (coreLoadExecutor-9-thread-1) [   x:sportPerson] o.a.s.r.ManagedResourceStorage File-based storage initialized to use dir: /Users/omini/IRP/solr-8.3.0/server/solr/sportPerson/conf
2019-11-17 11:48:21.739 INFO  (coreLoadExecutor-9-thread-1) [   x:sportPerson] o.a.s.h.c.SpellCheckComponent Initializing spell checkers
2019-11-17 11:48:21.747 INFO  (coreLoadExecutor-9-thread-1) [   x:sportPerson] o.a.s.s.DirectSolrSpellChecker init: {name=default,field=_text_,classname=solr.DirectSolrSpellChecker,distanceMeasure=internal,accuracy=0.5,maxEdits=2,minPrefix=1,maxInspections=5,minQueryLength=4,maxQueryFrequency=0.01}
2019-11-17 11:48:21.772 INFO  (coreLoadExecutor-9-thread-1) [   x:sportPerson] o.a.s.h.ReplicationHandler Commits will be reserved for 10000ms.
2019-11-17 11:48:21.791 INFO  (searcherExecutor-10-thread-1-processing-x:sportPerson) [   x:sportPerson] o.a.s.c.QuerySenderListener QuerySenderListener sending requests to Searcher@17043eca[sportPerson] main{ExitableDirectoryReader(UninvertingDirectoryReader(Uninverting(_0(8.3.0):C66:[diagnostics={java.vendor=AdoptOpenJDK, os=Mac OS X, java.version=1.8.0_222, java.vm.version=25.222-b10, lucene.version=8.3.0, os.arch=x86_64, java.runtime.version=1.8.0_222-b10, source=flush, os.version=10.15, timestamp=1573769522048}]:[attributes={Lucene50StoredFieldsFormat.mode=BEST_SPEED}])))}
2019-11-17 11:48:21.791 INFO  (searcherExecutor-10-thread-1-processing-x:sportPerson) [   x:sportPerson] o.a.s.c.QuerySenderListener QuerySenderListener done.
2019-11-17 11:48:21.792 INFO  (searcherExecutor-10-thread-1-processing-x:sportPerson) [   x:sportPerson] o.a.s.h.c.SpellCheckComponent Loading spell index for spellchecker: default
2019-11-17 11:48:21.803 INFO  (searcherExecutor-10-thread-1-processing-x:sportPerson) [   x:sportPerson] o.a.s.c.SolrCore [sportPerson] Registered new searcher Searcher@17043eca[sportPerson] main{ExitableDirectoryReader(UninvertingDirectoryReader(Uninverting(_0(8.3.0):C66:[diagnostics={java.vendor=AdoptOpenJDK, os=Mac OS X, java.version=1.8.0_222, java.vm.version=25.222-b10, lucene.version=8.3.0, os.arch=x86_64, java.runtime.version=1.8.0_222-b10, source=flush, os.version=10.15, timestamp=1573769522048}]:[attributes={Lucene50StoredFieldsFormat.mode=BEST_SPEED}])))}
2019-11-17 11:49:17.008 INFO  (qtp1850180796-19) [   x:sportPerson] o.a.s.u.DirectUpdateHandler2 start commit{_version_=1650449561166020608,optimize=false,openSearcher=true,waitSearcher=true,expungeDeletes=false,softCommit=false,prepareCommit=false}
2019-11-17 11:49:17.009 INFO  (qtp1850180796-19) [   x:sportPerson] o.a.s.u.DirectUpdateHandler2 No uncommitted changes. Skipping IW.commit.
2019-11-17 11:49:17.010 INFO  (qtp1850180796-19) [   x:sportPerson] o.a.s.u.DirectUpdateHandler2 end_commit_flush
2019-11-17 11:49:17.010 INFO  (qtp1850180796-19) [   x:sportPerson] o.a.s.u.p.LogUpdateProcessorFactory [sportPerson]  webapp=/solr path=/update params={waitSearcher=true&commit=true&softCommit=false&wt=javabin&version=2}{commit=} 0 25
2019-11-17 11:49:17.039 INFO  (qtp1850180796-15) [   x:sportPerson] o.a.s.u.DirectUpdateHandler2 start commit{_version_=1650449561198526464,optimize=false,openSearcher=true,waitSearcher=true,expungeDeletes=false,softCommit=false,prepareCommit=false}
2019-11-17 11:49:17.039 INFO  (qtp1850180796-15) [   x:sportPerson] o.a.s.u.DirectUpdateHandler2 No uncommitted changes. Skipping IW.commit.
2019-11-17 11:49:17.040 INFO  (qtp1850180796-15) [   x:sportPerson] o.a.s.u.DirectUpdateHandler2 end_commit_flush
2019-11-17 11:49:17.040 INFO  (qtp1850180796-15) [   x:sportPerson] o.a.s.u.p.LogUpdateProcessorFactory [sportPerson]  webapp=/solr path=/update params={waitSearcher=true&commit=true&softCommit=false&wt=javabin&version=2}{commit=} 0 1
2019-11-17 11:49:33.906 INFO  (qtp1850180796-14) [   x:sportPerson] o.a.s.c.S.Request [sportPerson]  webapp=/solr path=/select params={q=content:"federer"~10&hl=on&hl.fragsize=450&hl.fl=content} hits=6 status=0 QTime=199
2019-11-17 11:49:43.491 INFO  (qtp1850180796-20) [   x:sportPerson] o.a.s.c.S.Request [sportPerson]  webapp=/solr path=/select params={q=content:"federer+wiki"~10&hl=on&hl.fragsize=450&hl.fl=content} hits=1 status=0 QTime=99
2019-11-17 11:50:08.030 INFO  (qtp1850180796-20) [   ] o.a.s.s.HttpSolrCall [admin] webapp=null path=/admin/cores params={indexInfo=false&wt=json&_=1573991407805} status=0 QTime=1
2019-11-17 11:50:08.073 INFO  (qtp1850180796-15) [   ] o.a.s.s.HttpSolrCall [admin] webapp=null path=/admin/info/system params={wt=json&_=1573991407805} status=0 QTime=42
2019-11-17 11:50:08.099 INFO  (qtp1850180796-18) [   ] o.a.s.s.HttpSolrCall [admin] webapp=null path=/admin/info/system params={wt=json&_=1573991407805} status=0 QTime=22
2019-11-17 11:50:10.259 INFO  (qtp1850180796-15) [   ] o.a.s.s.HttpSolrCall [admin] webapp=null path=/admin/cores params={indexInfo=false&wt=json&_=1573991407805} status=0 QTime=0
2019-11-17 11:50:10.295 INFO  (qtp1850180796-20) [   x:sportPerson] o.a.s.c.S.Request [sportPerson]  webapp=/solr path=/admin/luke params={numTerms=0&show=index&wt=json&_=1573991410242} status=0 QTime=10
2019-11-17 11:50:10.297 INFO  (qtp1850180796-15) [   x:sportPerson] o.a.s.c.S.Request [sportPerson]  webapp=/solr path=/replication params={wt=json&command=details&_=1573991410242} status=0 QTime=20
2019-11-17 11:50:10.307 INFO  (qtp1850180796-22) [   x:sportPerson] o.a.s.c.S.Request [sportPerson]  webapp=/solr path=/admin/ping params={action=status&wt=json&_=1573991407805&ts=1573991407805} status=503 QTime=2
2019-11-17 11:50:10.341 INFO  (qtp1850180796-21) [   ] o.a.s.s.HttpSolrCall [admin] webapp=null path=/admin/info/system params={wt=json&_=1573991407805} status=0 QTime=75
2019-11-17 11:50:10.348 INFO  (qtp1850180796-18) [   x:sportPerson] o.a.s.c.S.Request [sportPerson]  webapp=/solr path=/admin/system params={wt=json&_=1573991410242} status=0 QTime=72
2019-11-17 11:50:16.506 INFO  (qtp1850180796-23) [   ] o.a.s.s.HttpSolrCall [admin] webapp=null path=/admin/cores params={indexInfo=false&wt=json&_=1573991407805} status=0 QTime=0
2019-11-17 11:50:16.529 INFO  (qtp1850180796-14) [   ] o.a.s.s.HttpSolrCall [admin] webapp=null path=/admin/info/system params={wt=json&_=1573991407805} status=0 QTime=22
2019-11-17 11:50:17.966 INFO  (qtp1850180796-20) [   x:sportPerson] o.a.s.c.S.Request [sportPerson]  webapp=/solr path=/select params={q=*:*&_=1573991416464} hits=66 status=0 QTime=2
2019-11-17 11:50:40.892 INFO  (qtp1850180796-14) [   x:sportPerson] o.a.s.c.S.Request [sportPerson]  webapp=/solr path=/select params={q=*:*} hits=66 status=0 QTime=0
2019-11-17 11:50:53.627 INFO  (qtp1850180796-20) [   ] o.a.s.s.HttpSolrCall [admin] webapp=null path=/admin/cores params={indexInfo=false&wt=json&_=1573991453423} status=0 QTime=0
2019-11-17 11:50:53.662 INFO  (qtp1850180796-15) [   ] o.a.s.s.HttpSolrCall [admin] webapp=null path=/admin/info/system params={wt=json&_=1573991453423} status=0 QTime=29
2019-11-17 11:51:00.044 INFO  (qtp1850180796-20) [   x:sportPerson] o.a.s.c.S.Request [sportPerson]  webapp=/solr path=/select params={q=*&_=1573991453582} hits=66 status=0 QTime=1
2019-11-17 11:51:02.457 INFO  (qtp1850180796-15) [   x:sportPerson] o.a.s.c.S.Request [sportPerson]  webapp=/solr path=/select params={q=*} hits=66 status=0 QTime=0
2019-11-17 11:51:08.298 INFO  (qtp1850180796-20) [   ] o.a.s.s.HttpSolrCall [admin] webapp=null path=/admin/cores params={indexInfo=false&wt=json&_=1573991468133} status=0 QTime=0
2019-11-17 11:51:08.323 INFO  (qtp1850180796-14) [   ] o.a.s.s.HttpSolrCall [admin] webapp=null path=/admin/info/system params={wt=json&_=1573991468133} status=0 QTime=24
2019-11-17 11:51:21.869 INFO  (qtp1850180796-23) [   x:sportPerson] o.a.s.c.S.Request [sportPerson]  webapp=/solr path=/select params={q=url:"www.wikipedia.org"&_=1573991468256} hits=0 status=0 QTime=7
2019-11-17 11:51:38.328 INFO  (qtp1850180796-14) [   x:sportPerson] o.a.s.c.S.Request [sportPerson]  webapp=/solr path=/select params={q=url:"www.wikipedia.org"&_=1573991468256} hits=0 status=0 QTime=3
2019-11-17 11:56:20.737 INFO  (qtp1850180796-19) [   x:sportPerson] o.a.s.c.S.Request [sportPerson]  webapp=/solr path=/select params={q=content:"cannavaro"~10&hl=on&hl.fragsize=450&hl.fl=content} hits=0 status=0 QTime=2
2019-11-17 11:56:34.620 INFO  (qtp1850180796-14) [   x:sportPerson] o.a.s.c.S.Request [sportPerson]  webapp=/solr path=/select params={q=content:"Huang+Zhong"~10&hl=on&hl.fragsize=450&hl.fl=content} hits=0 status=0 QTime=3
2019-11-17 11:56:35.660 INFO  (qtp1850180796-19) [   x:sportPerson] o.a.s.c.S.Request [sportPerson]  webapp=/solr path=/select params={q=content:"Huang+Zhong"~10&hl=on&hl.fragsize=450&hl.fl=content} hits=0 status=0 QTime=0
2019-11-17 11:56:35.815 INFO  (qtp1850180796-14) [   x:sportPerson] o.a.s.c.S.Request [sportPerson]  webapp=/solr path=/select params={q=content:"Huang+Zhong"~10&hl=on&hl.fragsize=450&hl.fl=content} hits=0 status=0 QTime=0
2019-11-17 11:56:35.972 INFO  (qtp1850180796-19) [   x:sportPerson] o.a.s.c.S.Request [sportPerson]  webapp=/solr path=/select params={q=content:"Huang+Zhong"~10&hl=on&hl.fragsize=450&hl.fl=content} hits=0 status=0 QTime=1
2019-11-17 11:56:36.102 INFO  (qtp1850180796-14) [   x:sportPerson] o.a.s.c.S.Request [sportPerson]  webapp=/solr path=/select params={q=content:"Huang+Zhong"~10&hl=on&hl.fragsize=450&hl.fl=content} hits=0 status=0 QTime=0
2019-11-17 11:56:36.434 INFO  (qtp1850180796-20) [   x:sportPerson] o.a.s.c.S.Request [sportPerson]  webapp=/solr path=/select params={q=content:"Huang+Zhong"~10&hl=on&hl.fragsize=450&hl.fl=content} hits=0 status=0 QTime=0
2019-11-17 11:56:36.677 INFO  (qtp1850180796-14) [   x:sportPerson] o.a.s.c.S.Request [sportPerson]  webapp=/solr path=/select params={q=content:"Huang+Zhong"~10&hl=on&hl.fragsize=450&hl.fl=content} hits=0 status=0 QTime=0
2019-11-17 11:56:36.878 INFO  (qtp1850180796-20) [   x:sportPerson] o.a.s.c.S.Request [sportPerson]  webapp=/solr path=/select params={q=content:"Huang+Zhong"~10&hl=on&hl.fragsize=450&hl.fl=content} hits=0 status=0 QTime=0
2019-11-17 11:56:37.035 INFO  (qtp1850180796-14) [   x:sportPerson] o.a.s.c.S.Request [sportPerson]  webapp=/solr path=/select params={q=content:"Huang+Zhong"~10&hl=on&hl.fragsize=450&hl.fl=content} hits=0 status=0 QTime=0
2019-11-17 11:56:37.230 INFO  (qtp1850180796-20) [   x:sportPerson] o.a.s.c.S.Request [sportPerson]  webapp=/solr path=/select params={q=content:"Huang+Zhong"~10&hl=on&hl.fragsize=450&hl.fl=content} hits=0 status=0 QTime=0
2019-11-17 11:56:38.534 INFO  (qtp1850180796-19) [   x:sportPerson] o.a.s.c.S.Request [sportPerson]  webapp=/solr path=/select params={q=content:"Huang+Zhong"~10&hl=on&hl.fragsize=450&hl.fl=content} hits=0 status=0 QTime=0
2019-11-17 11:56:52.191 INFO  (qtp1850180796-20) [   x:sportPerson] o.a.s.c.S.Request [sportPerson]  webapp=/solr path=/select params={q=content:"Huang+Zhong"~10&hl=on&hl.fragsize=450&hl.fl=content} hits=0 status=0 QTime=0
2019-11-17 11:56:52.491 INFO  (qtp1850180796-14) [   x:sportPerson] o.a.s.c.S.Request [sportPerson]  webapp=/solr path=/select params={q=content:"Huang+Zhong"~10&hl=on&hl.fragsize=450&hl.fl=content} hits=0 status=0 QTime=0
2019-11-17 11:56:52.964 INFO  (qtp1850180796-20) [   x:sportPerson] o.a.s.c.S.Request [sportPerson]  webapp=/solr path=/select params={q=content:"Huang+Zhong"~10&hl=on&hl.fragsize=450&hl.fl=content} hits=0 status=0 QTime=0
2019-11-17 13:39:27.407 INFO  (qtp1850180796-42) [   x:sportPerson] o.a.s.u.DirectUpdateHandler2 start commit{_version_=1650456492671762432,optimize=false,openSearcher=true,waitSearcher=true,expungeDeletes=false,softCommit=false,prepareCommit=false}
2019-11-17 13:39:27.408 INFO  (qtp1850180796-42) [   x:sportPerson] o.a.s.u.DirectUpdateHandler2 No uncommitted changes. Skipping IW.commit.
2019-11-17 13:39:27.411 INFO  (qtp1850180796-42) [   x:sportPerson] o.a.s.u.DirectUpdateHandler2 end_commit_flush
2019-11-17 13:39:27.411 INFO  (qtp1850180796-42) [   x:sportPerson] o.a.s.u.p.LogUpdateProcessorFactory [sportPerson]  webapp=/solr path=/update params={waitSearcher=true&commit=true&softCommit=false&wt=javabin&version=2}{commit=} 0 6
2019-11-17 13:39:27.432 INFO  (qtp1850180796-19) [   x:sportPerson] o.a.s.u.DirectUpdateHandler2 start commit{_version_=1650456492697976832,optimize=false,openSearcher=true,waitSearcher=true,expungeDeletes=false,softCommit=false,prepareCommit=false}
2019-11-17 13:39:27.432 INFO  (qtp1850180796-19) [   x:sportPerson] o.a.s.u.DirectUpdateHandler2 No uncommitted changes. Skipping IW.commit.
2019-11-17 13:39:27.433 INFO  (qtp1850180796-19) [   x:sportPerson] o.a.s.u.DirectUpdateHandler2 end_commit_flush
2019-11-17 13:39:27.433 INFO  (qtp1850180796-19) [   x:sportPerson] o.a.s.u.p.LogUpdateProcessorFactory [sportPerson]  webapp=/solr path=/update params={waitSearcher=true&commit=true&softCommit=false&wt=javabin&version=2}{commit=} 0 0
2019-11-17 13:39:59.408 ERROR (qtp1850180796-20) [   x:sportPerson] o.a.s.h.RequestHandlerBase org.apache.solr.common.SolrException: undefined field _text_
	at org.apache.solr.schema.IndexSchema.getDynamicFieldType(IndexSchema.java:1305)
	at org.apache.solr.schema.IndexSchema.getFieldType(IndexSchema.java:1257)
	at org.apache.solr.parser.SolrQueryParserBase.getWildcardQuery(SolrQueryParserBase.java:1195)
	at org.apache.solr.parser.SolrQueryParserBase.handleBareTokenQuery(SolrQueryParserBase.java:785)
	at org.apache.solr.parser.QueryParser.Term(QueryParser.java:421)
	at org.apache.solr.parser.QueryParser.Clause(QueryParser.java:278)
	at org.apache.solr.parser.QueryParser.Query(QueryParser.java:162)
	at org.apache.solr.parser.QueryParser.TopLevelQuery(QueryParser.java:131)
	at org.apache.solr.parser.SolrQueryParserBase.parse(SolrQueryParserBase.java:260)
	at org.apache.solr.search.LuceneQParser.parse(LuceneQParser.java:49)
	at org.apache.solr.search.QParser.getQuery(QParser.java:174)
	at org.apache.solr.handler.component.QueryComponent.prepare(QueryComponent.java:160)
	at org.apache.solr.handler.component.SearchHandler.handleRequestBody(SearchHandler.java:279)
	at org.apache.solr.handler.RequestHandlerBase.handleRequest(RequestHandlerBase.java:198)
	at org.apache.solr.core.SolrCore.execute(SolrCore.java:2576)
	at org.apache.solr.servlet.HttpSolrCall.execute(HttpSolrCall.java:803)
	at org.apache.solr.servlet.HttpSolrCall.call(HttpSolrCall.java:582)
	at org.apache.solr.servlet.SolrDispatchFilter.doFilter(SolrDispatchFilter.java:424)
	at org.apache.solr.servlet.SolrDispatchFilter.doFilter(SolrDispatchFilter.java:351)
	at org.eclipse.jetty.servlet.ServletHandler$CachedChain.doFilter(ServletHandler.java:1602)
	at org.eclipse.jetty.servlet.ServletHandler.doHandle(ServletHandler.java:540)
	at org.eclipse.jetty.server.handler.ScopedHandler.handle(ScopedHandler.java:146)
	at org.eclipse.jetty.security.SecurityHandler.handle(SecurityHandler.java:548)
	at org.eclipse.jetty.server.handler.HandlerWrapper.handle(HandlerWrapper.java:132)
	at org.eclipse.jetty.server.handler.ScopedHandler.nextHandle(ScopedHandler.java:257)
	at org.eclipse.jetty.server.session.SessionHandler.doHandle(SessionHandler.java:1711)
	at org.eclipse.jetty.server.handler.ScopedHandler.nextHandle(ScopedHandler.java:255)
	at org.eclipse.jetty.server.handler.ContextHandler.doHandle(ContextHandler.java:1347)
	at org.eclipse.jetty.server.handler.ScopedHandler.nextScope(ScopedHandler.java:203)
	at org.eclipse.jetty.servlet.ServletHandler.doScope(ServletHandler.java:480)
	at org.eclipse.jetty.server.session.SessionHandler.doScope(SessionHandler.java:1678)
	at org.eclipse.jetty.server.handler.ScopedHandler.nextScope(ScopedHandler.java:201)
	at org.eclipse.jetty.server.handler.ContextHandler.doScope(ContextHandler.java:1249)
	at org.eclipse.jetty.server.handler.ScopedHandler.handle(ScopedHandler.java:144)
	at org.eclipse.jetty.server.handler.ContextHandlerCollection.handle(ContextHandlerCollection.java:220)
	at org.eclipse.jetty.server.handler.HandlerCollection.handle(HandlerCollection.java:152)
	at org.eclipse.jetty.server.handler.HandlerWrapper.handle(HandlerWrapper.java:132)
	at org.eclipse.jetty.rewrite.handler.RewriteHandler.handle(RewriteHandler.java:335)
	at org.eclipse.jetty.server.handler.HandlerWrapper.handle(HandlerWrapper.java:132)
	at org.eclipse.jetty.server.Server.handle(Server.java:505)
	at org.eclipse.jetty.server.HttpChannel.handle(HttpChannel.java:370)
	at org.eclipse.jetty.server.HttpConnection.onFillable(HttpConnection.java:267)
	at org.eclipse.jetty.io.AbstractConnection$ReadCallback.succeeded(AbstractConnection.java:305)
	at org.eclipse.jetty.io.FillInterest.fillable(FillInterest.java:103)
	at org.eclipse.jetty.io.ChannelEndPoint$2.run(ChannelEndPoint.java:117)
	at org.eclipse.jetty.util.thread.strategy.EatWhatYouKill.runTask(EatWhatYouKill.java:333)
	at org.eclipse.jetty.util.thread.strategy.EatWhatYouKill.doProduce(EatWhatYouKill.java:310)
	at org.eclipse.jetty.util.thread.strategy.EatWhatYouKill.tryProduce(EatWhatYouKill.java:168)
	at org.eclipse.jetty.util.thread.strategy.EatWhatYouKill.run(EatWhatYouKill.java:126)
	at org.eclipse.jetty.util.thread.ReservedThreadExecutor$ReservedThread.run(ReservedThreadExecutor.java:366)
	at org.eclipse.jetty.util.thread.QueuedThreadPool.runJob(QueuedThreadPool.java:781)
	at org.eclipse.jetty.util.thread.QueuedThreadPool$Runner.run(QueuedThreadPool.java:917)
	at java.lang.Thread.run(Thread.java:748)

2019-11-17 13:39:59.409 INFO  (qtp1850180796-20) [   x:sportPerson] o.a.s.c.S.Request [sportPerson]  webapp=/solr path=/select params={q=*.*&_=1573991468256} status=400 QTime=6
2019-11-17 13:40:09.407 INFO  (qtp1850180796-20) [   ] o.a.s.s.HttpSolrCall [admin] webapp=null path=/admin/cores params={indexInfo=false&wt=json&_=1573998009243} status=0 QTime=0
2019-11-17 13:40:09.443 INFO  (qtp1850180796-19) [   ] o.a.s.s.HttpSolrCall [admin] webapp=null path=/admin/info/system params={wt=json&_=1573998009244} status=0 QTime=36
2019-11-17 13:40:10.980 INFO  (qtp1850180796-19) [   x:sportPerson] o.a.s.c.S.Request [sportPerson]  webapp=/solr path=/select params={q=*:*&_=1573998009371} hits=66 status=0 QTime=1
2019-11-17 13:40:32.299 INFO  (qtp1850180796-14) [   x:sportPerson] o.a.s.c.S.Request [sportPerson]  webapp=/solr path=/select params={q=content:"federer"~10&hl=on&hl.fragsize=450&hl.fl=content} hits=6 status=0 QTime=68
2019-11-17 13:40:44.404 INFO  (qtp1850180796-15) [   x:sportPerson] o.a.s.c.S.Request [sportPerson]  webapp=/solr path=/select params={q=content:"roger"~10&hl=on&hl.fragsize=450&hl.fl=content} hits=11 status=0 QTime=76
2019-11-17 13:40:46.264 INFO  (qtp1850180796-19) [   x:sportPerson] o.a.s.c.S.Request [sportPerson]  webapp=/solr path=/select params={q=content:"roger"~10&hl=on&hl.fragsize=450&hl.fl=content} hits=11 status=0 QTime=38
2019-11-17 13:40:52.968 INFO  (qtp1850180796-15) [   x:sportPerson] o.a.s.c.S.Request [sportPerson]  webapp=/solr path=/select params={q=content:"claudio"~10&hl=on&hl.fragsize=450&hl.fl=content} hits=1 status=0 QTime=4
2019-11-17 13:42:36.648 INFO  (qtp1850180796-19) [   x:sportPerson] o.a.s.c.S.Request [sportPerson]  webapp=/solr path=/select params={q=content:"williams"~10&hl=on&hl.fragsize=450&hl.fl=content} hits=13 status=0 QTime=55
2019-11-17 13:43:16.446 INFO  (qtp1850180796-14) [   x:sportPerson] o.a.s.c.S.Request [sportPerson]  webapp=/solr path=/select params={q=content:"williams"~10&hl=on&hl.fragsize=450&hl.fl=content} hits=13 status=0 QTime=59
2019-11-17 13:43:20.685 INFO  (qtp1850180796-17) [   x:sportPerson] o.a.s.c.S.Request [sportPerson]  webapp=/solr path=/select params={q=content:"w"~10&hl=on&hl.fragsize=450&hl.fl=content} hits=7 status=0 QTime=70
2019-11-17 13:43:24.951 INFO  (qtp1850180796-19) [   x:sportPerson] o.a.s.c.S.Request [sportPerson]  webapp=/solr path=/select params={q=content:"we"~10&hl=on&hl.fragsize=450&hl.fl=content} hits=30 status=0 QTime=47
2019-11-17 13:43:27.024 INFO  (qtp1850180796-14) [   x:sportPerson] o.a.s.c.S.Request [sportPerson]  webapp=/solr path=/select params={q=content:"wew"~10&hl=on&hl.fragsize=450&hl.fl=content} hits=0 status=0 QTime=0
2019-11-17 13:43:30.832 INFO  (qtp1850180796-17) [   x:sportPerson] o.a.s.c.S.Request [sportPerson]  webapp=/solr path=/select params={q=content:"a"~10&hl=on&hl.fragsize=450&hl.fl=content} hits=59 status=0 QTime=73
2019-11-17 13:43:33.943 INFO  (qtp1850180796-19) [   x:sportPerson] o.a.s.c.S.Request [sportPerson]  webapp=/solr path=/select params={q=content:"aa"~10&hl=on&hl.fragsize=450&hl.fl=content} hits=0 status=0 QTime=1
2019-11-17 13:43:37.225 INFO  (qtp1850180796-14) [   x:sportPerson] o.a.s.c.S.Request [sportPerson]  webapp=/solr path=/select params={q=content:"a"~10&hl=on&hl.fragsize=450&hl.fl=content} hits=59 status=0 QTime=103
2019-11-17 13:43:39.894 INFO  (qtp1850180796-19) [   x:sportPerson] o.a.s.c.S.Request [sportPerson]  webapp=/solr path=/select params={q=content:"b"~10&hl=on&hl.fragsize=450&hl.fl=content} hits=6 status=0 QTime=52
2019-11-17 13:43:45.228 INFO  (qtp1850180796-17) [   x:sportPerson] o.a.s.c.S.Request [sportPerson]  webapp=/solr path=/select params={q=content:"v"~10&hl=on&hl.fragsize=450&hl.fl=content} hits=17 status=0 QTime=60
2019-11-17 13:45:24.612 INFO  (qtp1850180796-19) [   x:sportPerson] o.a.s.c.S.Request [sportPerson]  webapp=/solr path=/select params={q=content:"williams"~10&hl=on&hl.fragsize=450&hl.fl=content} hits=13 status=0 QTime=72
2019-11-17 13:45:26.626 INFO  (qtp1850180796-14) [   x:sportPerson] o.a.s.c.S.Request [sportPerson]  webapp=/solr path=/select params={q=content:"williams"~10&hl=on&hl.fragsize=450&hl.fl=content} hits=13 status=0 QTime=37
2019-11-17 13:45:31.252 INFO  (qtp1850180796-19) [   x:sportPerson] o.a.s.c.S.Request [sportPerson]  webapp=/solr path=/select params={q=content:"roger"~10&hl=on&hl.fragsize=450&hl.fl=content} hits=11 status=0 QTime=40
2019-11-17 13:45:36.333 INFO  (qtp1850180796-42) [   x:sportPerson] o.a.s.c.S.Request [sportPerson]  webapp=/solr path=/select params={q=content:"bella"~10&hl=on&hl.fragsize=450&hl.fl=content} hits=3 status=0 QTime=20
2019-11-17 13:47:32.268 INFO  (qtp1850180796-19) [   x:sportPerson] o.a.s.c.S.Request [sportPerson]  webapp=/solr path=/select params={q=content:"williams"~10&hl=on&hl.fragsize=450&hl.fl=content} hits=13 status=0 QTime=35
2019-11-17 13:47:34.003 INFO  (qtp1850180796-42) [   x:sportPerson] o.a.s.c.S.Request [sportPerson]  webapp=/solr path=/select params={q=content:"williams"~10&hl=on&hl.fragsize=450&hl.fl=content} hits=13 status=0 QTime=38
2019-11-17 13:47:34.932 INFO  (qtp1850180796-15) [   x:sportPerson] o.a.s.c.S.Request [sportPerson]  webapp=/solr path=/select params={q=content:"williams"~10&hl=on&hl.fragsize=450&hl.fl=content} hits=13 status=0 QTime=37
2019-11-17 13:47:35.090 INFO  (qtp1850180796-19) [   x:sportPerson] o.a.s.c.S.Request [sportPerson]  webapp=/solr path=/select params={q=content:"williams"~10&hl=on&hl.fragsize=450&hl.fl=content} hits=13 status=0 QTime=25
2019-11-17 13:47:35.255 INFO  (qtp1850180796-15) [   x:sportPerson] o.a.s.c.S.Request [sportPerson]  webapp=/solr path=/select params={q=content:"williams"~10&hl=on&hl.fragsize=450&hl.fl=content} hits=13 status=0 QTime=33
2019-11-17 13:47:35.404 INFO  (qtp1850180796-42) [   x:sportPerson] o.a.s.c.S.Request [sportPerson]  webapp=/solr path=/select params={q=content:"williams"~10&hl=on&hl.fragsize=450&hl.fl=content} hits=13 status=0 QTime=29
2019-11-17 13:47:35.578 INFO  (qtp1850180796-19) [   x:sportPerson] o.a.s.c.S.Request [sportPerson]  webapp=/solr path=/select params={q=content:"williams"~10&hl=on&hl.fragsize=450&hl.fl=content} hits=13 status=0 QTime=28
2019-11-17 13:47:35.710 INFO  (qtp1850180796-42) [   x:sportPerson] o.a.s.c.S.Request [sportPerson]  webapp=/solr path=/select params={q=content:"williams"~10&hl=on&hl.fragsize=450&hl.fl=content} hits=13 status=0 QTime=28
2019-11-17 13:47:35.827 INFO  (qtp1850180796-15) [   x:sportPerson] o.a.s.c.S.Request [sportPerson]  webapp=/solr path=/select params={q=content:"williams"~10&hl=on&hl.fragsize=450&hl.fl=content} hits=13 status=0 QTime=27
2019-11-17 13:47:40.935 INFO  (qtp1850180796-19) [   x:sportPerson] o.a.s.c.S.Request [sportPerson]  webapp=/solr path=/select params={q=content:"roger"~10&hl=on&hl.fragsize=450&hl.fl=content} hits=11 status=0 QTime=43
2019-11-17 13:48:08.681 INFO  (qtp1850180796-15) [   x:sportPerson] o.a.s.c.S.Request [sportPerson]  webapp=/solr path=/select params={q=content:"nadal"~10&hl=on&hl.fragsize=450&hl.fl=content} hits=5 status=0 QTime=29
2019-11-17 13:48:56.656 INFO  (ShutdownMonitor) [   ] o.e.j.s.AbstractConnector Stopped ServerConnector@4b2bac3f{HTTP/1.1,[http/1.1, h2c]}{0.0.0.0:8983}
2019-11-17 13:48:56.656 INFO  (ShutdownMonitor) [   ] o.e.j.s.session node0 Stopped scavenging
2019-11-17 13:48:56.665 INFO  (ShutdownMonitor) [   ] o.a.s.c.CoreContainer Shutting down CoreContainer instance=208684473
2019-11-17 13:48:56.667 INFO  (coreCloseExecutor-15-thread-1) [   x:sportPerson] o.a.s.c.SolrCore [sportPerson]  CLOSING SolrCore org.apache.solr.core.SolrCore@41734605
2019-11-17 13:48:56.667 INFO  (coreCloseExecutor-15-thread-1) [   x:sportPerson] o.a.s.m.SolrMetricManager Closing metric reporters for registry=solr.core.sportPerson, tag=SolrCore@41734605
2019-11-17 13:48:56.669 INFO  (coreCloseExecutor-15-thread-1) [   x:sportPerson] o.a.s.m.r.SolrJmxReporter Closing reporter [org.apache.solr.metrics.reporters.SolrJmxReporter@3a58c6f1: rootName = null, domain = solr.core.sportPerson, service url = null, agent id = null] for registry solr.core.sportPerson / com.codahale.metrics.MetricRegistry@5fdb4b66
2019-11-17 13:48:56.741 INFO  (ShutdownMonitor) [   ] o.a.s.m.SolrMetricManager Closing metric reporters for registry=solr.node, tag=null
2019-11-17 13:48:56.741 INFO  (ShutdownMonitor) [   ] o.a.s.m.r.SolrJmxReporter Closing reporter [org.apache.solr.metrics.reporters.SolrJmxReporter@ab7a938: rootName = null, domain = solr.node, service url = null, agent id = null] for registry solr.node / com.codahale.metrics.MetricRegistry@44321411
2019-11-17 13:48:56.747 INFO  (ShutdownMonitor) [   ] o.a.s.m.SolrMetricManager Closing metric reporters for registry=solr.jvm, tag=null
2019-11-17 13:48:56.748 INFO  (ShutdownMonitor) [   ] o.a.s.m.r.SolrJmxReporter Closing reporter [org.apache.solr.metrics.reporters.SolrJmxReporter@5dbe30be: rootName = null, domain = solr.jvm, service url = null, agent id = null] for registry solr.jvm / com.codahale.metrics.MetricRegistry@19436f09
2019-11-17 13:48:56.751 INFO  (ShutdownMonitor) [   ] o.a.s.m.SolrMetricManager Closing metric reporters for registry=solr.jetty, tag=null
2019-11-17 13:48:56.751 INFO  (ShutdownMonitor) [   ] o.a.s.m.r.SolrJmxReporter Closing reporter [org.apache.solr.metrics.reporters.SolrJmxReporter@4fe89c24: rootName = null, domain = solr.jetty, service url = null, agent id = null] for registry solr.jetty / com.codahale.metrics.MetricRegistry@1245b0d6
2019-11-17 13:48:56.768 INFO  (ShutdownMonitor) [   ] o.e.j.s.h.ContextHandler Stopped o.e.j.w.WebAppContext@693fe6c9{/solr,null,UNAVAILABLE}{/Users/omini/IRP/solr-8.3.0/server/solr-webapp/webapp}
