2019-11-17 15:10:25.529 INFO  (main) [   ] o.e.j.u.log Logging initialized @1689ms to org.eclipse.jetty.util.log.Slf4jLog
2019-11-17 15:10:25.686 WARN  (main) [   ] o.e.j.x.XmlConfiguration Deprecated method public void org.eclipse.jetty.rewrite.handler.RedirectRegexRule.setReplacement(java.lang.String) in file:///Users/omini/IRP/solr-8.3.0/server/etc/jetty.xml
2019-11-17 15:10:25.800 WARN  (main) [   ] o.e.j.s.AbstractConnector Ignoring deprecated socket close linger time
2019-11-17 15:10:25.800 WARN  (main) [   ] o.e.j.x.XmlConfiguration Deprecated method public void org.eclipse.jetty.server.ServerConnector.setSoLingerTime(int) in file:///Users/omini/IRP/solr-8.3.0/server/etc/jetty-http.xml
2019-11-17 15:10:25.811 INFO  (main) [   ] o.e.j.s.Server jetty-9.4.19.v20190610; built: 2019-06-10T16:30:51.723Z; git: afcf563148970e98786327af5e07c261fda175d3; jvm 1.8.0_222-b10
2019-11-17 15:10:25.842 INFO  (main) [   ] o.e.j.d.p.ScanningAppProvider Deployment monitor [file:///Users/omini/IRP/solr-8.3.0/server/contexts/] at interval 0
2019-11-17 15:10:26.329 INFO  (main) [   ] o.e.j.w.StandardDescriptorProcessor NO JSP Support for /solr, did not find org.apache.jasper.servlet.JspServlet
2019-11-17 15:10:26.343 INFO  (main) [   ] o.e.j.s.session DefaultSessionIdManager workerName=node0
2019-11-17 15:10:26.343 INFO  (main) [   ] o.e.j.s.session No SessionScavenger set, using defaults
2019-11-17 15:10:26.346 INFO  (main) [   ] o.e.j.s.session node0 Scavenging every 660000ms
2019-11-17 15:10:26.471 INFO  (main) [   ] o.a.s.s.SolrDispatchFilter Using logger factory org.apache.logging.slf4j.Log4jLoggerFactory
2019-11-17 15:10:26.482 INFO  (main) [   ] o.a.s.s.SolrDispatchFilter  ___      _       Welcome to Apache Solr™ version 8.3.0
2019-11-17 15:10:26.482 INFO  (main) [   ] o.a.s.s.SolrDispatchFilter / __| ___| |_ _   Starting in standalone mode on port 8983
2019-11-17 15:10:26.482 INFO  (main) [   ] o.a.s.s.SolrDispatchFilter \__ \/ _ \ | '_|  Install dir: /Users/omini/IRP/solr-8.3.0
2019-11-17 15:10:26.484 INFO  (main) [   ] o.a.s.s.SolrDispatchFilter |___/\___/_|_|    Start time: 2019-11-17T15:10:26.484Z
2019-11-17 15:10:26.521 INFO  (main) [   ] o.a.s.c.SolrResourceLoader Using system property solr.solr.home: /Users/omini/IRP/solr-8.3.0/server/solr
2019-11-17 15:10:26.530 INFO  (main) [   ] o.a.s.c.SolrXmlConfig Loading container configuration from /Users/omini/IRP/solr-8.3.0/server/solr/solr.xml
2019-11-17 15:10:26.645 INFO  (main) [   ] o.a.s.c.SolrXmlConfig MBean server found: com.sun.jmx.mbeanserver.JmxMBeanServer@14ec4505, but no JMX reporters were configured - adding default JMX reporter.
2019-11-17 15:10:27.236 INFO  (main) [   ] o.a.s.h.c.HttpShardHandlerFactory Host whitelist initialized: WhitelistHostChecker [whitelistHosts=null, whitelistHostCheckingEnabled=true]
2019-11-17 15:10:27.416 WARN  (main) [   ] o.e.j.u.s.S.config Trusting all certificates configured for Client@4ce1d6d0[provider=null,keyStore=null,trustStore=null]
2019-11-17 15:10:27.416 WARN  (main) [   ] o.e.j.u.s.S.config No Client EndPointIdentificationAlgorithm configured for Client@4ce1d6d0[provider=null,keyStore=null,trustStore=null]
2019-11-17 15:10:27.658 WARN  (main) [   ] o.e.j.u.s.S.config Trusting all certificates configured for Client@77a7cf58[provider=null,keyStore=null,trustStore=null]
2019-11-17 15:10:27.658 WARN  (main) [   ] o.e.j.u.s.S.config No Client EndPointIdentificationAlgorithm configured for Client@77a7cf58[provider=null,keyStore=null,trustStore=null]
2019-11-17 15:10:27.878 INFO  (main) [   ] o.a.s.c.TransientSolrCoreCacheDefault Allocating transient cache for 2147483647 transient cores
2019-11-17 15:10:27.881 INFO  (main) [   ] o.a.s.h.a.MetricsHistoryHandler No .system collection, keeping metrics history in memory.
2019-11-17 15:10:27.978 INFO  (main) [   ] o.a.s.m.r.SolrJmxReporter JMX monitoring for 'solr.node' (registry 'solr.node') enabled at server: com.sun.jmx.mbeanserver.JmxMBeanServer@14ec4505
2019-11-17 15:10:27.979 INFO  (main) [   ] o.a.s.m.r.SolrJmxReporter JMX monitoring for 'solr.jvm' (registry 'solr.jvm') enabled at server: com.sun.jmx.mbeanserver.JmxMBeanServer@14ec4505
2019-11-17 15:10:27.992 INFO  (main) [   ] o.a.s.m.r.SolrJmxReporter JMX monitoring for 'solr.jetty' (registry 'solr.jetty') enabled at server: com.sun.jmx.mbeanserver.JmxMBeanServer@14ec4505
2019-11-17 15:10:28.098 INFO  (main) [   ] o.a.s.c.CorePropertiesLocator Found 1 core definitions underneath /Users/omini/IRP/solr-8.3.0/server/solr
2019-11-17 15:10:28.100 INFO  (main) [   ] o.a.s.c.CorePropertiesLocator Cores are: [sportPerson]
2019-11-17 15:10:28.180 INFO  (coreLoadExecutor-9-thread-1) [   x:sportPerson] o.a.s.c.SolrResourceLoader [sportPerson] Added 61 libs to classloader, from paths: [/Users/omini/IRP/solr-8.3.0/contrib/clustering/lib, /Users/omini/IRP/solr-8.3.0/contrib/extraction/lib, /Users/omini/IRP/solr-8.3.0/contrib/langid/lib, /Users/omini/IRP/solr-8.3.0/contrib/velocity/lib, /Users/omini/IRP/solr-8.3.0/dist]
2019-11-17 15:10:28.229 INFO  (main) [   ] o.e.j.s.h.ContextHandler Started o.e.j.w.WebAppContext@693fe6c9{/solr,file:///Users/omini/IRP/solr-8.3.0/server/solr-webapp/webapp/,AVAILABLE}{/Users/omini/IRP/solr-8.3.0/server/solr-webapp/webapp}
2019-11-17 15:10:28.245 INFO  (main) [   ] o.e.j.s.AbstractConnector Started ServerConnector@4b2bac3f{HTTP/1.1,[http/1.1, h2c]}{0.0.0.0:8983}
2019-11-17 15:10:28.245 INFO  (main) [   ] o.e.j.s.Server Started @4407ms
2019-11-17 15:10:28.529 INFO  (coreLoadExecutor-9-thread-1) [   x:sportPerson] o.a.s.c.SolrConfig Using Lucene MatchVersion: 8.3.0
2019-11-17 15:10:28.735 INFO  (coreLoadExecutor-9-thread-1) [   x:sportPerson] o.a.s.s.IndexSchema [sportPerson] Schema name=nutch
2019-11-17 15:10:28.801 WARN  (coreLoadExecutor-9-thread-1) [   x:sportPerson] o.a.s.c.SolrResourceLoader Solr loaded a deprecated plugin/analysis class [solr.TrieDateField]. Please consult documentation how to replace it accordingly.
2019-11-17 15:10:28.806 WARN  (coreLoadExecutor-9-thread-1) [   x:sportPerson] o.a.s.c.SolrResourceLoader Solr loaded a deprecated plugin/analysis class [solr.TrieDoubleField]. Please consult documentation how to replace it accordingly.
2019-11-17 15:10:28.810 WARN  (coreLoadExecutor-9-thread-1) [   x:sportPerson] o.a.s.c.SolrResourceLoader Solr loaded a deprecated plugin/analysis class [solr.TrieFloatField]. Please consult documentation how to replace it accordingly.
2019-11-17 15:10:28.815 WARN  (coreLoadExecutor-9-thread-1) [   x:sportPerson] o.a.s.c.SolrResourceLoader Solr loaded a deprecated plugin/analysis class [solr.TrieIntField]. Please consult documentation how to replace it accordingly.
2019-11-17 15:10:28.821 WARN  (coreLoadExecutor-9-thread-1) [   x:sportPerson] o.a.s.c.SolrResourceLoader Solr loaded a deprecated plugin/analysis class [solr.LatLonType]. Please consult documentation how to replace it accordingly.
2019-11-17 15:10:28.825 WARN  (coreLoadExecutor-9-thread-1) [   x:sportPerson] o.a.s.c.SolrResourceLoader Solr loaded a deprecated plugin/analysis class [solr.TrieLongField]. Please consult documentation how to replace it accordingly.
2019-11-17 15:10:28.875 WARN  (coreLoadExecutor-9-thread-1) [   x:sportPerson] o.a.s.c.SolrResourceLoader Solr loaded a deprecated plugin/analysis class [solr.SynonymFilterFactory]. Please consult documentation how to replace it accordingly.
2019-11-17 15:10:28.880 WARN  (coreLoadExecutor-9-thread-1) [   x:sportPerson] o.a.s.c.SolrResourceLoader Solr loaded a deprecated plugin/analysis class [solr.WordDelimiterFilterFactory]. Please consult documentation how to replace it accordingly.
2019-11-17 15:10:29.034 INFO  (coreLoadExecutor-9-thread-1) [   x:sportPerson] o.a.s.s.IndexSchema Loaded schema nutch/1.5 with uniqueid field id
2019-11-17 15:10:29.055 INFO  (coreLoadExecutor-9-thread-1) [   x:sportPerson] o.a.s.c.CoreContainer Creating SolrCore 'sportPerson' using configuration from instancedir /Users/omini/IRP/solr-8.3.0/server/solr/sportPerson, trusted=true
2019-11-17 15:10:29.096 INFO  (coreLoadExecutor-9-thread-1) [   x:sportPerson] o.a.s.m.r.SolrJmxReporter JMX monitoring for 'solr.core.sportPerson' (registry 'solr.core.sportPerson') enabled at server: com.sun.jmx.mbeanserver.JmxMBeanServer@14ec4505
2019-11-17 15:10:29.115 INFO  (coreLoadExecutor-9-thread-1) [   x:sportPerson] o.a.s.c.SolrCore [[sportPerson] ] Opening new SolrCore at [/Users/omini/IRP/solr-8.3.0/server/solr/sportPerson], dataDir=[/Users/omini/IRP/solr-8.3.0/server/solr/sportPerson/data/]
2019-11-17 15:10:29.165 INFO  (coreLoadExecutor-9-thread-1) [   x:sportPerson] o.a.s.r.XSLTResponseWriter xsltCacheLifetimeSeconds=5
2019-11-17 15:10:29.778 INFO  (coreLoadExecutor-9-thread-1) [   x:sportPerson] o.a.s.u.UpdateHandler Using UpdateLog implementation: org.apache.solr.update.UpdateLog
2019-11-17 15:10:29.778 INFO  (coreLoadExecutor-9-thread-1) [   x:sportPerson] o.a.s.u.UpdateLog Initializing UpdateLog: dataDir= defaultSyncLevel=FLUSH numRecordsToKeep=100 maxNumLogsToKeep=10 numVersionBuckets=65536
2019-11-17 15:10:29.815 INFO  (coreLoadExecutor-9-thread-1) [   x:sportPerson] o.a.s.u.CommitTracker Hard AutoCommit: if uncommitted for 15000ms; 
2019-11-17 15:10:29.815 INFO  (coreLoadExecutor-9-thread-1) [   x:sportPerson] o.a.s.u.CommitTracker Soft AutoCommit: disabled
2019-11-17 15:10:29.949 INFO  (coreLoadExecutor-9-thread-1) [   x:sportPerson] o.a.s.s.SolrIndexSearcher Opening [Searcher@4e76898a[sportPerson] main]
2019-11-17 15:10:29.962 INFO  (coreLoadExecutor-9-thread-1) [   x:sportPerson] o.a.s.r.ManagedResourceStorage File-based storage initialized to use dir: /Users/omini/IRP/solr-8.3.0/server/solr/sportPerson/conf
2019-11-17 15:10:29.997 INFO  (coreLoadExecutor-9-thread-1) [   x:sportPerson] o.a.s.h.c.SpellCheckComponent Initializing spell checkers
2019-11-17 15:10:30.008 INFO  (coreLoadExecutor-9-thread-1) [   x:sportPerson] o.a.s.s.DirectSolrSpellChecker init: {name=default,field=_text_,classname=solr.DirectSolrSpellChecker,distanceMeasure=internal,accuracy=0.5,maxEdits=2,minPrefix=1,maxInspections=5,minQueryLength=4,maxQueryFrequency=0.01}
2019-11-17 15:10:30.024 INFO  (coreLoadExecutor-9-thread-1) [   x:sportPerson] o.a.s.h.ReplicationHandler Commits will be reserved for 10000ms.
2019-11-17 15:10:30.053 INFO  (searcherExecutor-10-thread-1-processing-x:sportPerson) [   x:sportPerson] o.a.s.c.QuerySenderListener QuerySenderListener sending requests to Searcher@4e76898a[sportPerson] main{ExitableDirectoryReader(UninvertingDirectoryReader(Uninverting(_0(8.3.0):C66:[diagnostics={java.vendor=AdoptOpenJDK, os=Mac OS X, java.version=1.8.0_222, java.vm.version=25.222-b10, lucene.version=8.3.0, os.arch=x86_64, java.runtime.version=1.8.0_222-b10, source=flush, os.version=10.15, timestamp=1573769522048}]:[attributes={Lucene50StoredFieldsFormat.mode=BEST_SPEED}])))}
2019-11-17 15:10:30.054 INFO  (searcherExecutor-10-thread-1-processing-x:sportPerson) [   x:sportPerson] o.a.s.c.QuerySenderListener QuerySenderListener done.
2019-11-17 15:10:30.054 INFO  (searcherExecutor-10-thread-1-processing-x:sportPerson) [   x:sportPerson] o.a.s.h.c.SpellCheckComponent Loading spell index for spellchecker: default
2019-11-17 15:10:30.069 INFO  (searcherExecutor-10-thread-1-processing-x:sportPerson) [   x:sportPerson] o.a.s.c.SolrCore [sportPerson] Registered new searcher Searcher@4e76898a[sportPerson] main{ExitableDirectoryReader(UninvertingDirectoryReader(Uninverting(_0(8.3.0):C66:[diagnostics={java.vendor=AdoptOpenJDK, os=Mac OS X, java.version=1.8.0_222, java.vm.version=25.222-b10, lucene.version=8.3.0, os.arch=x86_64, java.runtime.version=1.8.0_222-b10, source=flush, os.version=10.15, timestamp=1573769522048}]:[attributes={Lucene50StoredFieldsFormat.mode=BEST_SPEED}])))}
2019-11-17 15:10:57.350 INFO  (qtp1850180796-19) [   x:sportPerson] o.a.s.c.S.Request [sportPerson]  webapp=/solr path=/select params={q=content:"shaquille"~10&hl=on&hl.fragsize=450&hl.fl=content} hits=0 status=0 QTime=81
2019-11-17 15:11:03.664 INFO  (qtp1850180796-14) [   x:sportPerson] o.a.s.c.S.Request [sportPerson]  webapp=/solr path=/select params={q=content:"neal"~10&hl=on&hl.fragsize=450&hl.fl=content} hits=0 status=0 QTime=2
2019-11-17 15:11:05.272 INFO  (qtp1850180796-15) [   x:sportPerson] o.a.s.c.S.Request [sportPerson]  webapp=/solr path=/select params={q=content:"neal"~10&hl=on&hl.fragsize=450&hl.fl=content} hits=0 status=0 QTime=0
2019-11-17 15:11:05.432 INFO  (qtp1850180796-22) [   x:sportPerson] o.a.s.c.S.Request [sportPerson]  webapp=/solr path=/select params={q=content:"neal"~10&hl=on&hl.fragsize=450&hl.fl=content} hits=0 status=0 QTime=0
2019-11-17 15:11:05.592 INFO  (qtp1850180796-23) [   x:sportPerson] o.a.s.c.S.Request [sportPerson]  webapp=/solr path=/select params={q=content:"neal"~10&hl=on&hl.fragsize=450&hl.fl=content} hits=0 status=0 QTime=0
2019-11-17 15:11:05.743 INFO  (qtp1850180796-22) [   x:sportPerson] o.a.s.c.S.Request [sportPerson]  webapp=/solr path=/select params={q=content:"neal"~10&hl=on&hl.fragsize=450&hl.fl=content} hits=0 status=0 QTime=1
2019-11-17 15:12:26.161 INFO  (qtp1850180796-23) [   x:sportPerson] o.a.s.u.DirectUpdateHandler2 start commit{_version_=1650462342419316736,optimize=false,openSearcher=true,waitSearcher=true,expungeDeletes=false,softCommit=false,prepareCommit=false}
2019-11-17 15:12:26.162 INFO  (qtp1850180796-23) [   x:sportPerson] o.a.s.u.DirectUpdateHandler2 No uncommitted changes. Skipping IW.commit.
2019-11-17 15:12:26.164 INFO  (qtp1850180796-23) [   x:sportPerson] o.a.s.u.DirectUpdateHandler2 end_commit_flush
2019-11-17 15:12:26.164 INFO  (qtp1850180796-23) [   x:sportPerson] o.a.s.u.p.LogUpdateProcessorFactory [sportPerson]  webapp=/solr path=/update params={waitSearcher=true&commit=true&softCommit=false&wt=javabin&version=2}{commit=} 0 21
2019-11-17 15:12:26.186 INFO  (qtp1850180796-18) [   x:sportPerson] o.a.s.u.DirectUpdateHandler2 start commit{_version_=1650462342445531136,optimize=false,openSearcher=true,waitSearcher=true,expungeDeletes=false,softCommit=false,prepareCommit=false}
2019-11-17 15:12:26.187 INFO  (qtp1850180796-18) [   x:sportPerson] o.a.s.u.DirectUpdateHandler2 No uncommitted changes. Skipping IW.commit.
2019-11-17 15:12:26.188 INFO  (qtp1850180796-18) [   x:sportPerson] o.a.s.u.DirectUpdateHandler2 end_commit_flush
2019-11-17 15:12:26.188 INFO  (qtp1850180796-18) [   x:sportPerson] o.a.s.u.p.LogUpdateProcessorFactory [sportPerson]  webapp=/solr path=/update params={waitSearcher=true&commit=true&softCommit=false&wt=javabin&version=2}{commit=} 0 2
2019-11-17 15:12:54.016 INFO  (qtp1850180796-22) [   x:sportPerson] o.a.s.c.S.Request [sportPerson]  webapp=/solr path=/select params={q=content:"neal"~10&hl=on&hl.fragsize=450&hl.fl=content} hits=0 status=0 QTime=0
2019-11-17 15:13:00.147 INFO  (qtp1850180796-18) [   x:sportPerson] o.a.s.c.S.Request [sportPerson]  webapp=/solr path=/select params={q=content:"federe"~10&hl=on&hl.fragsize=450&hl.fl=content} hits=0 status=0 QTime=2
2019-11-17 15:13:01.104 INFO  (qtp1850180796-22) [   x:sportPerson] o.a.s.c.S.Request [sportPerson]  webapp=/solr path=/select params={q=content:"federe"~10&hl=on&hl.fragsize=450&hl.fl=content} hits=0 status=0 QTime=0
2019-11-17 15:13:03.640 INFO  (qtp1850180796-18) [   x:sportPerson] o.a.s.c.S.Request [sportPerson]  webapp=/solr path=/select params={q=content:"federer"~10&hl=on&hl.fragsize=450&hl.fl=content} hits=6 status=0 QTime=151
2019-11-17 15:13:05.625 INFO  (qtp1850180796-22) [   x:sportPerson] o.a.s.c.S.Request [sportPerson]  webapp=/solr path=/select params={q=content:"federer"~10&hl=on&hl.fragsize=450&hl.fl=content} hits=6 status=0 QTime=40
2019-11-17 15:13:06.006 INFO  (qtp1850180796-18) [   x:sportPerson] o.a.s.c.S.Request [sportPerson]  webapp=/solr path=/select params={q=content:"federer"~10&hl=on&hl.fragsize=450&hl.fl=content} hits=6 status=0 QTime=35
2019-11-17 15:13:06.195 INFO  (qtp1850180796-22) [   x:sportPerson] o.a.s.c.S.Request [sportPerson]  webapp=/solr path=/select params={q=content:"federer"~10&hl=on&hl.fragsize=450&hl.fl=content} hits=6 status=0 QTime=22
2019-11-17 15:13:12.853 INFO  (qtp1850180796-18) [   x:sportPerson] o.a.s.c.S.Request [sportPerson]  webapp=/solr path=/select params={q=content:"williams"~10&hl=on&hl.fragsize=450&hl.fl=content} hits=13 status=0 QTime=38
2019-11-17 15:13:22.372 INFO  (qtp1850180796-20) [   x:sportPerson] o.a.s.c.S.Request [sportPerson]  webapp=/solr path=/select params={q=content:"serena+williams"~10&hl=on&hl.fragsize=450&hl.fl=content} hits=5 status=0 QTime=92
2019-11-17 15:13:28.248 INFO  (qtp1850180796-18) [   x:sportPerson] o.a.s.c.S.Request [sportPerson]  webapp=/solr path=/select params={q=content:"federer"~10&hl=on&hl.fragsize=450&hl.fl=content} hits=6 status=0 QTime=26
2019-11-17 15:14:57.760 INFO  (qtp1850180796-22) [   x:sportPerson] o.a.s.c.S.Request [sportPerson]  webapp=/solr path=/select params={q=content:"williams"~10&hl=on&hl.fragsize=450&hl.fl=content} hits=13 status=0 QTime=26
2019-11-17 15:15:36.618 INFO  (qtp1850180796-20) [   x:sportPerson] o.a.s.c.S.Request [sportPerson]  webapp=/solr path=/select params={q=content:"federe"~10&hl=on&hl.fragsize=450&hl.fl=content} hits=0 status=0 QTime=0
2019-11-17 15:15:40.255 INFO  (qtp1850180796-18) [   x:sportPerson] o.a.s.c.S.Request [sportPerson]  webapp=/solr path=/select params={q=content:"feder"~10&hl=on&hl.fragsize=450&hl.fl=content} hits=0 status=0 QTime=0
2019-11-17 15:15:43.595 INFO  (qtp1850180796-19) [   x:sportPerson] o.a.s.c.S.Request [sportPerson]  webapp=/solr path=/select params={q=content:"federer"~10&hl=on&hl.fragsize=450&hl.fl=content} hits=6 status=0 QTime=51
2019-11-17 15:16:12.331 INFO  (qtp1850180796-18) [   x:sportPerson] o.a.s.c.S.Request [sportPerson]  webapp=/solr path=/select params={q=content:"williams"~10&hl=on&hl.fragsize=450&hl.fl=content} hits=13 status=0 QTime=14
2019-11-17 15:17:37.279 INFO  (qtp1850180796-20) [   x:sportPerson] o.a.s.c.S.Request [sportPerson]  webapp=/solr path=/select params={q=content:"williams"~10&hl=on&hl.fragsize=450&hl.fl=content} hits=13 status=0 QTime=19
2019-11-17 15:17:56.063 INFO  (qtp1850180796-18) [   x:sportPerson] o.a.s.c.S.Request [sportPerson]  webapp=/solr path=/select params={q=content:"williams"~10&hl=on&hl.fragsize=450&hl.fl=content} hits=13 status=0 QTime=20
2019-11-17 15:18:07.101 INFO  (qtp1850180796-14) [   x:sportPerson] o.a.s.c.S.Request [sportPerson]  webapp=/solr path=/select params={q=content:"federer"~10&hl=on&hl.fragsize=450&hl.fl=content} hits=6 status=0 QTime=13
2019-11-17 15:18:21.328 INFO  (qtp1850180796-20) [   x:sportPerson] o.a.s.c.S.Request [sportPerson]  webapp=/solr path=/select params={q=content:"williams"~10&hl=on&hl.fragsize=450&hl.fl=content} hits=13 status=0 QTime=32
2019-11-17 15:18:45.010 INFO  (qtp1850180796-18) [   x:sportPerson] o.a.s.c.S.Request [sportPerson]  webapp=/solr path=/select params={q=content:"serena+williams"~10&hl=on&hl.fragsize=450&hl.fl=content} hits=5 status=0 QTime=33
2019-11-17 15:19:00.402 INFO  (qtp1850180796-20) [   x:sportPerson] o.a.s.c.S.Request [sportPerson]  webapp=/solr path=/select params={q=content:"williams"~10&hl=on&hl.fragsize=450&hl.fl=content} hits=13 status=0 QTime=27
2019-11-17 15:21:22.526 INFO  (qtp1850180796-14) [   x:sportPerson] o.a.s.c.S.Request [sportPerson]  webapp=/solr path=/select params={q=content:"Anna+Bessonova"~10&hl=on&hl.fragsize=450&hl.fl=content} hits=1 status=0 QTime=13
2019-11-17 15:22:01.082 INFO  (qtp1850180796-18) [   x:sportPerson] o.a.s.c.S.Request [sportPerson]  webapp=/solr path=/select params={q=content:"alan+smith"~10&hl=on&hl.fragsize=450&hl.fl=content} hits=1 status=0 QTime=7
2019-11-17 15:22:21.635 INFO  (qtp1850180796-14) [   x:sportPerson] o.a.s.c.S.Request [sportPerson]  webapp=/solr path=/select params={q=content:"zlatan"~10&hl=on&hl.fragsize=450&hl.fl=content} hits=0 status=0 QTime=1
2019-11-17 15:22:26.976 INFO  (qtp1850180796-15) [   x:sportPerson] o.a.s.c.S.Request [sportPerson]  webapp=/solr path=/select params={q=content:"nadal"~10&hl=on&hl.fragsize=450&hl.fl=content} hits=5 status=0 QTime=22
2019-11-17 15:22:39.565 INFO  (qtp1850180796-18) [   x:sportPerson] o.a.s.c.S.Request [sportPerson]  webapp=/solr path=/select params={q=content:"spanish"~10&hl=on&hl.fragsize=450&hl.fl=content} hits=40 status=0 QTime=27
2019-11-17 15:25:01.029 INFO  (ShutdownMonitor) [   ] o.e.j.s.AbstractConnector Stopped ServerConnector@4b2bac3f{HTTP/1.1,[http/1.1, h2c]}{0.0.0.0:8983}
2019-11-17 15:25:01.030 INFO  (ShutdownMonitor) [   ] o.e.j.s.session node0 Stopped scavenging
2019-11-17 15:25:01.037 INFO  (ShutdownMonitor) [   ] o.a.s.c.CoreContainer Shutting down CoreContainer instance=208684473
2019-11-17 15:25:01.039 INFO  (coreCloseExecutor-15-thread-1) [   x:sportPerson] o.a.s.c.SolrCore [sportPerson]  CLOSING SolrCore org.apache.solr.core.SolrCore@4da89f80
2019-11-17 15:25:01.039 INFO  (coreCloseExecutor-15-thread-1) [   x:sportPerson] o.a.s.m.SolrMetricManager Closing metric reporters for registry=solr.core.sportPerson, tag=SolrCore@4da89f80
2019-11-17 15:25:01.040 INFO  (coreCloseExecutor-15-thread-1) [   x:sportPerson] o.a.s.m.r.SolrJmxReporter Closing reporter [org.apache.solr.metrics.reporters.SolrJmxReporter@87ab8d6: rootName = null, domain = solr.core.sportPerson, service url = null, agent id = null] for registry solr.core.sportPerson / com.codahale.metrics.MetricRegistry@66ab0a1d
2019-11-17 15:25:01.117 INFO  (ShutdownMonitor) [   ] o.a.s.m.SolrMetricManager Closing metric reporters for registry=solr.node, tag=null
2019-11-17 15:25:01.117 INFO  (ShutdownMonitor) [   ] o.a.s.m.r.SolrJmxReporter Closing reporter [org.apache.solr.metrics.reporters.SolrJmxReporter@ab7a938: rootName = null, domain = solr.node, service url = null, agent id = null] for registry solr.node / com.codahale.metrics.MetricRegistry@660f2f2e
2019-11-17 15:25:01.124 INFO  (ShutdownMonitor) [   ] o.a.s.m.SolrMetricManager Closing metric reporters for registry=solr.jvm, tag=null
2019-11-17 15:25:01.124 INFO  (ShutdownMonitor) [   ] o.a.s.m.r.SolrJmxReporter Closing reporter [org.apache.solr.metrics.reporters.SolrJmxReporter@5dbe30be: rootName = null, domain = solr.jvm, service url = null, agent id = null] for registry solr.jvm / com.codahale.metrics.MetricRegistry@3b00d70e
2019-11-17 15:25:01.133 INFO  (ShutdownMonitor) [   ] o.a.s.m.SolrMetricManager Closing metric reporters for registry=solr.jetty, tag=null
2019-11-17 15:25:01.134 INFO  (ShutdownMonitor) [   ] o.a.s.m.r.SolrJmxReporter Closing reporter [org.apache.solr.metrics.reporters.SolrJmxReporter@4fe89c24: rootName = null, domain = solr.jetty, service url = null, agent id = null] for registry solr.jetty / com.codahale.metrics.MetricRegistry@2d2fe29
2019-11-17 15:25:01.153 INFO  (ShutdownMonitor) [   ] o.e.j.s.h.ContextHandler Stopped o.e.j.w.WebAppContext@693fe6c9{/solr,null,UNAVAILABLE}{/Users/omini/IRP/solr-8.3.0/server/solr-webapp/webapp}
